{
    "_id": "EsMrRuDoACAxLxno",
    "data": {
        "attributes": {
            "ac": {
                "value": 10
            },
            "hardness": 0,
            "hasHealth": false,
            "hp": {
                "details": "",
                "max": 0,
                "temp": 0,
                "value": 0
            },
            "stealth": {
                "details": "<p>(expert) or <em>@Compendium[pf2e.spells-srd.Detect Magic]{Detect Magic}</em></p>",
                "value": 15
            }
        },
        "creatureType": "",
        "details": {
            "description": "Necromantic runes inscribed on the cage bars and lock drain the vitality of living creatures who interact with the cage.",
            "disable": "<p>@Check[type:thievery|dc:25|name:Drain the rune's power|traits:hazard,magical,necromancy,negative,trap] (expert) to drain the runes' power harmlessly or <em>@Compendium[pf2e.spells-srd.Dispel Magic]{Dispel Magic}</em> (3rd level; counteract DC 22) to counteract the rune</p>",
            "isComplex": false,
            "level": {
                "value": 6
            },
            "reset": "",
            "routine": ""
        },
        "flavourText": "",
        "nethysUrl": "",
        "recallKnowledgeText": "",
        "saves": {
            "fortitude": {
                "saveDetail": "",
                "value": 0
            },
            "reflex": {
                "saveDetail": "",
                "value": 0
            },
            "will": {
                "saveDetail": "",
                "value": 0
            }
        },
        "sidebarText": "",
        "source": {
            "value": "Pathfinder #176: Lost Mammoth Valley"
        },
        "statusEffects": [],
        "traits": {
            "ci": [],
            "di": {
                "custom": "",
                "selected": {},
                "value": []
            },
            "dr": [],
            "dv": [],
            "rarity": "common",
            "size": {
                "value": "med"
            },
            "traits": {
                "custom": "",
                "value": [
                    "magical",
                    "necromancy",
                    "negative",
                    "trap"
                ]
            }
        }
    },
    "effects": [],
    "flags": {},
    "img": "systems/pf2e/icons/default-icons/hazard.svg",
    "items": [
        {
            "_id": "9r4msgrmibk80skt",
            "data": {
                "actionCategory": {
                    "value": "offensive"
                },
                "actionType": {
                    "value": "reaction"
                },
                "actions": {
                    "value": null
                },
                "description": {
                    "value": "<div data-visibility=\"gm\"><strong>Trigger</strong> A creature touches the cage bars, door, or lock directly or with a tool</div>\n<hr />\n<p><strong>Effect</strong> The trap deals [[/r {4d8+18}[negative]]]{4d8+18 negative damage} to the triggering creature, creatures inside the cage, and all creatures adjacent to the cage (@Check[type:fortitude|dc:27|traits:hazard,trap|basic:true]). On a failed save, a creature is also @Compendium[pf2e.conditionitems.Drained]{Drained 1}.</p>"
                },
                "requirements": {
                    "value": ""
                },
                "rules": [],
                "slug": null,
                "source": {
                    "value": ""
                },
                "traits": {
                    "custom": "",
                    "rarity": "common",
                    "value": [
                        "arcane",
                        "necromancy",
                        "negative"
                    ]
                },
                "trigger": {
                    "value": ""
                }
            },
            "effects": [],
            "flags": {},
            "img": "systems/pf2e/icons/actions/Reaction.webp",
            "name": "Soul Drain",
            "sort": 0,
            "type": "action"
        }
    ],
    "name": "Soul Draining Cage",
    "token": {
        "disposition": 0,
        "height": 1,
        "img": "systems/pf2e/icons/default-icons/npc.svg",
        "name": "Soul Draining Cage",
        "width": 1
    },
    "type": "hazard"
}
