{
    "_id": "sDPxOjQ9kx2RZE8D",
    "data": {
        "active": true,
        "alsoApplies": {
            "linked": [],
            "unlinked": []
        },
        "base": "Fleeing",
        "description": {
            "value": "<p>You're forced to run away due to fear or some other compulsion. On your turn, you must spend each of your actions trying to escape the source of the fleeing condition as expediently as possible (such as by using move actions to flee, or opening doors barring your escape). The source is usually the effect or caster that gave you the condition, though some effects might define something else as the source. You can't @Compendium[pf2e.actionspf2e.Delay]{Delay} or @Compendium[pf2e.actionspf2e.Ready]{Ready} while fleeing.</p>"
        },
        "duration": {
            "perpetual": true,
            "text": "",
            "value": 0
        },
        "group": "",
        "hud": {
            "img": {
                "useStatusName": true,
                "value": "systems/pf2e/icons/conditions-2/fleeing.webp"
            },
            "selectable": true,
            "statusName": "fleeing"
        },
        "modifiers": [],
        "overrides": [],
        "references": {
            "children": [],
            "immunityFrom": [],
            "overriddenBy": [],
            "overrides": []
        },
        "removable": true,
        "rules": [],
        "source": {
            "value": ""
        },
        "sources": {
            "hud": true
        },
        "traits": {
            "custom": "",
            "rarity": "common",
            "value": []
        },
        "value": {
            "immutable": false,
            "isValued": false,
            "modifiers": [],
            "value": null
        }
    },
    "effects": [],
    "flags": {
        "pf2e": {
            "condition": true
        }
    },
    "img": "systems/pf2e/icons/conditions/fleeing.webp",
    "name": "Fleeing",
    "type": "condition"
}
