{
    "_id": "PVdcBHjBVySBchG1",
    "content": "<p>You and this character shared some religious training in the past, even if you didn't stick with it, and you admired their piety.</p>\n<p>Add the @Compendium[pf2e.feats-srd.Student of the Canon]{Student of the Canon} skill feat to your background options</p>",
    "flags": {},
    "name": "Religious Students",
    "permission": {
        "default": 0
    }
}
