{
    "_id": "y9OyNsxGfmjqdcP0",
    "data": {
        "boosts": {
            "0": {
                "value": [
                    "cha",
                    "dex"
                ]
            },
            "1": {
                "value": [
                    "cha",
                    "con",
                    "dex",
                    "int",
                    "str",
                    "wis"
                ]
            }
        },
        "description": {
            "value": "<p>Your art is your greatest passion, whatever form it takes. Adventuring might help you find inspiration, or simply be a way to survive until you become a world-famous artist.</p>\n<p>Choose two ability boosts. One must be to <strong>Dexterity</strong> or <strong>Charisma</strong>, and one is a free ability boost.</p>\n<p>You're trained in the Crafting skill and the Art Lore skill. You gain the @Compendium[pf2e.feats-srd.Specialty Crafting]{Specialty Crafting} skill feat.</p>"
        },
        "items": {
            "m0e3x": {
                "id": "QLeMH5mQgh28sa5o",
                "img": "systems/pf2e/icons/features/feats/feats.webp",
                "level": 1,
                "name": "Specialty Crafting",
                "pack": "pf2e.feats-srd"
            }
        },
        "rules": [],
        "source": {
            "value": "Pathfinder Core Rulebook"
        },
        "trainedLore": "Art Lore",
        "trainedSkills": {
            "value": [
                "cra"
            ]
        },
        "traits": {
            "custom": "",
            "rarity": "common",
            "value": []
        }
    },
    "effects": [],
    "flags": {},
    "img": "systems/pf2e/icons/default-icons/background.svg",
    "name": "Artist",
    "type": "background"
}
