{
    "_id": "tqnrnXVTbdehohPL",
    "data": {
        "boosts": {
            "0": {
                "value": [
                    "cha",
                    "wis"
                ]
            },
            "1": {
                "value": [
                    "cha",
                    "con",
                    "dex",
                    "int",
                    "str",
                    "wis"
                ]
            }
        },
        "description": {
            "value": "<p>Forget the church orthodoxy and the stuffy cloisters-spreading the word of your god to the people is your calling. You've preached on the street corners and in public houses, to wanderers on the road and to captives in the stocks. Adventuring can take you across the world. What vocation could better serve to take your holy words to fresh ears?</p>\n<p>Choose two ability boosts. One must be to <strong>Wisdom</strong> or <strong>Charisma</strong>, and one is a free ability boost.</p>\n<p>You're trained in the Religion skill and the Lore skill for your patron deity. You gain the @Compendium[pf2e.feats-srd.Dubious Knowledge]{Dubious Knowledge} skill feat.</p>"
        },
        "items": {
            "uhfiz": {
                "id": "1Bt7uCW2WI4sM84P",
                "img": "systems/pf2e/icons/features/feats/feats.webp",
                "level": 1,
                "name": "Dubious Knowledge",
                "pack": "pf2e.feats-srd"
            }
        },
        "rules": [],
        "source": {
            "value": "Pathfinder Secrets of Magic"
        },
        "trainedLore": "<Deity> lore",
        "trainedSkills": {
            "custom": "",
            "value": [
                "rel"
            ]
        },
        "traits": {
            "custom": "",
            "rarity": "common",
            "value": []
        }
    },
    "effects": [],
    "flags": {},
    "img": "systems/pf2e/icons/default-icons/background.svg",
    "name": "Street Preacher",
    "type": "background"
}
