{
    "_id": "kSaUlWgYMywIRV3C",
    "data": {
        "baseItem": null,
        "brokenThreshold": {
            "value": 0
        },
        "containerId": null,
        "description": {
            "value": "<p>When you would die from the @Compendium[pf2e.conditionitems.Dying]{Dying} condition (typically at dying 4), this aeon stone automatically activates and reduces your dying value to 1 less than would normally kill you (typically to dying 3). The stone then permanently turns into a dull gray aeon stone. You can benefit from this ability only once per day, even if you have multiple such stones.</p>\n<p>The resonant power allows you to cast 1st-level <em>@Compendium[pf2e.spells-srd.Heal]{Heal}</em> as a divine innate spell once per day.</p>"
        },
        "equippedBulk": {
            "value": ""
        },
        "hardness": 0,
        "hp": {
            "brokenThreshold": 0,
            "max": 0,
            "value": 0
        },
        "identification": {
            "misidentified": {},
            "status": "identified",
            "unidentified": {
                "data": {
                    "description": {
                        "value": ""
                    }
                },
                "img": "",
                "name": ""
            }
        },
        "level": {
            "value": 7
        },
        "negateBulk": {
            "value": "0"
        },
        "preciousMaterial": {
            "value": ""
        },
        "preciousMaterialGrade": {
            "value": ""
        },
        "price": {
            "value": "350 gp"
        },
        "quantity": 1,
        "rules": [],
        "size": "med",
        "source": {
            "value": "Pathfinder Core Rulebook"
        },
        "stackGroup": null,
        "traits": {
            "custom": "",
            "rarity": "uncommon",
            "value": [
                "invested",
                "magical",
                "transmutation"
            ]
        },
        "usage": {
            "value": "worn"
        },
        "weight": {
            "value": "-"
        }
    },
    "effects": [],
    "flags": {},
    "img": "systems/pf2e/icons/equipment/worn-items/other-worn-items/aeon-stone-tourmaline-sphere.webp",
    "name": "Aeon Stone (Tourmaline Sphere)",
    "type": "equipment"
}
