{
    "_id": "GG7XnMngd9MnxhHb",
    "data": {
        "MAP": {
            "value": ""
        },
        "baseItem": "big-boom-gun",
        "bonus": {
            "value": 0
        },
        "bonusDamage": {
            "value": 0
        },
        "brokenThreshold": {
            "value": 0
        },
        "category": "martial",
        "containerId": "null",
        "damage": {
            "damageType": "piercing",
            "dice": 1,
            "die": "d6",
            "value": ""
        },
        "description": {
            "value": "<p>Developed by a goblin weaponsmith who missed the 'hand' part of 'hand cannon', this comically-oversized gun has a heavily reinforced barrel and is loaded with a worrisome quantity of gunpowder.</p>\n<p>This hand cannon is a martial weapon, instead of a simple weapon. It has the fatal d12 trait and a range of 20 feet. It also has the following modified critical failure condition:</p>\n<hr />\n<p><strong>Critical Failure</strong> The attack misses, the weapon misfires, and you take [[/r {1d12}[fire]]]{1d12 fire damage} as it explodes in your face.</p>"
        },
        "equippedBulk": {
            "value": ""
        },
        "group": "firearm",
        "hardness": 0,
        "hp": {
            "brokenThreshold": 0,
            "max": 0,
            "value": 0
        },
        "identification": {
            "misidentified": {},
            "status": "identified",
            "unidentified": {
                "data": {
                    "description": {
                        "value": ""
                    }
                },
                "img": "",
                "name": ""
            }
        },
        "level": {
            "value": 0
        },
        "negateBulk": {
            "value": "0"
        },
        "potencyRune": {
            "value": 0
        },
        "preciousMaterial": {
            "value": null
        },
        "preciousMaterialGrade": {
            "value": null
        },
        "price": {
            "value": "10 gp"
        },
        "property1": {
            "critDamage": "",
            "critDamageType": "",
            "critDice": 0,
            "critDie": "",
            "criticalConditionType": "",
            "criticalConditionValue": null,
            "damageType": "",
            "dice": 0,
            "die": "",
            "strikeConditionType": "",
            "strikeConditionValue": null,
            "value": ""
        },
        "propertyRune1": {
            "value": null
        },
        "propertyRune2": {
            "value": null
        },
        "propertyRune3": {
            "value": null
        },
        "propertyRune4": {
            "value": null
        },
        "quantity": 1,
        "range": 20,
        "reload": {
            "value": "1"
        },
        "rules": [],
        "size": "med",
        "source": {
            "value": "Pathfinder Guns & Gears"
        },
        "specific": {
            "value": false
        },
        "splashDamage": {
            "value": 0
        },
        "stackGroup": null,
        "strikingRune": {
            "value": ""
        },
        "traits": {
            "custom": "",
            "rarity": "uncommon",
            "value": [
                "cobbled",
                "fatal-d12",
                "goblin",
                "modular"
            ]
        },
        "usage": {
            "value": "held-in-one-hand"
        },
        "weight": {
            "value": "1"
        }
    },
    "effects": [],
    "flags": {},
    "img": "systems/pf2e/icons/default-icons/weapon.svg",
    "name": "Big Boom Gun",
    "type": "weapon"
}
