{
    "_id": "o9IErbpmItz9NZT3",
    "data": {
        "MAP": {
            "value": ""
        },
        "baseItem": "greataxe",
        "bonus": {
            "value": 4
        },
        "bonusDamage": {
            "value": 0
        },
        "brokenThreshold": {
            "value": 0
        },
        "category": "martial",
        "containerId": null,
        "damage": {
            "damageType": "slashing",
            "dice": 1,
            "die": "d12",
            "value": ""
        },
        "description": {
            "value": "<p>This potent weapon used by Treerazer is a +4 @Compendium[pf2e.equipment-srd.Corrosive (Greater)]{Corrosive (Greater)} major striking obsidian greataxe that grants a +4 item bonus to attack rolls, deals an extra 2d6 damage to plants, and has the properties of adamantine.</p>\n<hr />\n<p><strong>Activate</strong><span class=\"pf2-icon\">1</span> (divination, scrying)</p>\n<p><strong>Requirements</strong> You aren't wielding <em>Blackaxe</em> and you are its true owner.</p>\n<p><strong>Effect</strong> You sense the world around <em>Blackaxe</em> as though you were in its location and can use any of your innate spells through the link as if it were the source of the spell. If another creature is wielding Blackaxe, it must succeed at a DC 50 Will save or be @Compendium[pf2e.conditionitems.Slowed]{Slowed 2} until it relinquishes the weapon.</p>\n<hr />\n<p><strong>Activate</strong><span class=\"pf2-icon\">f</span> command (conjuration, teleportation)</p>\n<p><strong>Requirements</strong> You aren't wielding <em>Blackaxe</em> and you are its true owner.</p>\n<p><strong>Effect</strong> <em>Blackaxe</em> appears in your hands, teleporting instantly from its prior location.</p>\n<hr />\n<p><strong>Activate</strong><span class=\"pf2-icon\">1</span> command (death, healing, necromancy)</p>\n<p><strong>Frequency</strong> once per minute.</p>\n<p><strong>Effect</strong> Make a Strike against a living tree with <em>Blackaxe</em>. If it hits, the tree withers to ash and you heal 250 Hit Points and gain the benefit of <em>@Compendium[pf2e.spells-srd.Restoration]{Restoration}</em> (6th) and <em>@Compendium[pf2e.spells-srd.Restore Senses]{Restore Senses}</em>.</p>"
        },
        "equippedBulk": {
            "value": ""
        },
        "group": "axe",
        "hardness": 0,
        "hp": {
            "brokenThreshold": 0,
            "max": 0,
            "value": 0
        },
        "identification": {
            "misidentified": {},
            "status": "identified",
            "unidentified": {
                "data": {
                    "description": {
                        "value": ""
                    }
                },
                "img": "",
                "name": ""
            }
        },
        "level": {
            "value": 25
        },
        "negateBulk": {
            "value": "0"
        },
        "potencyRune": {
            "value": 4
        },
        "preciousMaterial": {
            "value": "adamantine"
        },
        "preciousMaterialGrade": {
            "value": "high"
        },
        "price": {
            "value": "0 gp"
        },
        "property1": {
            "critDamage": "",
            "critDamageType": "",
            "critDice": null,
            "critDie": "",
            "criticalConditionType": "",
            "criticalConditionValue": null,
            "damageType": "",
            "dice": null,
            "die": "",
            "strikeConditionType": "",
            "strikeConditionValue": null,
            "value": ""
        },
        "propertyRune1": {
            "value": "greaterCorrosive"
        },
        "propertyRune2": {
            "value": null
        },
        "propertyRune3": {
            "value": null
        },
        "propertyRune4": {
            "value": null
        },
        "quantity": 1,
        "range": null,
        "reload": {
            "value": ""
        },
        "rules": [
            {
                "diceNumber": 2,
                "dieSize": "d6",
                "key": "DamageDice",
                "label": "vs. plants",
                "predicate": {
                    "all": [
                        "target:plant"
                    ]
                },
                "selector": "{item|_id}-damage"
            }
        ],
        "size": "med",
        "source": {
            "value": "Pathfinder Bestiary"
        },
        "specific": {
            "material": {
                "grade": "high",
                "type": "adamantine"
            },
            "runes": {
                "potency": 4,
                "striking": "majorStriking"
            },
            "value": true
        },
        "splashDamage": {
            "value": null
        },
        "stackGroup": null,
        "strikingRune": {
            "value": "majorStriking"
        },
        "traits": {
            "custom": "",
            "rarity": "unique",
            "value": [
                "artifact",
                "cursed",
                "evocation",
                "primal",
                "sweep"
            ]
        },
        "usage": {
            "value": "held-in-two-hands"
        },
        "weight": {
            "value": "2"
        }
    },
    "effects": [],
    "flags": {},
    "img": "systems/pf2e/icons/equipment/artifacts/blackaxe.webp",
    "name": "Blackaxe",
    "type": "weapon"
}
