{
    "_id": "4UHTZGZosYcP28lD",
    "data": {
        "MAP": {
            "value": ""
        },
        "baseItem": "blunderbuss",
        "bonus": {
            "value": 0
        },
        "bonusDamage": {
            "value": 0
        },
        "brokenThreshold": {
            "value": 0
        },
        "category": "martial",
        "containerId": "null",
        "damage": {
            "damageType": "piercing",
            "dice": 1,
            "die": "d8",
            "value": ""
        },
        "description": {
            "value": "<p>A <em>greater breath blaster</em> is a <em>+2 greater striking blunderbuss</em> most commonly crafted from the trachea of a dragon, though other creatures with breath weapons or the ability to spit energy are occasionally used. The implementation of the dragon's trachea allows the firearm to unleash a torrent of pure energy in the form of gouts of flame or bolts of electricity.</p>\n<p>A <em>breath blaster's</em> Strikes deal either acid, cold, electricity, fire, or poison damage, depending on the dragon type or other creature from which it was made, though it can otherwise be used like a normal blunderbuss. A breath blaster also can be activated to fire a line of energy in a @Template[type:line|distance:30] or @Template[type:cone|distance:15], chosen when it's created and typically corresponding to the shape of the breath weapon used by the type of dragon or creature from which the <em>breath blaster was created.</em></p>\n<p>In theory, the foundational techniques required to create a breath blaster would allow for other damage types, but such breath blasters would require the trachea from the correct dragon or creature type and additional creation techniques, making such a breath blaster rare rather than uncommon.</p>\n<hr />\n<p><strong>Activate</strong> <span class=\"pf2-icon\">1</span> Interact (evocation, magical)</p>\n<p><strong>Frequency</strong> once per minute</p>\n<p><strong>Effect</strong> You fire the <em>breath blaster</em>, dealing [[/r 6d6]] damage of the appropriate type in the appropriate area. Creatures in the area must attempt a @Check[type:reflex|dc:31|basic:true|name:Breath Blaster|traits:evocation,magical|showDC:owner] save (or @Check[type:fortitude|dc:31|name:Breath Blaster|traits:evocation,magical|showDC:owner] save if the damage is poison).</p>\n<hr />\n<p><strong>Craft Requirements</strong> The initial raw materials must include the trachea of a ritually hunted dragon or other creature with a breath weapon with the appropriate damage type and area (line or cone) for the <em>breath blaster</em>.</p>"
        },
        "equippedBulk": {
            "value": ""
        },
        "group": "firearm",
        "hardness": 0,
        "hp": {
            "brokenThreshold": 0,
            "max": 0,
            "value": 0
        },
        "identification": {
            "misidentified": {},
            "status": "identified",
            "unidentified": {
                "data": {
                    "description": {
                        "value": ""
                    }
                },
                "img": "",
                "name": ""
            }
        },
        "level": {
            "value": 14
        },
        "negateBulk": {
            "value": "0"
        },
        "potencyRune": {
            "value": 2
        },
        "preciousMaterial": {
            "value": null
        },
        "preciousMaterialGrade": {
            "value": null
        },
        "price": {
            "value": "4500 gp"
        },
        "property1": {
            "critDamage": "",
            "critDamageType": "",
            "critDice": 0,
            "critDie": "",
            "criticalConditionType": "",
            "criticalConditionValue": null,
            "damageType": "",
            "dice": 0,
            "die": "",
            "strikeConditionType": "",
            "strikeConditionValue": null,
            "value": ""
        },
        "propertyRune1": {
            "value": null
        },
        "propertyRune2": {
            "value": null
        },
        "propertyRune3": {
            "value": null
        },
        "propertyRune4": {
            "value": null
        },
        "quantity": 1,
        "range": 40,
        "reload": {
            "value": "1"
        },
        "rules": [],
        "size": "med",
        "source": {
            "value": "Pathfinder Guns & Gears"
        },
        "specific": {
            "material": null,
            "runes": {
                "potency": 2,
                "striking": "greaterStriking"
            },
            "value": true
        },
        "splashDamage": {
            "value": 0
        },
        "stackGroup": null,
        "strikingRune": {
            "value": "greaterStriking"
        },
        "traits": {
            "custom": "",
            "rarity": "uncommon",
            "value": [
                "concussive"
            ]
        },
        "usage": {
            "value": "held-in-two-hands"
        },
        "weight": {
            "value": "2"
        }
    },
    "effects": [],
    "flags": {},
    "img": "systems/pf2e/icons/default-icons/weapon.svg",
    "name": "Breath Blaster (Greater)",
    "type": "weapon"
}
