{
    "_id": "aBfyzL0WBFMBAbuI",
    "data": {
        "MAP": {
            "value": ""
        },
        "baseItem": "battle-axe",
        "bonus": {
            "value": 0
        },
        "bonusDamage": {
            "value": 0
        },
        "brokenThreshold": {
            "value": 0
        },
        "category": "martial",
        "containerId": "null",
        "damage": {
            "damageType": "slashing",
            "dice": 1,
            "die": "d8",
            "value": ""
        },
        "description": {
            "value": "<p>With an aerodynamic cutting edge and a curved handle, this <em>+2 striking battle axe</em> is perfectly suited to whirling motions, and in fact seems like it wants to whirl free from your grip. A Strike with this axe that benefits from the sweep trait's circumstance bonus on attack rolls also gains a +2 circumstance bonus to the damage roll.</p>\n<hr />\n<p><strong>Activate</strong> <span class=\"pf2-icon\">2</span> command, Interact</p>\n<p><strong>Frequency</strong> once per hour</p>\n<p><strong>Effect</strong> You hurl the axe, which spins at great speed as it flies to a distant point and returns to you, leaving a trail of carnage. Each creature in a @Template[type:line|distance:120] must succeed at a @Check[type:reflex|dc:28|basic:true|name:Thrown Buzzsaw Axe|traits:axe|showDC:all] save or take damage equal to the weapon's melee damage, including your Strength modifier.</p>"
        },
        "equippedBulk": {
            "value": ""
        },
        "group": "axe",
        "hardness": 0,
        "hp": {
            "brokenThreshold": 0,
            "max": 0,
            "value": 0
        },
        "identification": {
            "misidentified": {},
            "status": "identified",
            "unidentified": {
                "data": {
                    "description": {
                        "value": ""
                    }
                },
                "img": "",
                "name": ""
            }
        },
        "level": {
            "value": 11
        },
        "negateBulk": {
            "value": "0"
        },
        "potencyRune": {
            "value": 2
        },
        "preciousMaterial": {
            "value": null
        },
        "preciousMaterialGrade": {
            "value": null
        },
        "price": {
            "value": "1400 gp"
        },
        "property1": {
            "critDamage": "",
            "critDamageType": "",
            "critDice": 0,
            "critDie": "",
            "criticalConditionType": "",
            "criticalConditionValue": null,
            "damageType": "",
            "dice": 0,
            "die": "",
            "strikeConditionType": "",
            "strikeConditionValue": null,
            "value": ""
        },
        "propertyRune1": {
            "value": null
        },
        "propertyRune2": {
            "value": null
        },
        "propertyRune3": {
            "value": null
        },
        "propertyRune4": {
            "value": null
        },
        "quantity": 1,
        "range": null,
        "reload": {
            "value": ""
        },
        "rules": [],
        "size": "med",
        "source": {
            "value": "Pathfinder Secrets of Magic"
        },
        "specific": {
            "material": null,
            "runes": {
                "potency": 2,
                "striking": "striking"
            },
            "value": true
        },
        "splashDamage": {
            "value": 0
        },
        "stackGroup": null,
        "strikingRune": {
            "value": "striking"
        },
        "traits": {
            "custom": "",
            "rarity": "common",
            "value": [
                "evocation",
                "magical",
                "sweep"
            ]
        },
        "usage": {
            "value": "held-in-one-hand"
        },
        "weight": {
            "value": "-"
        }
    },
    "effects": [],
    "flags": {},
    "img": "systems/pf2e/icons/equipment/weapons/specific-magic-weapons/buzzsaw-axe.webp",
    "name": "Buzzsaw Axe",
    "type": "weapon"
}
