{
    "_id": "pHeqYb5gTSUSmW0j",
    "data": {
        "baseItem": null,
        "brokenThreshold": {
            "value": 0
        },
        "containerId": "null",
        "description": {
            "value": "<p>This robe is made from dweomerweave, a magical fabric created by spinning minor illusions into the threads of ether spider silk. Dweomerweave is naturally hazy and translucent. It can take on the illusory appearances of other fabrics and garments, and dweomerweave robes are coveted by adventurers who want to travel light without compromising on fashion.</p>\n<hr />\n<p><strong>Activate</strong> 1 minute (Interact)</p>\n<p><strong>Frequency</strong> once per day</p>\n<p><strong>Effect</strong> You gain the effects of a 1st-level <em>@Compendium[pf2e.spells-srd.Illusory Disguise]{Illusory Disguise}</em> except that the illusion only alters the appearance of the dweomerweave robe, changing it into another garment with an appearance of your choice. The spell persists until the next activation. You can Dismiss the activation.</p>"
        },
        "equippedBulk": {
            "value": ""
        },
        "hardness": 0,
        "hp": {
            "brokenThreshold": 0,
            "max": 0,
            "value": 0
        },
        "identification": {
            "misidentified": {},
            "status": "identified",
            "unidentified": {
                "data": {
                    "description": {
                        "value": ""
                    }
                },
                "img": "",
                "name": ""
            }
        },
        "level": {
            "value": 2
        },
        "negateBulk": {
            "value": "0"
        },
        "preciousMaterial": {
            "value": null
        },
        "preciousMaterialGrade": {
            "value": null
        },
        "price": {
            "value": "25 gp"
        },
        "quantity": 1,
        "rules": [],
        "size": "med",
        "source": {
            "value": "Pathfinder Lost Omens: The Grand Bazaar"
        },
        "stackGroup": null,
        "traits": {
            "custom": "",
            "rarity": "uncommon",
            "value": [
                "illusion",
                "invested",
                "magical"
            ]
        },
        "usage": {
            "value": "wornclothing"
        },
        "weight": {
            "value": "L"
        }
    },
    "effects": [],
    "flags": {},
    "img": "systems/pf2e/icons/default-icons/equipment.svg",
    "name": "Dweomerweave Robe",
    "type": "equipment"
}
