{
    "_id": "9CAWAKkZE7dr4FlJ",
    "data": {
        "baseItem": null,
        "brokenThreshold": {
            "value": 0
        },
        "containerId": null,
        "description": {
            "value": "<p>These symbols convey protective forces from the Elemental Planes. You gain resistance 10 to acid, cold, electricity, or fire. The crafter chooses the damage type when creating the rune. Multiple <em>energy-resistant</em> runes can be etched onto a suit of armor; rather than using only the highest-level effect, each must provide resistance to a different damage type. For instance, a <em>+2 acid-resistant greater fire-resistant breastplate</em> would give you acid resistance 5 and fire resistance 10.</p>"
        },
        "equippedBulk": {
            "value": ""
        },
        "hardness": 0,
        "hp": {
            "brokenThreshold": 0,
            "max": 0,
            "value": 0
        },
        "identification": {
            "misidentified": {},
            "status": "identified",
            "unidentified": {
                "data": {
                    "description": {
                        "value": ""
                    }
                },
                "img": "",
                "name": ""
            }
        },
        "level": {
            "value": 12
        },
        "negateBulk": {
            "value": "0"
        },
        "preciousMaterial": {
            "value": ""
        },
        "preciousMaterialGrade": {
            "value": ""
        },
        "price": {
            "value": "1,650 gp"
        },
        "quantity": 1,
        "rules": [],
        "size": "med",
        "source": {
            "value": "Pathfinder Core Rulebook"
        },
        "stackGroup": null,
        "traits": {
            "custom": "",
            "rarity": "common",
            "value": [
                "abjuration",
                "magical"
            ]
        },
        "usage": {
            "value": "etched-onto-armor"
        },
        "weight": {
            "value": "-"
        }
    },
    "effects": [],
    "flags": {},
    "img": "systems/pf2e/icons/equipment/runes/armor-property-runes/armor-property-runes.webp",
    "name": "Energy-Resistant (Greater)",
    "type": "equipment"
}
