{
    "_id": "o7Tr4KbPcmd3zzd1",
    "data": {
        "baseItem": null,
        "brokenThreshold": {
            "value": 0
        },
        "containerId": "null",
        "description": {
            "value": "<p>All herd masks are linked to at least one other herd mask and are usually sold in sets of multiple masks. Linked herd masks look similar to one another, with only the slightest of differences to tell them apart.</p>\n<hr />\n<p><strong>Activate</strong> <span class=\"pf2-icon\">2</span> envision</p>\n<p><strong>Frequency</strong> once per day</p>\n<p><strong>Effect</strong> You swap locations with another creature wearing a linked herd mask within 100 feet. If you and the creature you swapped with are disguised as each other, other creatures gain an immediate Perception check against the lower of your or the other wearer's Deception DCs to Impersonate each other. On a failure, they don't realize the swap occurred.</p>\n<hr />\n<p><strong>Craft Requirements</strong> Supply a casting of <em>@Compendium[pf2e.spells-srd.Dimension Door]{Dimension Door}</em>. You can link a herd mask you create to another herd mask in your possession when you finish crafting it, which causes it to be linked to the chosen mask as well as all other herd masks that are also linked to the chosen mask.</p>"
        },
        "equippedBulk": {
            "value": ""
        },
        "hardness": 0,
        "hp": {
            "brokenThreshold": 0,
            "max": 0,
            "value": 0
        },
        "identification": {
            "misidentified": {},
            "status": "identified",
            "unidentified": {
                "data": {
                    "description": {
                        "value": ""
                    }
                },
                "img": "",
                "name": ""
            }
        },
        "level": {
            "value": 6
        },
        "negateBulk": {
            "value": "0"
        },
        "preciousMaterial": {
            "value": null
        },
        "preciousMaterialGrade": {
            "value": null
        },
        "price": {
            "value": "210 gp"
        },
        "quantity": 1,
        "rules": [],
        "size": "med",
        "source": {
            "value": "Pathfinder #169: Kindled Magic"
        },
        "stackGroup": null,
        "traits": {
            "custom": "",
            "rarity": "uncommon",
            "value": [
                "conjuration",
                "invested",
                "magical",
                "teleportation"
            ]
        },
        "usage": {
            "value": "wornmask"
        },
        "weight": {
            "value": "-"
        }
    },
    "effects": [],
    "flags": {},
    "img": "systems/pf2e/icons/default-icons/equipment.svg",
    "name": "Herd Mask",
    "type": "equipment"
}
