{
    "_id": "4ObrlZ5GhCPA2E2s",
    "data": {
        "baseItem": null,
        "brokenThreshold": {
            "value": 0
        },
        "containerId": null,
        "description": {
            "value": "<p>While wearing this silver religious symbol of Erastil, you can cast the <em>@Compendium[pf2e.spells-srd.Disrupt Undead]{Disrupt Undead}</em> cantrip as an innate divine spell.</p>\n<hr />\n<p><strong>Activate</strong> <span class=\"pf2-icon\">3</span> command, Interact</p>\n<p><strong>Frequency</strong> once per day</p>\n<p><strong>Effect</strong> By touching a weapon you wield to the symbol and uttering a plea for Erastil's steadying hand, you grant that weapon the deadly d12 trait. Against undead, the weapon instead gains the fatal d12 trait. This blessing lasts for 1 minute, until you score a critical hit with the weapon, or until you aren't wielding the weapon.</p>"
        },
        "equippedBulk": {
            "value": ""
        },
        "hardness": 0,
        "hp": {
            "brokenThreshold": 0,
            "max": 0,
            "value": 0
        },
        "identification": {
            "misidentified": {},
            "status": "identified",
            "unidentified": {
                "data": {
                    "description": {
                        "value": ""
                    }
                },
                "img": "",
                "name": ""
            }
        },
        "level": {
            "value": 4
        },
        "negateBulk": {
            "value": "0"
        },
        "preciousMaterial": {
            "value": ""
        },
        "preciousMaterialGrade": {
            "value": ""
        },
        "price": {
            "value": "80 gp"
        },
        "quantity": 1,
        "rules": [],
        "size": "med",
        "source": {
            "value": "Pathfinder #164: Hands of the Devil"
        },
        "stackGroup": null,
        "traits": {
            "custom": "",
            "rarity": "unique",
            "value": [
                "divine",
                "invested",
                "positive",
                "transmutation"
            ]
        },
        "usage": {
            "value": "worn"
        },
        "weight": {
            "value": "L"
        }
    },
    "effects": [],
    "flags": {},
    "img": "systems/pf2e/icons/equipment/worn-items/other-worn-items/hunterss-brooch.webp",
    "name": "Hunter's Brooch",
    "type": "equipment"
}
