{
    "_id": "qtT0cgt7uUSKY2qK",
    "data": {
        "baseItem": null,
        "brokenThreshold": {
            "value": 0
        },
        "containerId": "null",
        "description": {
            "value": "<p>A <em>maestro's chair</em> is a traveler's chair with the <em>Impulse Control</em> upgrade and a small pipe organ installed into the frame. You can use the maestro's chair to make Performance checks in the same manner that you could use any mundane instrument, using both of your hands. When you make a Performance check using your chair, you gain a +1 item bonus to the check.</p>\n<hr />\n<p><strong>Activate</strong> <span class=\"pf2-icon\">1</span> Interact</p>\n<p><strong>Frequency</strong> once per 10 minutes</p>\n<p><strong>Effect</strong> You use your chair to Stride up to your chair's speed. If you have a composition cantrip that is currently active, you Sustain it as a free action.</p>"
        },
        "equippedBulk": {
            "value": ""
        },
        "hardness": 0,
        "hp": {
            "brokenThreshold": 0,
            "max": 0,
            "value": 0
        },
        "identification": {
            "misidentified": {},
            "status": "identified",
            "unidentified": {
                "data": {
                    "description": {
                        "value": ""
                    }
                },
                "img": "",
                "name": ""
            }
        },
        "level": {
            "value": 7
        },
        "negateBulk": {
            "value": "0"
        },
        "preciousMaterial": {
            "value": null
        },
        "preciousMaterialGrade": {
            "value": null
        },
        "price": {
            "value": "350 gp"
        },
        "quantity": 1,
        "rules": [
            {
                "key": "FlatModifier",
                "predicate": {
                    "all": [
                        "using-the-chair"
                    ]
                },
                "selector": "performance",
                "type": "item",
                "value": 1
            }
        ],
        "size": "med",
        "source": {
            "value": "Pathfinder Lost Omens: The Grand Bazaar"
        },
        "stackGroup": null,
        "traits": {
            "custom": "",
            "rarity": "common",
            "value": [
                "enchantment",
                "magical"
            ]
        },
        "usage": {
            "value": "held-in-one-hand"
        },
        "weight": {
            "value": "6"
        }
    },
    "effects": [],
    "flags": {},
    "img": "systems/pf2e/icons/default-icons/equipment.svg",
    "name": "Maestro's Chair",
    "type": "equipment"
}
