{
    "_id": "gvMmQh9icawtnmlR",
    "data": {
        "baseItem": null,
        "brokenThreshold": {
            "value": 0
        },
        "containerId": "null",
        "description": {
            "value": "<p>This hooded lantern is made from brilliant, reinforced gold engraved with the image of the sun high in the sky. The lantern uses oil, as a standard lantern, except that any light the lantern emits is magical and similar to sunlight. The lantern doesn't emit dim light, instead only emitting bright light to its normal radius (20 feet for typical lights when using oil). This bright light is close enough to sunlight to open temple doors that require sunlight or similar light, but it doesn't shine direct sunlight, so it doesn't trigger effects such as a vampire's sunlight weakness.</p>\n<hr />\n<p><strong>Activate</strong> <span class=\"pf2-icon\">1</span> to <span class=\"pf2-icon\">3</span> envision, Interact</p>\n<p><strong>Frequency</strong> once per day</p>\n<p><strong>Effect</strong> You raise the lantern and unleash a blast of powerful sunlight. The blast has the effects of 6th-level <em>@Compendium[pf2e.spells-srd.Scorching Ray]{Scorching Ray}</em> using a spell attack roll of [[/r {1d20+26} #Midday Lantern (Greater)]]{+26}, with its effect determined by the number of actions you used to activate the lantern.</p>"
        },
        "equippedBulk": {
            "value": ""
        },
        "hardness": 0,
        "hp": {
            "brokenThreshold": 0,
            "max": 0,
            "value": 0
        },
        "identification": {
            "misidentified": {},
            "status": "identified",
            "unidentified": {
                "data": {
                    "description": {
                        "value": ""
                    }
                },
                "img": "",
                "name": ""
            }
        },
        "level": {
            "value": 14
        },
        "negateBulk": {
            "value": "0"
        },
        "preciousMaterial": {
            "value": null
        },
        "preciousMaterialGrade": {
            "value": null
        },
        "price": {
            "value": "3700 gp"
        },
        "quantity": 1,
        "rules": [],
        "size": "med",
        "source": {
            "value": "Pathfinder #172: Secrets of the Temple-City"
        },
        "stackGroup": null,
        "traits": {
            "custom": "",
            "rarity": "uncommon",
            "value": [
                "light",
                "magical",
                "transmutation"
            ]
        },
        "usage": {
            "value": "held-in-one-hand"
        },
        "weight": {
            "value": "L"
        }
    },
    "effects": [],
    "flags": {},
    "img": "systems/pf2e/icons/default-icons/equipment.svg",
    "name": "Midday Lantern (Greater)",
    "type": "equipment"
}
