{
    "_id": "O6he0J7l1uQgsama",
    "data": {
        "MAP": {
            "value": ""
        },
        "baseItem": "rapier",
        "bonus": {
            "value": 0
        },
        "bonusDamage": {
            "value": 0
        },
        "brokenThreshold": {
            "value": 0
        },
        "category": "martial",
        "containerId": null,
        "damage": {
            "damageType": "piercing",
            "dice": 1,
            "die": "d6",
            "value": ""
        },
        "description": {
            "value": "<div><strong>Perception</strong> +27; precise vision 30 feet, imprecise hearing 30 feet</div>\n<div><strong>Communication</strong> telepathy (Azlanti, Celestial, Common, Utopian)</div>\n<div><strong>Skills</strong> Diplomacy +33, Religion +29, Warfare Lore +27</div>\n<div><strong>Int</strong> +0, <strong>Wis</strong> +4, <strong>Cha</strong> +6</div>\n<div><strong>Will</strong> +31</div>\n<hr />\n<p>Piereta was a Knight of Ozem during the Shining Crusade, sworn to the service of Aroden's herald, @Compendium[pf2e.deities.Arazni]{Arazni}. After Arazni perished at the hands of the Whispering Tyrant, Piereta became the first paladin to swear her service to the newly ascended goddess, Iomedae. When she fell in battle, a fragment of her spirit clung to the sword through which she had wielded her faith in countless battles, granting the weapon a sentience of its own. The sword named herself after her fallen bearer and has been a faithful companion to many Iomedaean warriors since.</p>\n<p>Piereta is a <em>+3 major striking holy rapier</em> devoted to the principles of @Compendium[pf2e.deities.Iomedae]{Iomedae} as an exemplar of valorous action and as a protector of the innocent.</p>\n<p>Piereta is very particular about who she permits to wield her. She agrees to work with you if you are a follower of Iomedae, or if you are lawful good or neutral good and worship a different good deity. Otherwise, you must convince Piereta of the rightness of your cause. If Piereta doesn't want you to wield her, once per minute she can attempt to force you to put her down (DC 42 Will save to resist this command). Even if you succeed at this saving throw, Piereta refuses to apply any of her fundamental or property runes and gives you a -2 penalty on attack rolls with Piereta or any other weapon until you drop her.</p>\n<p>Piereta can use the following activations.</p>\n<p><strong>Activate</strong> (Reaction) command, Interact</p>\n<p><strong>Frequency</strong> once per minute</p>\n<p><strong>Effect</strong> Piereta makes a @Compendium[pf2e.actionspf2e.Retributive Strike]{Retributive Strike}, resolved as though you had used the ability, including any benefits from champion feats you have.</p>\n<p><strong>Activate</strong> (Two Actions) command, Interact</p>\n<p><strong>Frequency</strong> once per day</p>\n<p><strong>Effect</strong> Piereta casts a 9th-level field of life.</p>"
        },
        "equippedBulk": {
            "value": ""
        },
        "group": "sword",
        "hardness": 0,
        "hp": {
            "brokenThreshold": 0,
            "max": 0,
            "value": 0
        },
        "identification": {
            "misidentified": {},
            "status": "identified",
            "unidentified": {
                "data": {
                    "description": {
                        "value": ""
                    }
                },
                "img": "",
                "name": ""
            }
        },
        "level": {
            "value": 20
        },
        "negateBulk": {
            "value": "0"
        },
        "potencyRune": {
            "value": 3
        },
        "preciousMaterial": {
            "value": null
        },
        "preciousMaterialGrade": {
            "value": null
        },
        "price": {
            "value": "0 gp"
        },
        "property1": {
            "critDamage": "",
            "critDamageType": "",
            "critDice": null,
            "critDie": "",
            "criticalConditionType": "",
            "criticalConditionValue": null,
            "damageType": "",
            "dice": null,
            "die": "",
            "strikeConditionType": "",
            "strikeConditionValue": null,
            "value": ""
        },
        "propertyRune1": {
            "value": "holy"
        },
        "propertyRune2": {
            "value": null
        },
        "propertyRune3": {
            "value": null
        },
        "propertyRune4": {
            "value": null
        },
        "quantity": 1,
        "range": null,
        "reload": {
            "value": ""
        },
        "rules": [],
        "size": "med",
        "source": {
            "value": "Pathfinder #156: The Apocalypse Prophet"
        },
        "specific": {
            "material": null,
            "runes": {
                "potency": 3,
                "striking": "majorStriking"
            },
            "value": true
        },
        "splashDamage": {
            "value": null
        },
        "stackGroup": null,
        "strikingRune": {
            "value": "majorStriking"
        },
        "traits": {
            "custom": "",
            "rarity": "unique",
            "value": [
                "deadly-d8",
                "disarm",
                "divine",
                "evocation",
                "finesse",
                "intelligent"
            ]
        },
        "usage": {
            "value": "held-in-one-hand"
        },
        "weight": {
            "value": "1"
        }
    },
    "effects": [],
    "flags": {},
    "img": "systems/pf2e/icons/equipment/intelligent-items/piereta.webp",
    "name": "Piereta",
    "type": "weapon"
}
