{
    "_id": "k0AC0UxLKO4r2rwQ",
    "data": {
        "baseItem": null,
        "brokenThreshold": {
            "value": 0
        },
        "containerId": "null",
        "description": {
            "value": "<p>A garment with this rune is always clean, as though it had just been affected by <em>@Compendium[pf2e.spells-srd.Prestidigitation]{Prestidigitation}</em>. You gain a +1 item bonus to @Compendium[pf2e.actionspf2e.Make an Impression]{Make an Impression} on those who would be impressed by a particular <em>presentable</em> outfit while wearing this garment.</p>"
        },
        "equippedBulk": {
            "value": ""
        },
        "hardness": 0,
        "hp": {
            "brokenThreshold": 0,
            "max": 0,
            "value": 0
        },
        "identification": {
            "misidentified": {},
            "status": "identified",
            "unidentified": {
                "data": {
                    "description": {
                        "value": ""
                    }
                },
                "img": "",
                "name": ""
            }
        },
        "level": {
            "value": 3
        },
        "negateBulk": {
            "value": "0"
        },
        "preciousMaterial": {
            "value": null
        },
        "preciousMaterialGrade": {
            "value": null
        },
        "price": {
            "value": "50 gp"
        },
        "quantity": 1,
        "rules": [
            {
                "key": "FlatModifier",
                "predicate": {
                    "any": [
                        "action:make-an-impression"
                    ]
                },
                "selector": "diplomacy",
                "type": "item",
                "value": 1
            }
        ],
        "size": "med",
        "source": {
            "value": "Pathfinder Lost Omens: The Grand Bazaar"
        },
        "stackGroup": null,
        "traits": {
            "custom": "",
            "rarity": "uncommon",
            "value": [
                "enchantment",
                "magical"
            ]
        },
        "usage": {
            "value": "applied-to-any-visible-article-of-clothing"
        },
        "weight": {
            "value": "-"
        }
    },
    "effects": [],
    "flags": {},
    "img": "systems/pf2e/icons/equipment/consumables/other-consumables/runestone.webp",
    "name": "Presentable",
    "type": "equipment"
}
