{
    "_id": "4J87czEOWwbGXE3r",
    "data": {
        "baseItem": null,
        "brokenThreshold": {
            "value": 0
        },
        "containerId": "null",
        "description": {
            "value": "<p>This subtle pattern of complex dots, sunbursts, and lines is difficult to make out, as it's a near match for the wearer's skin tone. Serving as a barrier facing inward, this tattoo prevents ostentatious expressions of spells that are internal to you, making them easier to hide.</p>\n<hr />\n<p><strong>Activate</strong> <span class=\"pf2-icon\">1</span> Interact (concentrate, manipulate, metamagic)</p>\n<p><strong>Frequency</strong> once per day</p>\n<p><strong>Effect</strong> If the next action you use is to Cast a Spell of 2nd level or lower that affects or targets only you, you can hide that you're casting it. This has the same effect as the @Compendium[pf2e.feats-srd.Conceal Spell]{Conceal Spell} feat.</p>"
        },
        "equippedBulk": {
            "value": ""
        },
        "hardness": 0,
        "hp": {
            "brokenThreshold": 0,
            "max": 0,
            "value": 0
        },
        "identification": {
            "misidentified": {},
            "status": "identified",
            "unidentified": {
                "data": {
                    "description": {
                        "value": ""
                    }
                },
                "img": "",
                "name": ""
            }
        },
        "level": {
            "value": 7
        },
        "negateBulk": {
            "value": "0"
        },
        "preciousMaterial": {
            "value": null
        },
        "preciousMaterialGrade": {
            "value": null
        },
        "price": {
            "value": "350 gp"
        },
        "quantity": 1,
        "rules": [],
        "size": "med",
        "source": {
            "value": "Pathfinder Lost Omens: The Grand Bazaar"
        },
        "stackGroup": null,
        "traits": {
            "custom": "",
            "rarity": "uncommon",
            "value": [
                "invested",
                "magical",
                "necromancy",
                "tattoo"
            ]
        },
        "usage": {
            "value": "tattooed-on-the-body"
        },
        "weight": {
            "value": "-"
        }
    },
    "effects": [],
    "flags": {},
    "img": "systems/pf2e/icons/default-icons/equipment.svg",
    "name": "Reflexive Tattoo",
    "type": "equipment"
}
