{
    "_id": "C4XKMcHZoGzrAZBl",
    "data": {
        "armor": {
            "value": 3
        },
        "baseItem": "hide-armor",
        "brokenThreshold": {
            "value": null
        },
        "category": "medium",
        "check": {
            "value": -1
        },
        "containerId": null,
        "description": {
            "value": "<p>This <em>+1 resilient </em>hide armor is made from rhinoceros hide. It has an armor check penalty of -1 instead of -3.</p>\n<p>When you use the Sudden Charge class feat while wearing this armor, your Strike deals an additional 1d8 damage.</p>\n<p><strong>Craft Requirements</strong> The initial raw materials must include 320 gp of rhinoceros hide (a common material).</p>\n<hr />\n<p>Automaticlly applied effects:</p>\n<ul>\n<li>+1d8 damage to your Strike when using Sudden Charge</li>\n</ul>"
        },
        "dex": {
            "value": 2
        },
        "equippedBulk": {
            "value": "2"
        },
        "group": "leather",
        "hardness": 0,
        "hp": {
            "brokenThreshold": 0,
            "max": 0,
            "value": 0
        },
        "identification": {
            "misidentified": {},
            "status": "identified",
            "unidentified": {
                "data": {
                    "description": {
                        "value": ""
                    }
                },
                "img": "",
                "name": ""
            }
        },
        "level": {
            "value": 9
        },
        "negateBulk": {
            "value": "0"
        },
        "potency": {},
        "potencyRune": {
            "value": 1
        },
        "preciousMaterial": {
            "value": ""
        },
        "preciousMaterialGrade": {
            "value": ""
        },
        "price": {
            "value": "700 gp"
        },
        "propertyRune1": {
            "value": ""
        },
        "propertyRune2": {
            "value": ""
        },
        "propertyRune3": {
            "value": ""
        },
        "propertyRune4": {
            "value": ""
        },
        "quantity": 1,
        "resiliencyRune": {
            "value": "resilient"
        },
        "rules": [
            {
                "domain": "damage-roll",
                "key": "RollOption",
                "label": "Sudden Charge",
                "option": "action:sudden-charge",
                "predicate": {
                    "all": [
                        "sudden-charge"
                    ]
                },
                "toggleable": true
            },
            {
                "diceNumber": 1,
                "dieSize": "d8",
                "key": "DamageDice",
                "label": "Rhino Hide",
                "predicate": {
                    "all": [
                        "action:sudden-charge"
                    ]
                },
                "selector": "strike-damage"
            }
        ],
        "size": "med",
        "source": {
            "value": "Pathfinder Core Rulebook"
        },
        "speed": {
            "value": 0
        },
        "stackGroup": null,
        "strength": {
            "value": 14
        },
        "traits": {
            "custom": "",
            "rarity": "common",
            "value": [
                "invested",
                "magical",
                "transmutation"
            ]
        },
        "usage": {
            "value": "wornarmor"
        },
        "weight": {
            "value": "3"
        }
    },
    "effects": [],
    "flags": {},
    "img": "systems/pf2e/icons/equipment/armor/specific-magic-armor/rhino-hide.webp",
    "name": "Rhino Hide",
    "type": "armor"
}
