{
    "_id": "sgH9U2fKqWCedKNO",
    "data": {
        "baseItem": null,
        "brokenThreshold": {
            "value": 0
        },
        "containerId": null,
        "description": {
            "value": "<p>A patchwork of humanoid flesh makes up this grotesque mask stitched together with black silk or wire. It is distinctive for its bulbous orange eye- crafted from a magical glass bauble-and wide row of teeth.</p>\n<p>When worn, the mask amplifies your ability to sense fear in other creatures.</p>\n<p>You automatically know the value of the @Compendium[pf2e.conditionitems.Frightened]{Frightened} condition of any @Compendium[pf2e.conditionitems.Observed]{Observed} creature, and you gain a +1 item bonus to Perception checks to @Compendium[pf2e.actionspf2e.Seek]{Seek} frightened creatures. Whenever you deal precision damage to a frightened creature, you deal 1 additional precision damage.</p>\n<p>If you are not evil, you are @Compendium[pf2e.conditionitems.Drained]{Drained 2} while wearing the<em>Skinsaw mask</em>.</p>\n<hr />\n<p>Automatically applied effects:</p>\n<ul>\n<li>+1 item bonus to Perception checks to Seek frightened creatures</li>\n</ul>"
        },
        "equippedBulk": {
            "value": ""
        },
        "hardness": 0,
        "hp": {
            "brokenThreshold": 0,
            "max": 0,
            "value": 0
        },
        "identification": {
            "misidentified": {},
            "status": "identified",
            "unidentified": {
                "data": {
                    "description": {
                        "value": ""
                    }
                },
                "img": "",
                "name": ""
            }
        },
        "level": {
            "value": 3
        },
        "negateBulk": {
            "value": "0"
        },
        "preciousMaterial": {
            "value": ""
        },
        "preciousMaterialGrade": {
            "value": ""
        },
        "price": {
            "value": "30 gp"
        },
        "quantity": 1,
        "rules": [
            {
                "key": "FlatModifier",
                "label": "Skinsaw Mask (Seek Frightened target)",
                "predicate": {
                    "all": [
                        "action:seek",
                        "target:frightened"
                    ]
                },
                "selector": "perception",
                "type": "item",
                "value": 1
            }
        ],
        "size": "med",
        "source": {
            "value": "Pathfinder #158: Sixty Feet Under"
        },
        "stackGroup": null,
        "traits": {
            "custom": "",
            "rarity": "uncommon",
            "value": [
                "divination",
                "divine",
                "evil",
                "invested",
                "magical"
            ]
        },
        "usage": {
            "value": "wornmask"
        },
        "weight": {
            "value": "L"
        }
    },
    "effects": [],
    "flags": {},
    "img": "systems/pf2e/icons/equipment/worn-items/other-worn-items/skinsaw-mask.webp",
    "name": "Skinsaw Mask",
    "type": "equipment"
}
