{
    "_id": "YScPBPwB4t9sydp0",
    "data": {
        "activation": {
            "condition": "",
            "cost": 0,
            "type": ""
        },
        "autoDestroy": {
            "_deprecated": true,
            "value": true
        },
        "autoUse": {
            "_deprecated": true,
            "value": true
        },
        "baseItem": null,
        "brokenThreshold": {
            "value": 0
        },
        "charges": {
            "_deprecated": true,
            "max": "1",
            "value": "1"
        },
        "consumableType": {
            "value": "poison"
        },
        "consume": {
            "_deprecated": true,
            "value": null
        },
        "containerId": null,
        "description": {
            "value": "<p><strong>Activate</strong> <span class=\"pf2-icon\">2</span> Interact</p>\n<p>This gummy resin contains sparkling motes of magical energy that dramatically impair your cognitive functions and dispel spells as you cast them. Spell energy manifests but then sputters out, as though drained away by the sparkling motes. While you're @Compendium[pf2e.conditionitems.Stupefied]{Stupefied} by this poison, the DC of flat checks to avoid disruption from the stupefied condition when you Cast a Spell is 5 + twice the stupefied value, rather than 5 + the stupefied value.</p>\n<hr />\n<p>S<strong>aving Throw</strong> @Check[type:fortitude|dc:31]</p>\n<p><strong>Maximum Duration</strong> 6 rounds</p>\n<p><strong>Stage 1</strong> [[/r {5d6}[poison]]]{5d6 poison damage} and stupefied 1 (1 round)</p>\n<p><strong>Stage 2</strong> [[/r {6d6}[poison]]]{6d6 poison damage} and stupefied 3 (1 round)</p>\n<p><strong>Stage 3</strong> [[/r {7d6}[poison]]]{7d6 poison damage} and stupefied 4 (1 round)</p>\n<hr />\n<p><strong>Craft Requirements</strong> Supply one casting of 6th-level <em>@Compendium[pf2e.spells-srd.Dispel Magic]{Dispel Magic}</em>.</p>"
        },
        "duration": {
            "units": "",
            "value": null
        },
        "equippedBulk": {
            "value": ""
        },
        "hardness": 0,
        "hp": {
            "brokenThreshold": 0,
            "max": 0,
            "value": 0
        },
        "identification": {
            "misidentified": {},
            "status": "identified",
            "unidentified": {
                "data": {
                    "description": {
                        "value": ""
                    }
                },
                "img": "",
                "name": ""
            }
        },
        "level": {
            "value": 12
        },
        "negateBulk": {
            "value": "0"
        },
        "preciousMaterial": {
            "value": ""
        },
        "preciousMaterialGrade": {
            "value": ""
        },
        "price": {
            "value": "325 gp"
        },
        "quantity": 1,
        "range": {
            "long": null,
            "units": "",
            "value": null
        },
        "rules": [],
        "size": "med",
        "source": {
            "value": "Pathfinder #160: Assault on Hunting Lodge Seven"
        },
        "spell": {
            "data": null,
            "heightenedLevel": null
        },
        "stackGroup": null,
        "target": {
            "type": "",
            "units": "",
            "value": null
        },
        "traits": {
            "custom": "",
            "rarity": "uncommon",
            "value": [
                "consumable",
                "divine",
                "injury",
                "poison"
            ]
        },
        "usage": {
            "value": "held-in-two-hands"
        },
        "uses": {
            "autoDestroy": true,
            "autoUse": true,
            "max": 0,
            "per": null,
            "value": 0
        },
        "weight": {
            "value": "L"
        }
    },
    "effects": [],
    "flags": {},
    "img": "systems/pf2e/icons/equipment/alchemical-items/alchemical-poisons/spell-eating-pitch.webp",
    "name": "Spell-Eating Pitch",
    "type": "consumable"
}
