{
    "_id": "3qn56dTO5TYJHjbF",
    "data": {
        "MAP": {
            "value": ""
        },
        "baseItem": null,
        "bonus": {
            "value": 0
        },
        "bonusDamage": {
            "value": 0
        },
        "brokenThreshold": {
            "value": 0
        },
        "category": "martial",
        "containerId": "null",
        "damage": {
            "damageType": "piercing",
            "dice": 1,
            "die": "d8",
            "value": ""
        },
        "description": {
            "value": "<p>Built from the spiked tail of a manticore, a <em>spike launcher</em> is designed to launch large, spear-like projectiles. A <em>spike launcher</em> is a <em>+1 striking</em> weapon. It's a distinct type of martial firearm that deals [[/r {1d8}[piercing]]]{1d8 piercing damage}. It has the backstabber, fatal aim d12, and kickback traits with a range increment of 120 feet and reload 2. It uses the critical specialization of the bow weapon group, rather than the firearm critical specialization.</p>\n<hr />\n<p><strong>Activate</strong> <span class=\"pf2-icon\">3</span> Interact (evocation, magical)</p>\n<p><strong>Frequency</strong> once per day</p>\n<p><strong>Requirements</strong> The <em>spike launcher</em> is loaded</p>\n<p><strong>Effect</strong> The <em>spike launcher</em> fires a volley of smaller spikes in a @Template[type:burst|distance:10] centered anywhere within its range. Make a Strike with the <em>spike launcher</em> against each creature in the area. On a success, the spike causes the creature to take a -5-foot status penalty to their Speed. On a critical success, the creature becomes @Compendium[pf2e.conditionitems.Immobilized]{Immobilized} instead. In either case, the creature, or an adjacent creature, can use an Interact action to remove the spike and end the penalty or immobilized condition.</p>\n<hr />\n<p><strong>Craft Requirements</strong> The initial raw materials must include the tail of a manticore.</p>"
        },
        "equippedBulk": {
            "value": ""
        },
        "group": "firearm",
        "hardness": 0,
        "hp": {
            "brokenThreshold": 0,
            "max": 0,
            "value": 0
        },
        "identification": {
            "misidentified": {},
            "status": "identified",
            "unidentified": {
                "data": {
                    "description": {
                        "value": ""
                    }
                },
                "img": "",
                "name": ""
            }
        },
        "level": {
            "value": 6
        },
        "negateBulk": {
            "value": "0"
        },
        "potencyRune": {
            "value": 1
        },
        "preciousMaterial": {
            "value": null
        },
        "preciousMaterialGrade": {
            "value": null
        },
        "price": {
            "value": "250 gp"
        },
        "property1": {
            "critDamage": "",
            "critDamageType": "",
            "critDice": 0,
            "critDie": "",
            "criticalConditionType": "",
            "criticalConditionValue": null,
            "damageType": "",
            "dice": 0,
            "die": "",
            "strikeConditionType": "",
            "strikeConditionValue": null,
            "value": ""
        },
        "propertyRune1": {
            "value": null
        },
        "propertyRune2": {
            "value": null
        },
        "propertyRune3": {
            "value": null
        },
        "propertyRune4": {
            "value": null
        },
        "quantity": 1,
        "range": 120,
        "reload": {
            "value": "2"
        },
        "rules": [],
        "size": "med",
        "source": {
            "value": "Pathfinder Guns & Gears"
        },
        "specific": {
            "material": null,
            "price": "250",
            "runes": {
                "potency": 1,
                "striking": "striking"
            },
            "value": true
        },
        "splashDamage": {
            "value": 0
        },
        "stackGroup": null,
        "strikingRune": {
            "value": "striking"
        },
        "traits": {
            "custom": "",
            "rarity": "uncommon",
            "value": [
                "backstabber",
                "fatal-aim-d12",
                "kickback"
            ]
        },
        "usage": {
            "value": "held-in-one-plus-hands"
        },
        "weight": {
            "value": "2"
        }
    },
    "effects": [],
    "flags": {},
    "img": "systems/pf2e/icons/default-icons/weapon.svg",
    "name": "Spike Launcher",
    "type": "weapon"
}
