{
    "_id": "66EBP5Ii9QMlZdDx",
    "data": {
        "activation": {
            "condition": "",
            "cost": 0,
            "type": ""
        },
        "autoDestroy": {
            "_deprecated": true,
            "value": true
        },
        "autoUse": {
            "_deprecated": true,
            "value": true
        },
        "baseItem": null,
        "brokenThreshold": {
            "value": 0
        },
        "charges": {
            "_deprecated": true,
            "max": 0,
            "value": 0
        },
        "consumableType": {
            "value": "snare"
        },
        "consume": {
            "_deprecated": true,
            "value": ""
        },
        "containerId": "null",
        "description": {
            "value": "<p>You hide insulating crystals or other material that releases a strong static charge when the first creature enters the snare's square. That creature must attempt a @Check[type:reflex|dc:18|traits:uncommon|showDC:all] saving throw.</p>\n<hr />\n<p><strong>Success</strong> The target is unaffected.</p>\n<p><strong>Failure</strong> The target takes [[/r {1}[persistent,electricity] #persistent electricity damage]]{1} @Compendium[pf2e.conditionitems.Persistent Damage]{Persistent Electricity Damage}} and takes a -1 circumstance penalty to saving throws against electricity effects for as long as the persistent electricity damage lasts.</p>\n<p><strong>Critical Failure</strong> As failure, and the target attracts nearby dirt and dust. If the target is or becomes @Compendium[pf2e.conditionitems.Invisible]{Invisible}, it's merely @Compendium[pf2e.conditionitems.Hidden]{Hidden} to creatures that have sight as a precise sense. This effect lasts as long as the persistent electricity damage does.</p>"
        },
        "duration": {
            "units": "",
            "value": null
        },
        "equippedBulk": {
            "value": ""
        },
        "hardness": 0,
        "hp": {
            "brokenThreshold": 0,
            "max": 0,
            "value": 0
        },
        "identification": {
            "misidentified": {},
            "status": "identified",
            "unidentified": {
                "data": {
                    "description": {
                        "value": ""
                    }
                },
                "img": "",
                "name": ""
            }
        },
        "level": {
            "value": 2
        },
        "negateBulk": {
            "value": "0"
        },
        "preciousMaterial": {
            "value": null
        },
        "preciousMaterialGrade": {
            "value": null
        },
        "price": {
            "value": "6 gp"
        },
        "quantity": 1,
        "range": {
            "long": null,
            "units": "",
            "value": null
        },
        "rules": [],
        "size": "med",
        "source": {
            "value": "Pathfinder Lost Omens: The Grand Bazaar"
        },
        "spell": {
            "data": null,
            "heightenedLevel": null
        },
        "stackGroup": null,
        "target": {
            "type": "",
            "units": "",
            "value": null
        },
        "traits": {
            "custom": "",
            "rarity": "uncommon",
            "value": [
                "consumable",
                "electricity",
                "mechanical",
                "snare",
                "trap"
            ]
        },
        "usage": {
            "value": "held-in-one-hand"
        },
        "uses": {
            "autoDestroy": true,
            "autoUse": true,
            "max": 0,
            "per": null,
            "value": 0
        },
        "weight": {
            "value": "-"
        }
    },
    "effects": [],
    "flags": {},
    "img": "systems/pf2e/icons/equipment/snares/static-snare.webp",
    "name": "Static Snare",
    "type": "consumable"
}
