{
    "_id": "JDQ4jqp6O8SurQGe",
    "data": {
        "baseItem": null,
        "brokenThreshold": {
            "value": 0
        },
        "containerId": null,
        "description": {
            "value": "<p>The end of this wand is forked instead of tapered.</p>\n<p><strong>Activate</strong> Cast a Spell; The activation takes <span class=\"pf2-icon\">2</span> if the spell normally takes <span class=\"pf2-icon\">1</span> to cast, or <span class=\"pf2-icon\">3</span> if the spell normally take <span class=\"pf2-icon\">2</span></p>\n<p><strong>Frequency</strong> Once per day, plus overcharge</p>\n<p><strong>Effect</strong> You Cast the Spell, and increase its area. Add 5 feet to the radius of a burst that normally has a radius of at least 10 feet; add 5 feet to the length of a cone or line that is normally 15 feet long or smaller; or add 10 feet to the length of a larger cone or line.</p>\n<hr />\n<p><strong>Craft Requirements</strong> Supply a casting of a spell of the appropriate level. The spell must have a casting time of <span class=\"pf2-icon\">1</span> or <span class=\"pf2-icon\">2</span>, can't have a duration, and must have an area of burst (10 feet or more), cone, or line.</p>"
        },
        "equippedBulk": {
            "value": ""
        },
        "hardness": 0,
        "hp": {
            "brokenThreshold": 0,
            "max": 0,
            "value": 0
        },
        "identification": {
            "misidentified": {},
            "status": "identified",
            "unidentified": {
                "data": {
                    "description": {
                        "value": ""
                    }
                },
                "img": "",
                "name": ""
            }
        },
        "level": {
            "value": 14
        },
        "negateBulk": {
            "value": "0"
        },
        "preciousMaterial": {
            "value": ""
        },
        "preciousMaterialGrade": {
            "value": ""
        },
        "price": {
            "value": "4,500 gp"
        },
        "quantity": 1,
        "rules": [],
        "size": "med",
        "source": {
            "value": "Pathfinder Core Rulebook"
        },
        "stackGroup": null,
        "traits": {
            "custom": "",
            "rarity": "common",
            "value": [
                "magical",
                "wand"
            ]
        },
        "usage": {
            "value": "held-in-one-hand"
        },
        "weight": {
            "value": "L"
        }
    },
    "effects": [],
    "flags": {},
    "img": "systems/pf2e/icons/equipment/wands/specialty-wands/wand-of-widening.webp",
    "name": "Wand of Widening (6th-Level Spell)",
    "type": "equipment"
}
