{
    "_id": "2NKC67OBIukM4tC5",
    "data": {
        "baseItem": null,
        "brokenThreshold": {
            "value": 0
        },
        "containerId": "null",
        "description": {
            "value": "<p><em>Wigs of holding</em> are created from planar fibers and contain small extradimensional spaces accessible within the hair. They can hold up to four items of light Bulk inside them, and Bulk held within the wig of holding doesn't increase the Bulk of the wig itself. You can Interact with a wig of holding to put items inside or remove items from it, and you can do so more easily than with a mundane container. It only takes a single Interact action to withdraw these items, like a worn item, rather than taking two Interact actions, like a stowed item.</p>"
        },
        "equippedBulk": {
            "value": ""
        },
        "hardness": 0,
        "hp": {
            "brokenThreshold": 0,
            "max": 0,
            "value": 0
        },
        "identification": {
            "misidentified": {},
            "status": "identified",
            "unidentified": {
                "data": {
                    "description": {
                        "value": ""
                    }
                },
                "img": "",
                "name": ""
            }
        },
        "level": {
            "value": 3
        },
        "negateBulk": {
            "value": "0.4"
        },
        "preciousMaterial": {
            "value": null
        },
        "preciousMaterialGrade": {
            "value": null
        },
        "price": {
            "value": "45 gp"
        },
        "quantity": 1,
        "rules": [],
        "size": "med",
        "source": {
            "value": "Pathfinder Lost Omens: The Grand Bazaar"
        },
        "stackGroup": null,
        "traits": {
            "custom": "",
            "rarity": "uncommon",
            "value": [
                "conjuration",
                "extradimensional",
                "invested",
                "magical"
            ]
        },
        "usage": {
            "value": "wornheadwear"
        },
        "weight": {
            "value": "L"
        }
    },
    "effects": [],
    "flags": {},
    "img": "systems/pf2e/icons/default-icons/equipment.svg",
    "name": "Wig of Holding",
    "type": "equipment"
}
