{
    "_id": "iiIhLkjuPYJ93Upw",
    "data": {
        "actionCategory": {
            "value": "offensive"
        },
        "actionType": {
            "value": "passive"
        },
        "actions": {
            "value": null
        },
        "description": {
            "value": "<p>@Template[type:emanation|distance:60] @Compendium[pf2e.bestiary-ability-glossary-srd.Aura]{Aura}</p>\n<hr />\n<p>The Melfesh Monster emits the overwhelming stink of burning, rotting matter. A creature that enters or begins its turn in the area inhales spores and must attempt a @Check[type:fortitude|dc:21|name:Smolderstench] save. On a failure, the creature takes [[/r {2d4}[poison]]]{2d4 poison damage} and is @Compendium[pf2e.conditionitems.Sickened]{Sickened 1}; on a critical failure, the creature also takes [[/r {4}[persistent,poison]]] @Compendium[pf2e.conditionitems.Persistent Damage]{Persistent Damage} and is @Compendium[pf2e.conditionitems.Sickened]{Sickened 2}. A creature that succeeds at its save is temporarily immune to smolderstench for 1 minute. This ability replaces terrorspores.</p>"
        },
        "requirements": {
            "value": ""
        },
        "rules": [],
        "source": {
            "value": "Pathfinder Lost Omens: Monsters of Myth"
        },
        "traits": {
            "custom": "",
            "rarity": "common",
            "value": [
                "aura",
                "olfactory",
                "poison"
            ]
        },
        "trigger": {
            "value": ""
        }
    },
    "effects": [],
    "flags": {},
    "img": "systems/pf2e/icons/actions/Passive.webp",
    "name": "(Melfesh Monster) Smolderstench",
    "type": "action"
}
