{
    "_id": "OvQYM50fG50aOHfR",
    "content": "<table class=\"pf2-table\">\n<thead>\n<tr>\n<th>\n<h3><strong>Name</strong></h3>\n</th>\n<th>\n<h3><strong>Crit Effect</strong></h3>\n</th>\n<th>\n<h3><strong>Type</strong></h3>\n</th>\n</tr>\n</thead>\n<tbody>\n<tr>\n<td>\n<h3>Staggering Blow</h3>\n</td>\n<td>\n<h3>The target is stunned 2.</h3>\n</td>\n<td>\n<h3>Bludgeoning</h3>\n</td>\n</tr>\n<tr>\n<td>\n<h3>Heart Shot</h3>\n</td>\n<td>\n<h3>Triple damage. The target takes 1d4 persistent bleed damage.</h3>\n</td>\n<td>\n<h3>Piercing</h3>\n</td>\n</tr>\n<tr>\n<td>\n<h3>Leg Swipe</h3>\n</td>\n<td>\n<h3>The target is knocked prone.</h3>\n</td>\n<td>\n<h3>Slashing</h3>\n</td>\n</tr>\n<tr>\n<td>\n<h3>Terrifying Display</h3>\n</td>\n<td>\n<h3>The target is frightened 3.</h3>\n</td>\n<td>\n<h3>Bomb or Spell</h3>\n</td>\n</tr>\n</tbody>\n</table>\n<h3 style=\"text-align: left;\"> </h3>",
    "flags": {},
    "name": "Critical Hit Deck #34",
    "permission": {
        "default": 0
    }
}
