{
    "_id": "vCvtsUB6C6PEdvog",
    "content": "<table class=\"pf2-table\">\n<thead>\n<tr>\n<th>\n<h3><strong>Name</strong></h3>\n</th>\n<th>\n<h3><strong>Crit Effect</strong></h3>\n</th>\n<th>\n<h3><strong>Type</strong></h3>\n</th>\n</tr>\n</thead>\n<tbody>\n<tr>\n<td>\n<h3>Broken Nose</h3>\n</td>\n<td>\n<h3>The target takes 1d4 persistent bleed damage.</h3>\n</td>\n<td>\n<h3>Bludgeoning</h3>\n</td>\n</tr>\n<tr>\n<td>\n<h3>Two in a Row</h3>\n</td>\n<td>\n<h3>Deal normal damage to an additional target adjacent to the original target.</h3>\n</td>\n<td>\n<h3>Piercing</h3>\n</td>\n</tr>\n<tr>\n<td>\n<h3>Weapon Strike</h3>\n</td>\n<td>\n<h3>Deal normal damage to one of the target's weapons (applying Hardness normally).</h3>\n</td>\n<td>\n<h3>Slashing</h3>\n</td>\n</tr>\n<tr>\n<td>\n<h3>Nerve Damage</h3>\n</td>\n<td>\n<h3>Normal damage. The target is slowed 1 until healed.</h3>\n</td>\n<td>\n<h3>Bomb or Spell</h3>\n</td>\n</tr>\n</tbody>\n</table>\n<h3 style=\"text-align: left;\"> </h3>",
    "flags": {},
    "name": "Critical Hit Deck #11",
    "permission": {
        "default": 0
    }
}
