{
    "_id": "maXudTqcDiAj86Ym",
    "content": "<table class=\"pf2-table\">\n<thead>\n<tr>\n<th>\n<h3><strong>Name</strong></h3>\n</th>\n<th>\n<h3><strong>Crit Effect</strong></h3>\n</th>\n<th>\n<h3><strong>Type</strong></h3>\n</th>\n</tr>\n</thead>\n<tbody>\n<tr>\n<td>\n<h3 style=\"box-sizing: border-box; user-select: text; color: #191813;\">Cracked Knee</h3>\n</td>\n<td>\n<h3>Until healed, the target is clumsy 2 and takes a -5-foot status penalty to land Speed.</h3>\n</td>\n<td>\n<h3>Bludgeoning</h3>\n</td>\n</tr>\n<tr>\n<td>\n<h3>Calf Jab</h3>\n</td>\n<td>\n<h3>Until healed, the target is clumsy 1 and takes a -10-foot status penalty to land Speed.</h3>\n</td>\n<td>\n<h3>Piercing</h3>\n</td>\n</tr>\n<tr>\n<td>\n<h3>Ugly Wound</h3>\n</td>\n<td>\n<h3>The target takes a -2 circumstance penalty to checks with all Charisma-based skills except Intimidation.</h3>\n</td>\n<td>\n<h3>Slashing</h3>\n</td>\n</tr>\n<tr>\n<td>\n<h3>Now you see me...</h3>\n</td>\n<td>\n<h3>You become invisible until the end of your next turn or until you use a hostile action.</h3>\n</td>\n<td>\n<h3>Bomb or Spell</h3>\n</td>\n</tr>\n</tbody>\n</table>\n<h3 style=\"text-align: left;\"> </h3>",
    "flags": {},
    "name": "Critical Hit Deck #6",
    "permission": {
        "default": 0
    }
}
