{
    "_id": "JqThDeWlGobiAPJd",
    "data": {
        "actionCategory": {
            "value": "offensive"
        },
        "actionType": {
            "value": "action"
        },
        "actions": {
            "value": 2
        },
        "description": {
            "value": "<p>Your eidolon exhales a blast of destructive energy. Your eidolon deals [[/r {1d6}[fire]]]{1d6 fire damage} to all creatures in a @Template[type:cone|distance:30], with a basic Reflex save against your spell DC.</p>\n<p>Your eidolon then can't use their Breath Weapon again for the next [[/r 1d4 #rounds]]{1d4 rounds}.</p>\n<p>At 3rd level and every 2 levels thereafter, the damage increases by 1d6. [[/r ((floor(@actor.level/2))d6)[fire]]]{Levelled Damage}</p>"
        },
        "requirements": {
            "value": ""
        },
        "rules": [],
        "source": {
            "value": ""
        },
        "traits": {
            "custom": "",
            "rarity": "common",
            "value": [
                "arcane",
                "eidolon",
                "evocation",
                "fire"
            ]
        },
        "trigger": {
            "value": ""
        },
        "weapon": {
            "value": ""
        }
    },
    "effects": [],
    "flags": {},
    "img": "systems/pf2e/icons/actions/TwoActions.webp",
    "name": "Breath Weapon (Fire) (Cone)",
    "type": "action"
}
