{
    "_id": "UHpkTuCtyaPqiCAB",
    "data": {
        "actionCategory": {
            "value": ""
        },
        "actionType": {
            "value": "action"
        },
        "actions": {
            "value": 1
        },
        "description": {
            "value": "<p><strong>Requirements</strong> Your Speed is at least 10 feet</p>\n<hr />\n<p>You carefully move 5 feet. Unlike most types of movement, Stepping doesn't trigger reactions, such as @Compendium[pf2e.feats-srd.Attack of Opportunity (Fighter)]{Attacks of Opportunity}, that can be triggered by move actions or upon leaving or entering a square.</p>\n<p>You can't Step into difficult terrain, and you can't Step using a Speed other than your land Speed.</p>"
        },
        "requirements": {
            "value": ""
        },
        "rules": [],
        "source": {
            "value": "Pathfinder Core Rulebook"
        },
        "traits": {
            "custom": "",
            "rarity": "common",
            "value": [
                "move",
                "general"
            ]
        },
        "trigger": {
            "value": ""
        },
        "weapon": {
            "value": ""
        }
    },
    "effects": [],
    "flags": {},
    "img": "systems/pf2e/icons/actions/OneAction.webp",
    "name": "Step",
    "type": "action"
}
