{
    "_id": "d7BDxmsnM1BUoEeT",
    "data": {
        "badge": null,
        "description": {
            "value": "<p>Granted by activating @Compendium[pf2e.equipment-srd.Goggles of Night (Greater)]{Goggles of Night (Greater)}</p>\n<hr />\n<p>You gain Darkvision until you rotate the lenses back or the item is no longer invested by you, whichever comes first.</p>"
        },
        "duration": {
            "expiry": "turn-start",
            "sustained": false,
            "unit": "unlimited",
            "value": -1
        },
        "level": {
            "value": 1
        },
        "rules": [
            {
                "key": "Sense",
                "label": "Darkvision",
                "selector": "darkvision"
            }
        ],
        "source": {
            "value": "Pathfinder Core Rulebook"
        },
        "start": {
            "initiative": null,
            "value": 0
        },
        "target": null,
        "tokenIcon": {
            "show": true
        },
        "traits": {
            "custom": "",
            "rarity": "common",
            "value": []
        }
    },
    "effects": [],
    "flags": {},
    "img": "systems/pf2e/icons/equipment/worn-items/other-worn-items/goggles-of-night.webp",
    "name": "Effect: Goggles of Night (Greater)",
    "type": "effect"
}
