{
    "_id": "fuQVJiPPUsvL6fi5",
    "data": {
        "badge": null,
        "description": {
            "value": "<p>On a hit (but not a critical hit), the target takes a -1 status penalty to Perception checks and attack rolls until the end of its next turn.</p>"
        },
        "duration": {
            "expiry": "turn-start",
            "sustained": false,
            "unit": "unlimited",
            "value": -1
        },
        "level": {
            "value": 1
        },
        "rules": [
            {
                "key": "FlatModifier",
                "label": "Sulfur Bomb (Failure)",
                "selector": "attack",
                "type": "status",
                "value": -1
            },
            {
                "key": "FlatModifier",
                "label": "Sulfur Bomb (Failure)",
                "selector": "perception",
                "type": "status",
                "value": -1
            }
        ],
        "source": {
            "value": ""
        },
        "start": {
            "initiative": null,
            "value": 0
        },
        "target": null,
        "tokenIcon": {
            "show": false
        },
        "traits": {
            "custom": "",
            "rarity": "common",
            "value": []
        }
    },
    "effects": [],
    "flags": {},
    "img": "systems/pf2e/icons/equipment/alchemical-items/alchemical-bombs/sulfur-bomb-effect.webp",
    "name": "Effect: Sulfur Bomb (Failure)",
    "type": "effect"
}
