{
    "_id": "bLhIBwqdjTiVJ5qm",
    "data": {
        "ancestry": {
            "name": "Catfolk",
            "uuid": "Compendium.pf2e.ancestries.972EkpJOPv9KkQIW"
        },
        "description": {
            "value": "<p>Your family has particularly long, sharp claws capable of delivering bleeding wounds with a wicked swipe. You gain a claw unarmed attack that deals [[/r {1d6}[slashing]]]{1d6 slashing damage}. Your claws are in the brawling group and have the agile, finesse and unarmed traits.</p>"
        },
        "rules": [
            {
                "category": "unarmed",
                "damage": {
                    "base": {
                        "damageType": "slashing",
                        "dice": 1,
                        "die": "d6"
                    }
                },
                "group": "brawling",
                "key": "Strike",
                "label": "PF2E.Weapon.Base.claw",
                "range": null,
                "traits": [
                    "finesse",
                    "unarmed",
                    "agile"
                ]
            }
        ],
        "source": {
            "value": ""
        },
        "traits": {
            "custom": "",
            "rarity": "common",
            "value": []
        }
    },
    "effects": [],
    "flags": {},
    "img": "systems/pf2e/icons/features/ancestry/clawed-catfolk.webp",
    "name": "Clawed Catfolk",
    "type": "heritage"
}
