{
    "_id": "PpLxndUSgzgs6dd0",
    "data": {
        "description": {
            "value": "<p>Granted by @Compendium[pf2e.equipment-srd.Elixir of Life (Major)]{Elixir of Life (Major)}</p>\n<p>Implemented effects:</p>\n<ul>\n<li>+3 item bonus to saving throws against diseases and poisons</li>\n</ul>\n<p>Unimplemented effects:</p>\n<ul>\n<li>Heal [[/r {8d6+21}[healing]]]{8d6+21 Hit Points}</li>\n</ul>"
        },
        "duration": {
            "expiry": "turn-start",
            "sustained": false,
            "unit": "minutes",
            "value": 10
        },
        "level": {
            "value": 15
        },
        "rules": [
            {
                "key": "FlatModifier",
                "label": "Elixir of Life, Major (vs. disease & poison)",
                "predicate": {
                    "any": [
                        "disease",
                        "poison"
                    ]
                },
                "selector": "saving-throw",
                "type": "item",
                "value": 3
            }
        ],
        "source": {
            "value": ""
        },
        "start": {
            "initiative": null,
            "value": 0
        },
        "target": null,
        "tokenIcon": {
            "show": true
        },
        "traits": {
            "custom": "",
            "rarity": "common",
            "value": []
        }
    },
    "effects": [],
    "flags": {},
    "img": "systems/pf2e/icons/equipment/alchemical-items/alchemical-elixirs/elixir-of-life.webp",
    "name": "Effect: Elixir of Life (Major)",
    "type": "effect"
}
