{
    "_id": "swwwP7eVmlNuWTb7",
    "content": "<h1>Gozreh (The Wind and the Waves) [N]</h1><p>A timeless entity birthed from the first wind to stir the vast oceans, Gozreh wanders the world in the air and the seas. Sailors drop boxes of cargo as offerings to avoid a fatal storm, hoping to please the Wind and the Waves, even though they know that such pleas are far more likely to go unnoticed as they are to draw their deity's attention. The deity's temperament is fickle and their fury swift, hurling bolts of lightning and dragging to the crushing depths those who dare befoul the natural world. Gozreh is the sea that encapsulates the land and the wind that moves its surface, the birds that traverse the sky and the clouds that shield them.</p>\n<p><strong>Edicts</strong> cherish, protect, and respect nature in all its forms</p>\n<p><strong>Anathema</strong> bring civilization to intrude on the wild, create undead, despoil areas of natural beauty</p>\n<p><strong>Areas of Concern</strong> nature, the sea, and weather</p>\n<p><strong>Follower Alignments</strong> NG, LN, N, CN, NE</p><h2>Devotee Benefits</h2><div><div><strong>Divine Ability</strong> Constitution or Wisdom</div><div><strong>Divine Font</strong> heal</div><div><strong>Divine Skill</strong> Survival</div><div><strong>Favored Weapon</strong> trident</div><div><strong>Domains</strong> air, nature, travel, water</div><div><strong>Alternate Domains</strong> cold, lightning</div><div><strong>Cleric Spells</strong> 1st: gust of wind, 3rd: lightning bolt, 5th: control water</div></div><h2>Divine Intercession</h2><p>Gozreh is pleased when their creatures and waterways are treated with respect but quick to show their displeasure.</p>\n<p><strong>Minor Boon</strong> Gozreh grants their guidance while at sea. You are under the constant effects of know direction and become trained in Sailing Lore (or another Lore skill if you are already trained in Sailing Lore).</p>\n<p><strong>Moderate Boon</strong> You gain the touch of the sea. You can breathe underwater and gain a swim Speed equal to your land Speed.</p>\n<p><strong>Major Boon</strong> Gozreh has blessed you with their wind in your stride. You gain a +30-foot status bonus to your Speeds, and you gain a fly Speed equal to your land Speed.</p>\n<p><strong>Minor Curse</strong> Lightning begins to strike twice. You gain weakness 5 to electricity, and any natural or magical bolts of lightning always target you rather than the other creatures around you.</p>\n<p><strong>Moderate Curse</strong> The current of the waves constantly fights against you, putting you at risk of drowning any time you must Swim. You lose any swim Speed you have, unless it's your only Speed, in which case you take a -20-foot status penalty to your swim Speed. When you roll an Athletics check to Swim, you always use the outcome for one degree of success worse than the result of your roll.</p>\n<p><strong>Major Curse</strong> Those who displease Gozreh are shunned by nature itself. All animals and nonsapient plant creatures are hostile to you, and any animal companion or familiar abandons you. Sapient plants' attitude toward you begins two categories worse than normal, as something about you seems repugnant to them. While plants and animals might not attack you outright if it's not normally in their nature to do so when they are hostile, dogs growl at you, cats hiss, and so on.</p>",
    "flags": {},
    "name": "Gozreh",
    "permission": {
        "default": 0
    }
}
