{
    "_id": "aLCfEgt48SRUHnMC",
    "content": "<h1>Jaidi (The Blessing and Bounty) [NG]</h1><p><strong>Jaidi</strong> is a goddess of agriculture worshiped by the people of ancient Azlant. She represents the pleasure that one feels when contributing hard work for the community as a whole.</p>\n<p><strong>Edicts</strong> Encourage hard work that benefits all, ensure the health of crops and vegetation</p>\n<p><strong>Anathema</strong> Destroy healthy crops, waste food, refuse to help others in your community</p>\n<p><strong>Follower Alignments</strong> LG, NG, N</p><h2>Devotee Benefits</h2><div><div><strong>Divine Ability</strong> Strength or Constitution</div><div><strong>Divine Font</strong> heal</div><div><strong>Divine Skill</strong> Nature</div><div><strong>Favored Weapon</strong> scythe</div><div><strong>Domains</strong> family, might, nature, sun</div><div><strong>Cleric Spells</strong> 1st: temporary tool, 2nd: shape wood, 3rd: wall of thorns</div></div>",
    "flags": {},
    "name": "Jaidi",
    "permission": {
        "default": 0
    }
}
