{
    "_id": "JcIf4uwKLxEWdplI",
    "content": "<h1>Kostchtchie (The Deathless Frost) [CE]</h1><p><strong>Edicts</strong> Avenge all slights three times over, kill all witches</p>\n<p><strong>Anathema</strong> Make a deal with Baba Yaga or her children, defer to or obey a woman</p>\n<p><strong>Follower Alignments</strong> NE, CE</p><h2>Devotee Benefits</h2><div><div><strong>Divine Ability</strong> Strength or Constitution</div><div><strong>Divine Font</strong> harm</div><div><strong>Divine Skill</strong> Athletics</div><div><strong>Favored Weapon</strong> warhammer</div><div><strong>Domains</strong> cold, destruction, might, zeal</div><div><strong>Cleric Spells</strong> 1st: chilling spray, 2nd: enlarge, 5th: cone of cold</div></div>",
    "flags": {},
    "name": "Kostchtchie",
    "permission": {
        "default": 0
    }
}
