{
    "_id": "ra7mnjAZcEuJxI37",
    "content": "<h1>Shei (The Ibis Matron) [NG]</h1><p><strong>Edicts</strong> Empower local communities, learn from elders, share and teach from experiences</p>\n<p><strong>Anathema</strong> Force others to follow your path, inflict negative damage, age others or steal life with magic</p>\n<p><strong>Follower Alignments</strong> LG, NG, CG</p><h2>Devotee Benefits</h2><div><div><strong>Divine Ability</strong> Intelligence or Charisma</div><div><strong>Divine Font</strong> heal</div><div><strong>Divine Skill</strong> Society</div><div><strong>Favored Weapon</strong> sickle</div><div><strong>Domains</strong> family, freedom, healing, perfection</div><div><strong>Cleric Spells</strong> 1st: liberating command, 3rd: hypercognition, 5th: dreaming potential</div></div>",
    "flags": {},
    "name": "Shei",
    "permission": {
        "default": 0
    }
}
