{
    "_id": "fTs56epghXwclPcX",
    "content": "<h1>Stag Mother of the Forest of Stones (She Who Listens) [N]</h1><p><strong>Edicts</strong> Provide shelter and succor for women and children in need, act as a responsible steward of your environment</p>\n<p><strong>Anathema</strong> Harm a pregnant mother or innocent child, including animals</p>\n<p><strong>Follower Alignments</strong> LG, NG, CG, LN, N, CN, LE, NE</p><h2>Devotee Benefits</h2><div><div><strong>Divine Ability</strong> Constitution or Intelligence</div><div><strong>Divine Font</strong> heal</div><div><strong>Divine Skill</strong> Medicine</div><div><strong>Favored Weapon</strong> ranseur</div><div><strong>Domains</strong> family, healing, nature, pain</div><div><strong>Cleric Spells</strong> 1st: phantom pain, 2nd: animal form (bull only, appears as stag), 6th: flesh to stone</div></div>",
    "flags": {},
    "name": "Stag Mother of the Forest of Stones",
    "permission": {
        "default": 0
    }
}
