{
    "_id": "HYe7Yv1fYUANVVI3",
    "content": "<p><strong>Deities</strong> @Compendium[pf2e.deities.Achaekek]{Achaekek},<strong></strong> @Compendium[pf2e.deities.Ahriman]{Ahriman}, @Compendium[pf2e.deities.Barzahk]{Barzahk}, @Compendium[pf2e.deities.Charon]{Charon}, @Compendium[pf2e.deities.Dammerich]{Dammerich}, @Compendium[pf2e.deities.Hanspur]{Hanspur}, @Compendium[pf2e.deities.Imot]{Imot}, @Compendium[pf2e.deities.Magrim]{Magrim}, @Compendium[pf2e.deities.Mother Vulture]{Mother Vulture}, @Compendium[pf2e.deities.Naderi]{Naderi}, @Compendium[pf2e.deities.Narakaas]{Narakaas}, @Compendium[pf2e.deities.Norgorber]{Norgorber}, @Compendium[pf2e.deities.Pharasma]{Pharasma}, @Compendium[pf2e.deities.Saloc]{Saloc}, @Compendium[pf2e.deities.Shax]{Shax}, @Compendium[pf2e.deities.Yaezhing]{Yaezhing}, @Compendium[pf2e.deities.Zyphus]{Zyphus}</p>\n<p><strong>Domain Spell</strong> <em>@Compendium[pf2e.spells-srd.Death's Call]{Death's Call}</em>; <strong>Advanced Domain Spell</strong> <em>@Compendium[pf2e.spells-srd.Eradicate Undeath]{Eradicate Undeath}</em></p>\n<p>You have the power to end lives and destroy undead.</p>",
    "flags": {},
    "name": "Death Domain",
    "permission": {
        "default": 0
    }
}
