{
    "_id": "1NHV4ujqoR2JVWpY",
    "content": "<p><strong>Deities</strong> @Compendium[pf2e.deities.Abadar]{Abadar}, @Compendium[pf2e.deities.Apsu]{Apsu}, @Compendium[pf2e.deities.Barbatos]{Barbatos}, @Compendium[pf2e.deities.Count Ranalc]{Count Ranalc}, @Compendium[pf2e.deities.Desna]{Desna}, @Compendium[pf2e.deities.Dranngvit]{Dranngvit}, @Compendium[pf2e.deities.Gozreh]{Gozreh}, @Compendium[pf2e.deities.Gruhastha]{Gruhastha}, @Compendium[pf2e.deities.Hanspur]{Hanspur}, @Compendium[pf2e.deities.Hei Feng]{Hei Feng}, @Compendium[pf2e.deities.Jaidz]{Jaidz}, @Compendium[pf2e.deities.Kelizandri]{Kelizandri}, @Compendium[pf2e.deities.Kofusachi]{Kofusachi}, @Compendium[pf2e.deities.Matravash]{Matravash}, @Compendium[pf2e.deities.Ng]{Ng}, @Compendium[pf2e.deities.Nocticula]{Nocticula}, @Compendium[pf2e.deities.Ranginori]{Ranginori}, @Compendium[pf2e.deities.The Path of the Heavens]{The Path of the Heavens}, @Compendium[pf2e.deities.The Prismatic Ray]{The Prismatic Ray}, @Compendium[pf2e.deities.Wadjet]{Wadjet}, @Compendium[pf2e.deities.Ylimancha]{Ylimancha}, @Compendium[pf2e.deities.Yog-Sothoth]{Yog-Sothoth}</p>\n<p><strong>Domain Spell</strong> <em>@Compendium[pf2e.spells-srd.Agile Feet]{Agile Feet}</em>; <strong>Advanced Domain Spell</strong> <em>@Compendium[pf2e.spells-srd.Traveler's Transit]{Traveler's Transit}</em></p>\n<p>You have power over movement and journeys.</p>",
    "flags": {},
    "name": "Travel Domain",
    "permission": {
        "default": 0
    }
}
