{
    "_id": "V6iJ4v15Qc8awVCH",
    "data": {
        "actionCategory": {
            "value": ""
        },
        "actionType": {
            "value": "passive"
        },
        "actions": {
            "value": null
        },
        "description": {
            "value": "<p>Your celestial powers allow you to remove lesser afflictions with ease.</p>\n<p>Each day, you can cast two 4th-level divine innate spells. You can choose from the following spells each time you cast: <em>@Compendium[pf2e.spells-srd.Remove Curse]{Remove Curse}</em>, <em>@Compendium[pf2e.spells-srd.Remove Disease]{Remove Disease}</em>, and <em>@Compendium[pf2e.spells-srd.Neutralize Poison]{Neutralize Poison}</em>.</p>"
        },
        "featType": {
            "value": "ancestry"
        },
        "level": {
            "value": 13
        },
        "prerequisites": {
            "value": []
        },
        "rules": [],
        "source": {
            "value": "Pathfinder Advanced Player's Guide"
        },
        "traits": {
            "custom": "",
            "rarity": "common",
            "value": [
                "aasimar"
            ]
        }
    },
    "effects": [],
    "flags": {},
    "img": "systems/pf2e/icons/features/feats/feats.webp",
    "name": "Aasimar's Mercy",
    "type": "feat"
}
