{
    "_id": "BASCKOPvNGgoHGid",
    "data": {
        "actionCategory": {
            "value": ""
        },
        "actionType": {
            "value": "passive"
        },
        "actions": {
            "value": null
        },
        "description": {
            "value": "<p>You sense if a creature you have slain in the last year has been restored to life, as long as you and that creature are on the same plane. You also gain the <em>@Compendium[pf2e.spells-srd.Achaekek's Clutch]{Achaekek's Clutch}</em> focus spell. If you don't already have one, you gain a focus pool of 1 Focus Point, which you can Refocus by praying to Achaekek or researching your assigned kill.</p>"
        },
        "featType": {
            "value": "archetype"
        },
        "level": {
            "value": 8
        },
        "prerequisites": {
            "value": [
                {
                    "value": "Basic Red Mantis Magic"
                }
            ]
        },
        "rules": [
            {
                "key": "ActiveEffectLike",
                "mode": "add",
                "path": "data.resources.focus.max",
                "value": 1
            }
        ],
        "source": {
            "value": ""
        },
        "traits": {
            "custom": "",
            "rarity": "rare",
            "selected": {
                "archetype": "Archetype"
            },
            "value": [
                "archetype"
            ]
        }
    },
    "effects": [],
    "flags": {},
    "img": "systems/pf2e/icons/features/feats/feats.webp",
    "name": "Achaekek's Grip",
    "type": "feat"
}
