{
    "_id": "ydgCsYsgqSkFWEDK",
    "data": {
        "actionCategory": {
            "value": ""
        },
        "actionType": {
            "value": "passive"
        },
        "actions": {
            "value": null
        },
        "description": {
            "value": "<p>You descend from an angel-a winged messenger from Nirvana or one of the other celestial realms-which gives you a knack for cultures and languages.</p>\n<p>You gain the trained proficiency rank in Society. If you would automatically become trained in Society (from your background or class, for example), you instead become trained in a skill of your choice. You know the Celestial language, and you gain the @Compendium[pf2e.feats-srd.Multilingual]{Multilingual} skill feat.</p>\n<hr />\n<p><em>Note: If you are already trained in the skill provided by this feat, you need to manually select an alternative skill.</em></p>"
        },
        "featType": {
            "value": "ancestry"
        },
        "level": {
            "value": 1
        },
        "location": "",
        "onlyLevel1": true,
        "prerequisites": {
            "value": []
        },
        "rules": [
            {
                "key": "ActiveEffectLike",
                "mode": "upgrade",
                "path": "data.skills.soc.rank",
                "value": 1
            },
            {
                "key": "GrantItem",
                "uuid": "Compendium.pf2e.feats-srd.Multilingual"
            }
        ],
        "source": {
            "value": "Pathfinder Advanced Player's Guide"
        },
        "traits": {
            "custom": "",
            "rarity": "common",
            "value": [
                "aasimar",
                "lineage"
            ]
        }
    },
    "effects": [],
    "flags": {},
    "img": "systems/pf2e/icons/features/feats/feats.webp",
    "name": "Angelkin",
    "type": "feat"
}
