{
    "_id": "XydqgTE4J119J5JV",
    "data": {
        "actionCategory": {
            "value": ""
        },
        "actionType": {
            "value": "passive"
        },
        "actions": {
            "value": null
        },
        "description": {
            "value": "<p><strong>Frequency</strong> once per turn</p>\n<p><strong>Requirements</strong> Your most recent action was to Cast a Spell from a spell slot or make a Spellstrike with a spell from a spell slot.</p>\n<hr />\n<p>Your spell has a powerful aftereffect, briefly granting you a certain spell depending on the spell you cast. You use Arcane Cascade and are subject to an additional aftereffect spell depending on the school of your most recent spell. This aftereffect spell's duration lasts until the end of your next turn or its normal duration, whichever is longer. Using Arcane Shroud again ends any existing spell you gained from Arcane Shroud.</p>\n<ul>\n<li><strong>Abjuration</strong> <em>@Compendium[pf2e.spells-srd.Stoneskin]{Stoneskin}</em></li>\n<li><strong>Conjuration</strong> <em>@Compendium[pf2e.spells-srd.Blink]{Blink}</em></li>\n<li><strong>Divination</strong> <em>@Compendium[pf2e.spells-srd.See Invisibility]{See Invisibility}</em></li>\n<li><strong>Enchantment</strong> <em>@Compendium[pf2e.spells-srd.Heroism]{Heroism}</em></li>\n<li><strong>Evocation</strong> <em>@Compendium[pf2e.spells-srd.Fire Shield]{Fire Shield}</em></li>\n<li><strong>Illusion</strong> <em>@Compendium[pf2e.spells-srd.Invisibility]{Invisibility}</em> (ends after a hostile action, as normal)</li>\n<li><strong>Necromancy</strong> <em>@Compendium[pf2e.spells-srd.False Life]{False Life}</em></li>\n<li><strong>Transmutation</strong> <em>@Compendium[pf2e.spells-srd.Fleet Step]{Fleet Step}</em></li>\n</ul>"
        },
        "featType": {
            "value": "class"
        },
        "level": {
            "value": 14
        },
        "location": "",
        "prerequisites": {
            "value": [
                {
                    "value": "Arcane Cascade"
                },
                {
                    "value": "Spellstrike"
                }
            ]
        },
        "rules": [],
        "source": {
            "value": ""
        },
        "traits": {
            "custom": "",
            "rarity": "common",
            "value": [
                "magus"
            ]
        }
    },
    "effects": [],
    "flags": {},
    "img": "systems/pf2e/icons/features/feats/feats.webp",
    "name": "Arcane Shroud",
    "type": "feat"
}
