{
    "_id": "wjnfdh6WzN7HbmeE",
    "data": {
        "actionCategory": {
            "value": ""
        },
        "actionType": {
            "value": "passive"
        },
        "actions": {
            "value": null
        },
        "description": {
            "value": "<p>Your presence as an avatar of evil makes your foes more susceptible to terror and makes it almost impossible for them to shake off fear when you are near.</p>\n<p>Enemies within 15 feet of you take a -1 circumstance penalty to saving throws against fear. In addition, an enemy that ends its turn within 15 feet of you can't reduce the value of its @Compendium[pf2e.conditionitems.Frightened]{Frightened} condition below 1.</p>\n<p>@Compendium[pf2e.feat-effects.Effect: Aura of Despair]{Effect: Aura of Despair}</p>"
        },
        "featType": {
            "value": "class"
        },
        "level": {
            "value": 4
        },
        "location": "",
        "prerequisites": {
            "value": [
                {
                    "value": "tenets of evil"
                }
            ]
        },
        "rules": [],
        "source": {
            "value": "Pathfinder Advanced Player's Guide"
        },
        "traits": {
            "custom": "",
            "rarity": "uncommon",
            "value": [
                "champion"
            ]
        }
    },
    "effects": [],
    "flags": {},
    "img": "systems/pf2e/icons/features/feats/feats.webp",
    "name": "Aura Of Despair",
    "type": "feat"
}
