{
    "_id": "jsbe2d9lYGJ2MksT",
    "data": {
        "actionCategory": {
            "value": ""
        },
        "actionType": {
            "value": "passive"
        },
        "actions": {
            "value": null
        },
        "description": {
            "value": "<p>You've learned how to pull off a sudden noisemaker at just the right moment in your display, a technique that can disrupt precise wording. You gain the @Compendium[pf2e.actionspf2e.Banshee Cry]{Banshee Cry} fireworks display.</p>"
        },
        "featType": {
            "value": "archetype"
        },
        "level": {
            "value": 12
        },
        "location": "",
        "prerequisites": {
            "value": [
                {
                    "value": "Firework Technician Dedication"
                }
            ]
        },
        "rules": [],
        "source": {
            "value": ""
        },
        "traits": {
            "custom": "",
            "rarity": "common",
            "value": [
                "archetype"
            ]
        }
    },
    "effects": [],
    "flags": {},
    "img": "systems/pf2e/icons/default-icons/feats.webp",
    "name": "Banshee Cry Display",
    "type": "feat"
}
