{
    "_id": "MR4X38qgBj5tmkMw",
    "data": {
        "actionCategory": {
            "value": ""
        },
        "actionType": {
            "value": "free"
        },
        "actions": {
            "value": null
        },
        "description": {
            "value": "<p><strong>Frequency</strong> once per day</p>\n<p><strong>Trigger</strong> You lose the @Compendium[pf2e.conditionitems.Dying]{Dying} condition.</p>\n<hr />\n<p>You recover from near-death experiences with astounding resilience. Don't increase the value of your @Compendium[pf2e.conditionitems.Wounded]{Wounded} condition due to losing the dying condition.</p>"
        },
        "featType": {
            "value": "ancestry"
        },
        "level": {
            "value": 13
        },
        "prerequisites": {
            "value": []
        },
        "rules": [],
        "source": {
            "value": "Pathfinder Advanced Player's Guide"
        },
        "traits": {
            "custom": "",
            "rarity": "common",
            "value": [
                "human"
            ]
        }
    },
    "effects": [],
    "flags": {},
    "img": "systems/pf2e/icons/features/feats/feats.webp",
    "name": "Bounce Back",
    "type": "feat"
}
