{
    "_id": "ICLUKJc9P0LgwVyt",
    "data": {
        "actionCategory": {
            "value": ""
        },
        "actionType": {
            "value": "passive"
        },
        "actions": {
            "value": null
        },
        "description": {
            "value": "<p>The fire inside you asserts itself as beaming, radiant light. Your body is naturally luminescent, glowing with the effects of a primal <em>@Compendium[pf2e.spells-srd.Light]{Light}</em> cantrip. A cantrip is heightened to a spell level equal to half your level rounded up. The light is involuntary and constant; if counteracted, it returns in [[/br 1d4 #rounds]]{1d4 rounds}. You suffer a -2 circumstance penalty on Stealth checks to Hide or Sneak and gain a +1 circumstance bonus on saves against light effects and effects that inflict the @Compendium[pf2e.conditionitems.Blinded]{Blinded} or @Compendium[pf2e.conditionitems.Dazzled]{Dazzled} conditions.</p>"
        },
        "featType": {
            "value": "ancestry"
        },
        "level": {
            "value": 1
        },
        "location": "",
        "onlyLevel1": true,
        "prerequisites": {
            "value": []
        },
        "rules": [],
        "source": {
            "value": "Pathfinder Lost Omens: Ancestry Guide"
        },
        "traits": {
            "custom": "",
            "rarity": "common",
            "value": [
                "ifrit",
                "lineage"
            ]
        }
    },
    "effects": [],
    "flags": {},
    "img": "systems/pf2e/icons/features/feats/feats.webp",
    "name": "Brightsoul",
    "type": "feat"
}
