{
    "_id": "nePEcAp7lTL35uyx",
    "data": {
        "actionCategory": {
            "value": ""
        },
        "actionType": {
            "value": "reaction"
        },
        "actions": {
            "value": null
        },
        "description": {
            "value": "<p><strong>Frequency</strong> once per day</p>\n<p><strong>Trigger</strong> An ally within 30 feet would be reduced to 0 HP but not immediately killed.</p>\n<hr />\n<p>You give a daring yowl in the face of adversity, calling your companion back from the brink of unconsciousness.</p>\n<p>Your ally isn't knocked out and remains at 1 Hit Point. Your ally's @Compendium[pf2e.conditionitems.Wounded]{Wounded} condition still increases by 1 as though they had been dying and recovered.</p>"
        },
        "featType": {
            "value": "ancestry"
        },
        "level": {
            "value": 13
        },
        "prerequisites": {
            "value": []
        },
        "rules": [],
        "source": {
            "value": "Pathfinder Advanced Player's Guide"
        },
        "traits": {
            "custom": "",
            "rarity": "common",
            "value": [
                "auditory",
                "catfolk",
                "concentrate",
                "emotion",
                "mental"
            ]
        }
    },
    "effects": [],
    "flags": {},
    "img": "systems/pf2e/icons/features/feats/feats.webp",
    "name": "Caterwaul",
    "type": "feat"
}
