{
    "_id": "B9cQLRHtXoLlF0iR",
    "data": {
        "actionCategory": {
            "value": ""
        },
        "actionType": {
            "value": "passive"
        },
        "actions": {
            "value": null
        },
        "description": {
            "value": "<p>Rather than hide an object somewhere the inspectors won't search, you're skilled at keeping the object on the move so it's never where they look.</p>\n<p>When you @Compendium[pf2e.actionspf2e.Conceal an Object]{Conceal an Object} of light Bulk or less, you can use Thievery instead of Stealth for your checks and for the DC of an active searcher's Perception check. You roll the check only once, but you must continue to use actions to Conceal an Object throughout the process.</p>"
        },
        "featType": {
            "value": "skill"
        },
        "level": {
            "value": 1
        },
        "prerequisites": {
            "value": [
                {
                    "value": "trained in Thievery"
                }
            ]
        },
        "rules": [],
        "source": {
            "value": "Pathfinder Advanced Player's Guide"
        },
        "traits": {
            "custom": "",
            "rarity": "common",
            "value": [
                "general",
                "skill"
            ]
        }
    },
    "effects": [],
    "flags": {},
    "img": "systems/pf2e/icons/features/feats/feats.webp",
    "name": "Concealing Legerdemain",
    "type": "feat"
}
