{
    "_id": "lPTcPIshChHWz4J6",
    "data": {
        "actionCategory": {
            "value": ""
        },
        "actionType": {
            "value": "passive"
        },
        "actions": {
            "value": null
        },
        "description": {
            "value": "<p>Your debilitations are especially effective on your most powerful attacks. Whenever you critically succeed at an attack roll against an enemy and use @Compendium[pf2e.actionspf2e.Debilitating Strike]{Debilitating Strike}, add the following debilitation to the list you can choose from.</p>\n<hr />\n<p><strong>Debilitation</strong> The target attempts a Fortitude save against your class DC with the following effects.</p>\n<hr />\n<p><strong>Critical Success</strong> The target is unaffected.</p>\n<p><strong>Success</strong> The target is @Compendium[pf2e.conditionitems.Slowed]{Slowed 1} until the end of your next turn.</p>\n<p><strong>Failure</strong> The target is @Compendium[pf2e.conditionitems.Slowed]{Slowed 2} until the end of your next turn.</p>\n<p><strong>Critical Failure</strong> The target is @Compendium[pf2e.conditionitems.Paralyzed]{Paralyzed} until the end of your next turn.</p>"
        },
        "featType": {
            "value": "class"
        },
        "level": {
            "value": 12
        },
        "location": "",
        "prerequisites": {
            "value": [
                {
                    "value": "Debilitating Strike"
                }
            ]
        },
        "rules": [
            {
                "key": "Note",
                "outcome": [
                    "criticalSuccess"
                ],
                "predicate": {
                    "all": [
                        "target:condition:flat-footed"
                    ]
                },
                "selector": "strike-damage",
                "text": "<span class='pf2-icon'>f</span> @Compendium[pf2e.feats-srd.Critical Debilitation]{Critical Debilitation}"
            }
        ],
        "source": {
            "value": "Pathfinder Core Rulebook"
        },
        "traits": {
            "custom": "",
            "rarity": "common",
            "value": [
                "incapacitation",
                "rogue"
            ]
        }
    },
    "effects": [],
    "flags": {},
    "img": "systems/pf2e/icons/features/feats/feats.webp",
    "name": "Critical Debilitation",
    "type": "feat"
}
