{
    "_id": "LZsTt6zPZfNyjIZl",
    "data": {
        "actionCategory": {
            "value": ""
        },
        "actionType": {
            "value": "passive"
        },
        "actions": {
            "value": null
        },
        "description": {
            "value": "<p>You've sworn to slay evil dragons. Add the following tenet to your code after the others: \"You must slay evil dragons you encounter as long as you have a reasonable chance of success.</p>\n<p>Your @Compendium[pf2e.actionspf2e.Retributive Strike]{Retributive Strike} gains a +4 circumstance bonus to damage against an evil dragon, or +6 if you have master proficiency with the weapon you used.</p>\n<p>You don't consider evil dragons to be legitimate authorities, even in nations they rule.</p>"
        },
        "featType": {
            "value": "class"
        },
        "level": {
            "value": 2
        },
        "location": "",
        "prerequisites": {
            "value": [
                {
                    "value": "tenets of good"
                },
                {
                    "value": "paladin cause"
                }
            ]
        },
        "rules": [
            {
                "domain": "damage-roll",
                "key": "RollOption",
                "label": "Retributive Strike against an evil dragon",
                "option": "dragonslayer-oath",
                "toggleable": true
            },
            {
                "key": "FlatModifier",
                "label": "Dragonslayer Oath",
                "predicate": {
                    "all": [
                        "dragonslayer-oath"
                    ],
                    "not": [
                        "proficiency:master",
                        "proficiency:legendary"
                    ]
                },
                "selector": "strike-damage",
                "slug": "dragonslayer-not-master",
                "value": 4
            },
            {
                "key": "FlatModifier",
                "label": "Dragonslayer Oath",
                "predicate": {
                    "all": [
                        "dragonslayer-oath"
                    ],
                    "any": [
                        "proficiency:master",
                        "proficiency:legendary"
                    ]
                },
                "selector": "strike-damage",
                "slug": "dragonslayer-master",
                "value": 6
            }
        ],
        "source": {
            "value": "Pathfinder Core Rulebook"
        },
        "traits": {
            "custom": "",
            "rarity": "common",
            "value": [
                "champion",
                "oath"
            ]
        }
    },
    "effects": [],
    "flags": {},
    "img": "systems/pf2e/icons/features/feats/feats.webp",
    "name": "Dragonslayer Oath (Paladin)",
    "type": "feat"
}
