{
    "_id": "2Lcwqwq8CF40TYHd",
    "data": {
        "actionCategory": {
            "value": ""
        },
        "actionType": {
            "value": "passive"
        },
        "actions": {
            "value": null
        },
        "description": {
            "value": "<p>You and your eidolon have some skills you practice on your own.</p>\n<p>Choose two skills. Your eidolon becomes trained in one of those skills and you become trained in the other skill.</p>\n<p>At 7th level, you each become an expert in the chosen skills. These skill proficiencies are not shared between you and your eidolon.</p>"
        },
        "featType": {
            "value": "class"
        },
        "level": {
            "value": 1
        },
        "location": "",
        "prerequisites": {
            "value": []
        },
        "rules": [],
        "source": {
            "value": ""
        },
        "traits": {
            "custom": "",
            "rarity": "common",
            "value": [
                "summoner"
            ]
        }
    },
    "effects": [],
    "flags": {},
    "img": "systems/pf2e/icons/features/feats/feats.webp",
    "name": "Dual Studies",
    "type": "feat"
}
