{
    "_id": "gozOYxLVx7PQvOSj",
    "data": {
        "actionCategory": {
            "value": ""
        },
        "actionType": {
            "value": "passive"
        },
        "actions": {
            "value": null
        },
        "description": {
            "value": "<p>You've learned the cantrips sprites have used since time immemorial. You gain <em>@Compendium[pf2e.spells-srd.Dancing Lights]{Dancing Lights}</em> and <em>@Compendium[pf2e.spells-srd.Ghost Sound]{Ghost Sound}</em> as primal innate cantrips. If you have the grig heritage, you also gain <em>@Compendium[pf2e.spells-srd.Detect Magic]{Detect Magic}</em>, and if you have the draxie heritage, you gain <em>@Compendium[pf2e.spells-srd.Prestidigitation]{Prestidigitation}</em>.</p>"
        },
        "featType": {
            "value": "ancestry"
        },
        "level": {
            "value": 1
        },
        "location": "",
        "prerequisites": {
            "value": []
        },
        "rules": [],
        "source": {
            "value": "Pathfinder Lost Omens: Ancestry Guide"
        },
        "traits": {
            "custom": "",
            "rarity": "common",
            "value": [
                "sprite"
            ]
        }
    },
    "effects": [],
    "flags": {},
    "img": "systems/pf2e/icons/features/feats/feats.webp",
    "name": "Fey Cantrips",
    "type": "feat"
}
