{
    "_id": "J5s7NeFHYuFSdhrX",
    "data": {
        "actionCategory": {
            "value": ""
        },
        "actionType": {
            "value": "passive"
        },
        "actions": {
            "value": null
        },
        "description": {
            "value": "<p>You've trained with your order's weapon and your Hellknight plate long enough to apply your expertise from other weapons and armor. If you have expert proficiency in any weapon or unarmed attack, you gain expert proficiency in your order's weapon as well. If you have expert proficiency in any armor or unarmored defense, you gain expert proficiency in Hellknight plate as well.</p>"
        },
        "featType": {
            "value": "archetype"
        },
        "level": {
            "value": 12
        },
        "prerequisites": {
            "value": [
                {
                    "value": "Hellknight Dedication "
                }
            ]
        },
        "rules": [],
        "source": {
            "value": "Pathfinder Lost Omens: Character Guide"
        },
        "traits": {
            "custom": "",
            "rarity": "common",
            "value": [
                "archetype"
            ]
        }
    },
    "effects": [],
    "flags": {},
    "img": "systems/pf2e/icons/features/feats/feats.webp",
    "name": "Hell's Armaments",
    "type": "feat"
}
