{
    "_id": "AjdmoGFoSIyx1mxd",
    "data": {
        "actionCategory": {
            "value": ""
        },
        "actionType": {
            "value": "passive"
        },
        "actions": {
            "value": null
        },
        "description": {
            "value": "<p><strong>Access</strong> Jaric ethnicity</p>\n<hr />\n<p>You are accustomed to working alongside others, relying on each other to get by. You gain a +2 circumstance bonus to checks to Aid, and your allies gain a +2 circumstance bonus to checks to Aid you.</p>"
        },
        "featType": {
            "value": "ancestry"
        },
        "level": {
            "value": 1
        },
        "location": "",
        "prerequisites": {
            "value": []
        },
        "rules": [],
        "source": {
            "value": "Pathfinder Lost Omens: Character Guide"
        },
        "traits": {
            "custom": "",
            "rarity": "uncommon",
            "value": [
                "halfling"
            ]
        }
    },
    "effects": [],
    "flags": {},
    "img": "systems/pf2e/icons/features/feats/feats.webp",
    "name": "Intuitive Cooperation",
    "type": "feat"
}
