{
    "_id": "Ze9vb0wlRmWWqnXC",
    "data": {
        "actionCategory": {
            "value": ""
        },
        "actionType": {
            "value": "passive"
        },
        "actions": {
            "value": null
        },
        "description": {
            "value": "<p><strong>Access</strong> trained by a current or former member of a House of Perfection</p>\n<hr />\n<p>Your skill and dedication have set you on a path to master the techniques of Jalmeray's greatest martial artists: victors of the Challenge of Sky and Heaven. You become trained in either Acrobatics or Occultism. You gain either the @Compendium[pf2e.feats-srd.Ki Rush]{Ki Rush} or @Compendium[pf2e.feats-srd.Ki Strike]{Ki Strike} monk feat, which grants you a ki spell and a focus pool of 1 Focus Point that you can recover using the @Compendium[pf2e.actionspf2e.Refocus]{Refocus} activity as a monk does. If you already have both these feats, you can instead choose a single 1st-level monk feat.</p>\n<p><strong>Special</strong> You can't select another dedication feat until you have gained two other feats from the Jalmeri Heavenseeker archetype.</p>"
        },
        "featType": {
            "value": "archetype"
        },
        "level": {
            "value": 4
        },
        "location": "",
        "prerequisites": {
            "value": [
                {
                    "value": "expert in unarmed strikes"
                }
            ]
        },
        "rules": [
            {
                "adjustName": false,
                "choices": [
                    {
                        "value": "Compendium.pf2e.feats-srd.Ki Rush"
                    },
                    {
                        "value": "Compendium.pf2e.feats-srd.Ki Strike"
                    }
                ],
                "key": "ChoiceSet",
                "prompt": "PF2E.UI.RuleElements.ChoiceSet.Prompt"
            },
            {
                "key": "GrantItem",
                "uuid": "{item|flags.pf2e.rulesSelections.jalmeriHeavenseekerDedication}"
            }
        ],
        "source": {
            "value": "Pathfinder #158: Sixty Feet Under"
        },
        "traits": {
            "custom": "",
            "rarity": "uncommon",
            "selected": {
                "archetype": "Archetype",
                "dedication": "Dedication"
            },
            "value": [
                "archetype",
                "dedication"
            ]
        }
    },
    "effects": [],
    "flags": {},
    "img": "systems/pf2e/icons/features/feats/feats.webp",
    "name": "Jalmeri Heavenseeker Dedication",
    "type": "feat"
}
