{
    "_id": "em3glccrJ5ZIf8Uq",
    "data": {
        "actionCategory": {
            "value": "offensive"
        },
        "actionType": {
            "value": "reaction"
        },
        "actions": {
            "value": null
        },
        "description": {
            "value": "<p>When your hunted prey tries to bolt, you follow. You Stride up to your Speed, following your hunted prey and keeping it in reach throughout its movement until it stops moving or you've moved your full Speed.</p>\n<p>You can use Keep Pace to @Compendium[pf2e.actionspf2e.Burrow]{Burrow}, @Compendium[pf2e.actionspf2e.Climb]{Climb}, @Compendium[pf2e.actionspf2e.Fly]{Fly}, or @Compendium[pf2e.actionspf2e.Swim]{Swim} instead of Stride if you have the appropriate movement type.</p>"
        },
        "featType": {
            "value": "archetype"
        },
        "level": {
            "value": 6
        },
        "location": "",
        "prerequisites": {
            "value": [
                {
                    "value": "Game Hunter Dedication"
                }
            ]
        },
        "rules": [],
        "source": {
            "value": "Pathfinder #175: Broken Tusk Moon"
        },
        "traits": {
            "custom": "",
            "rarity": "common",
            "value": [
                "archetype"
            ]
        }
    },
    "effects": [],
    "flags": {},
    "img": "systems/pf2e/icons/default-icons/feats.webp",
    "name": "Keep Pace (Game Hunter)",
    "type": "feat"
}
