{
    "_id": "fYVFBnv9aVHv1UNg",
    "data": {
        "actionCategory": {
            "value": ""
        },
        "actionType": {
            "value": "reaction"
        },
        "actions": {
            "value": null
        },
        "description": {
            "value": "<p><strong>Trigger</strong> You attempt a saving throw against a spell or magical effect, but haven't rolled yet.</p>\n<hr />\n<p>You notice spirits that inhabit objects, learning which bring good fortune and which are unlucky. You focus on the power of a lucky object, granting you a +1 circumstance bonus to your saving throw against the triggering effect.</p>"
        },
        "featType": {
            "value": "ancestry"
        },
        "level": {
            "value": 1
        },
        "prerequisites": {
            "value": []
        },
        "rules": [],
        "source": {
            "value": "Pathfinder Lost Omens: Character Guide"
        },
        "traits": {
            "custom": "",
            "rarity": "common",
            "value": [
                "leshy"
            ]
        }
    },
    "effects": [],
    "flags": {},
    "img": "systems/pf2e/icons/features/feats/feats.webp",
    "name": "Leshy Superstition",
    "type": "feat"
}
