{
    "_id": "ZlPCQ3Qh1cgS9r87",
    "data": {
        "actionCategory": {
            "value": ""
        },
        "actionType": {
            "value": "passive"
        },
        "actions": {
            "value": null
        },
        "description": {
            "value": "<p>You condense the moisture in the air, solidifying it so it can hold your weight. When you use @Compendium[pf2e.feats-srd.Water Strider]{Water Strider}, you can walk on air. You can ascend and descend at a maximum of a 45-degree angle. You still fall at the end of your movement if you don't end on a surface that can support you, as normal for Water Strider.</p>"
        },
        "featType": {
            "value": "ancestry"
        },
        "level": {
            "value": 13
        },
        "location": "",
        "prerequisites": {
            "value": [
                {
                    "value": "Water Strider"
                }
            ]
        },
        "rules": [],
        "source": {
            "value": "Pathfinder Lost Omens: Ancestry Guide"
        },
        "traits": {
            "custom": "",
            "rarity": "common",
            "value": [
                "azarketi"
            ]
        }
    },
    "effects": [],
    "flags": {},
    "img": "systems/pf2e/icons/default-icons/feats.webp",
    "name": "Mist Strider",
    "type": "feat"
}
