{
    "_id": "N7CM5CmHuZ1cylV9",
    "data": {
        "actionCategory": {
            "value": ""
        },
        "actionType": {
            "value": "passive"
        },
        "actions": {
            "value": null
        },
        "description": {
            "value": "<p>You spend 10 minutes in contemplation to uncannily predict how events will play out. Choose a particular goal or activity you plan to engage in within 1 week, or an event you expect might happen within 1 week. You analyze whether it's likely to come to pass, learning whether it's highly likely, somewhat likely, somewhat unlikely, or highly unlikely. You also gain a piece of advice suggesting a course of action you or your allies could take that might make the chosen event more or less likely, whichever you prefer.</p>\n<p>The GM determines the likeliness of the event and the piece of advice you learn.</p>"
        },
        "featType": {
            "value": "class"
        },
        "level": {
            "value": 14
        },
        "prerequisites": {
            "value": []
        },
        "rules": [],
        "source": {
            "value": "Pathfinder Advanced Player's Guide"
        },
        "traits": {
            "custom": "",
            "rarity": "common",
            "value": [
                "concentrate",
                "investigator",
                "prediction"
            ]
        }
    },
    "effects": [],
    "flags": {},
    "img": "systems/pf2e/icons/features/feats/feats.webp",
    "name": "Plot The Future",
    "type": "feat"
}
