{
    "_id": "VzQtyHSjq12E4Dzh",
    "data": {
        "actionCategory": {
            "value": "defensive"
        },
        "actionType": {
            "value": "action"
        },
        "actions": {
            "value": 1
        },
        "description": {
            "value": "<p>You purify the water within a creature's body to cleanse them of illness. If the next action you use is to cast <em>@Compendium[pf2e.spells-srd.Heal]{Heal}</em> targeting a single living creature, you can attempt to counteract a disease or poison affecting the target, in addition to the other benefits of <em>heal</em>. If you do, <em>heal</em> gains the water trait.</p>"
        },
        "featType": {
            "value": "class"
        },
        "level": {
            "value": 12
        },
        "location": "",
        "prerequisites": {
            "value": [
                {
                    "value": "wave order"
                }
            ]
        },
        "rules": [],
        "source": {
            "value": ""
        },
        "traits": {
            "custom": "",
            "rarity": "common",
            "value": [
                "concentrate",
                "druid",
                "metamagic",
                "water"
            ]
        }
    },
    "effects": [],
    "flags": {},
    "img": "systems/pf2e/icons/features/feats/feats.webp",
    "name": "Purifying Spell",
    "type": "feat"
}
