{
    "_id": "knZUN4sYExIyRC4F",
    "data": {
        "actionCategory": {
            "value": "offensive"
        },
        "actionType": {
            "value": "action"
        },
        "actions": {
            "value": 1
        },
        "description": {
            "value": "<p><strong>Requirements</strong> You're unarmored.</p>\n<hr />\n<p>You enter a stance of fluid grace as small amounts of water flow with your movements and attacks. You can make flowing wave attacks that deal 1d6 bludgeoning damage. They are in the brawling group and have the agile, disarm, finesse, nonlethal, trip, unarmed, and water traits.</p>\n<p>While in Reflective Ripple Stance, you gain a +1 circumstance bonus to Athletics checks to @Compendium[pf2e.actionspf2e.Disarm]{Disarm}, @Compendium[pf2e.actionspf2e.Swim]{Swim}, or @Compendium[pf2e.actionspf2e.Trip]{Trip}, and you gain a +2 circumstance bonus to your Reflex DC to avoid being Disarmed and Tripped.</p>\n<hr />\n<p><strong>Special</strong> This feat gains your choice of either the divine or occult trait, matching your ki spell tradition if possible.</p>"
        },
        "featType": {
            "value": "class"
        },
        "level": {
            "value": 1
        },
        "location": "",
        "prerequisites": {
            "value": []
        },
        "rules": [],
        "source": {
            "value": ""
        },
        "traits": {
            "custom": "",
            "rarity": "common",
            "value": [
                "evocation",
                "monk",
                "stance",
                "water"
            ]
        }
    },
    "effects": [],
    "flags": {},
    "img": "systems/pf2e/icons/features/feats/feats.webp",
    "name": "Reflective Ripple Stance",
    "type": "feat"
}
