{
    "_id": "5S1nPoxHTgu9MGGV",
    "data": {
        "actionCategory": {
            "value": "interaction"
        },
        "actionType": {
            "value": "passive"
        },
        "actions": {
            "value": null
        },
        "description": {
            "value": "<p>You quickly use your momentum to topple and spring off of foes. You can use Wall Jump to make additional jumps off of creatures larger than you as if they were walls. Once per turn when you make an additional jump off of a creature in this way, you can also attempt to Shove or Trip that creature as a free action.</p>"
        },
        "featType": {
            "value": "ancestry"
        },
        "level": {
            "value": 9
        },
        "location": "",
        "prerequisites": {
            "value": [
                {
                    "value": "master in Athletics"
                },
                {
                    "value": "Wall Jump"
                }
            ]
        },
        "rules": [],
        "source": {
            "value": "Pathfinder Lost Omens: The Mwangi Expanse"
        },
        "traits": {
            "custom": "",
            "rarity": "common",
            "value": [
                "grippli"
            ]
        }
    },
    "effects": [],
    "flags": {},
    "img": "systems/pf2e/icons/default-icons/feats.webp",
    "name": "Ricocheting Leap",
    "type": "feat"
}
