{
    "_id": "ncrNQcwm4gOQRAA3",
    "data": {
        "actionCategory": {
            "value": ""
        },
        "actionType": {
            "value": "passive"
        },
        "actions": {
            "value": null
        },
        "description": {
            "value": "<p>You've sacrificed a piece of your spirit, allowing the powers of shadow into your being and changing the nature of your magic. You can no longer cast spells that have the light trait; if an ability, such as a class feature or ancestry feat, would automatically grant you a light spell, such as the @Compendium[pf2e.feats-srd.Domain Initiate]{Domain Initiate} feat granting you the <em>@Compendium[pf2e.spells-srd.Dazzling Flash]{Dazzling Flash}</em> spell, you don't gain that spell.</p>\n<p>You gain the <em>@Compendium[pf2e.spells-srd.Cloak of Shadow]{Cloak of Shadow}</em> domain spell. It costs 1 Focus Point to cast a focus spell. This feat grants a focus pool of 1 Focus Point that you can recover using the @Compendium[pf2e.actionspf2e.Refocus]{Refocus} activity. You can Refocus by meditating to siphon power from the Shadow Plane and refill your focus pool. Your domain spells from the shadowcaster archetype are of the same tradition as the spells you used to meet the shadowcaster archetype's prerequisites.</p>\n<hr />\n<p><strong>Special</strong> You can't select another dedication feat until you've gained two other feats from the shadowcaster archetype.</p>"
        },
        "featType": {
            "value": "archetype"
        },
        "level": {
            "value": 2
        },
        "location": "",
        "prerequisites": {
            "value": [
                {
                    "value": "ability to cast spells"
                }
            ]
        },
        "rules": [
            {
                "key": "ActiveEffectLike",
                "mode": "add",
                "path": "data.resources.focus.max",
                "value": 1
            }
        ],
        "source": {
            "value": ""
        },
        "traits": {
            "custom": "",
            "rarity": "uncommon",
            "value": [
                "archetype",
                "dedication"
            ]
        }
    },
    "effects": [],
    "flags": {},
    "img": "systems/pf2e/icons/features/feats/feats.webp",
    "name": "Shadowcaster Dedication",
    "type": "feat"
}
