{
    "_id": "1AgirzUGkyDdmENy",
    "data": {
        "actionCategory": {
            "value": ""
        },
        "actionType": {
            "value": "passive"
        },
        "actions": {
            "value": null
        },
        "description": {
            "value": "<p>You dedicate yourself to the shadows. Your coloring becomes gray and gloomy, your senses adjust to the darkness, and you can sneak through darkness with ease.</p>\n<p>You gain greater darkvision. You also gain a +2 circumstance bonus to Stealth checks when you are within dim light or darkness.</p>\n<p><strong>Special</strong> You can't select another dedication feat until you have gained two other feats from the shadowdancer archetype.</p>"
        },
        "featType": {
            "value": "archetype"
        },
        "level": {
            "value": 8
        },
        "location": "",
        "prerequisites": {
            "value": [
                {
                    "value": "master in Stealth"
                },
                {
                    "value": "expert in Performance"
                }
            ]
        },
        "rules": [
            {
                "key": "FlatModifier",
                "label": "in dim light or darkness (Shadowdancer)",
                "predicate": {
                    "any": [
                        "self:dimLight",
                        "self:darkness"
                    ]
                },
                "selector": "stealth",
                "type": "circumstance",
                "value": 2
            },
            {
                "key": "Sense",
                "selector": "greaterDarkvision"
            }
        ],
        "source": {
            "value": "Pathfinder Advanced Player's Guide"
        },
        "traits": {
            "custom": "",
            "rarity": "common",
            "value": [
                "archetype",
                "dedication"
            ]
        }
    },
    "effects": [],
    "flags": {},
    "img": "systems/pf2e/icons/features/feats/feats.webp",
    "name": "Shadowdancer Dedication",
    "type": "feat"
}
