{
    "_id": "N16lctDPZpvk9Khq",
    "data": {
        "actionCategory": {
            "value": ""
        },
        "actionType": {
            "value": "passive"
        },
        "actions": {
            "value": null
        },
        "description": {
            "value": "<p>You gain the @Compendium[pf2e.classfeatures.Sneak Attack]{Sneak Attack} class feature, except you deal [[/r {1d6}[precision]]]{1d6 precision damage} regardless of your level.</p>\n<p>Sneak attack from multiple sources isn't cumulative. If you have sneak attack from more than one source, use only the highest number of dice when you sneak attack rather than adding the amounts together.</p>"
        },
        "featType": {
            "value": "archetype"
        },
        "level": {
            "value": 10
        },
        "location": "",
        "prerequisites": {
            "value": [
                {
                    "value": "Shadowdancer Dedication"
                }
            ]
        },
        "rules": [
            {
                "category": "precision",
                "diceNumber": 1,
                "dieSize": "d6",
                "key": "DamageDice",
                "predicate": {
                    "all": [
                        "target:condition:flat-footed"
                    ],
                    "any": [
                        "finesse",
                        "agile",
                        "ranged"
                    ]
                },
                "selector": "strike-damage"
            },
            {
                "key": "GrantItem",
                "uuid": "Compendium.pf2e.classfeatures.Sneak Attack"
            }
        ],
        "source": {
            "value": "Pathfinder Advanced Player's Guide"
        },
        "traits": {
            "custom": "",
            "rarity": "common",
            "value": [
                "archetype"
            ]
        }
    },
    "effects": [],
    "flags": {},
    "img": "systems/pf2e/icons/features/feats/feats.webp",
    "name": "Shadow Sneak Attack",
    "type": "feat"
}
