{
    "_id": "pfBVx5xBfwKd1iVL",
    "data": {
        "actionCategory": {
            "value": ""
        },
        "actionType": {
            "value": "passive"
        },
        "actions": {
            "value": null
        },
        "description": {
            "value": "<p>You're familiar with the danger that lingering spirits can pose to an unwary adventurer, and you're particularly attuned to their presence. Even if you aren't Searching in exploration mode, you can attempt a check to find haunts that normally require you to Search for them. You still need to meet any other requirements to find a particular haunt.</p>"
        },
        "featType": {
            "value": "archetype"
        },
        "level": {
            "value": 4
        },
        "prerequisites": {
            "value": [
                {
                    "value": "Pathfinder Agent Dedication"
                }
            ]
        },
        "rules": [],
        "source": {
            "value": "Pathfinder Lost Omens: Pathfinder Society Guide"
        },
        "traits": {
            "custom": "",
            "rarity": "common",
            "value": [
                "archetype"
            ]
        }
    },
    "effects": [],
    "flags": {},
    "img": "systems/pf2e/icons/features/feats/feats.webp",
    "name": "Spiritual Explorer",
    "type": "feat"
}
