{
    "_id": "8bMmGBO6gsMfWZk3",
    "data": {
        "actionCategory": {
            "value": ""
        },
        "actionType": {
            "value": "passive"
        },
        "actions": {
            "value": null
        },
        "description": {
            "value": "<p>The focused power of your flurry threatens to overwhelm your opponent. When you target the same creature with two Strikes from your @Compendium[pf2e.actionspf2e.Flurry of Blows]{Flurry of Blows}, you can try to stun the creature. If either Strike hits and deals damage, the target must succeed at a Fortitude save against your class DC or be @Compendium[pf2e.conditionitems.Stunned]{Stunned 1} (or @Compendium[pf2e.conditionitems.Stunned]{Stunned 3} on a critical failure). This is an incapacitation effect.</p>"
        },
        "featType": {
            "value": "class"
        },
        "level": {
            "value": 2
        },
        "location": "",
        "prerequisites": {
            "value": [
                {
                    "value": "Flurry of Blows"
                }
            ]
        },
        "rules": [
            {
                "domain": "damage-roll",
                "key": "RollOption",
                "option": "stunningFist",
                "toggleable": true
            },
            {
                "key": "Note",
                "predicate": {
                    "all": [
                        "stunningFist"
                    ]
                },
                "selector": "strike-damage",
                "text": "<p class='compact-text'><strong>{item|name}</strong> The target must succeed at a @Check[type:fortitude|dc:resolve(@actor.data.data.attributes.classDC.value)|traits:incapacitation] save against your class DC or be @Compendium[pf2e.conditionitems.Stunned]{Stunned 1} (or @Compendium[pf2e.conditionitems.Stunned]{Stunned 3} on a critical failure).</p>"
            }
        ],
        "source": {
            "value": "Pathfinder Core Rulebook"
        },
        "traits": {
            "custom": "",
            "rarity": "common",
            "value": [
                "monk"
            ]
        }
    },
    "effects": [],
    "flags": {},
    "img": "systems/pf2e/icons/features/feats/feats.webp",
    "name": "Stunning Fist",
    "type": "feat"
}
