{
    "_id": "9CXQhg4YprPhqzoL",
    "data": {
        "actionCategory": {
            "value": ""
        },
        "actionType": {
            "value": "action"
        },
        "actions": {
            "value": 1
        },
        "description": {
            "value": "<p>You tumble around your foes, expertly avoiding their reactions. Stride up to half your Speed and roll an Acrobatics check. Compare the result to the Reflex DC of each foe whose reach you began in or enter during the movement, in sequence.</p>\n<hr />\n<p><strong>Critical Success</strong> This movement doesn't trigger reactions from the foe, the foe is @Compendium[pf2e.conditionitems.Flat-Footed]{Flat-Footed} to you until the end of your turn,</p>\n<p>and you gain Panache.</p>\n<p><strong>Success</strong> This movement doesn't trigger reactions from the foe, and you gain panache.</p>\n<p><strong>Critical Failure</strong> Your movement immediately stops when you enter the creature's reach; if you began in the creature's</p>\n<p>reach, you don't move.</p>"
        },
        "featType": {
            "value": "class"
        },
        "level": {
            "value": 6
        },
        "location": "",
        "prerequisites": {
            "value": []
        },
        "rules": [],
        "source": {
            "value": "Pathfinder Advanced Player's Guide"
        },
        "traits": {
            "custom": "",
            "rarity": "common",
            "value": [
                "swashbuckler"
            ]
        }
    },
    "effects": [],
    "flags": {},
    "img": "systems/pf2e/icons/features/feats/feats.webp",
    "name": "Vexing Tumble",
    "type": "feat"
}
