{
    "_id": "lkl5QaDb1mlSD7SC",
    "data": {
        "actionCategory": {
            "value": ""
        },
        "actionType": {
            "value": "passive"
        },
        "actions": {
            "value": null
        },
        "description": {
            "value": "<p>You've found a way to use a hodgepodge combination of devices to enhance your visual abilities in every situation. You gain darkvision and low-light vision, and you can see @Compendium[pf2e.conditionitems.Invisible]{Invisible} creatures and objects as translucent shapes, though these shapes are indistinct enough to be @Compendium[pf2e.conditionitems.Concealed]{Concealed} to you.</p>\n<p>If an effect would give you the @Compendium[pf2e.conditionitems.Blinded]{Blinded} condition, the effect must attempt a counteract check against your class DC, with your counteract level equaling half your level, rounded up. On a failed counteract check, you aren't blinded-your various devices are able to compensate.</p>"
        },
        "featType": {
            "value": "class"
        },
        "level": {
            "value": 6
        },
        "location": "",
        "prerequisites": {
            "value": []
        },
        "rules": [],
        "source": {
            "value": ""
        },
        "traits": {
            "custom": "",
            "rarity": "common",
            "value": [
                "inventor"
            ]
        }
    },
    "effects": [],
    "flags": {},
    "img": "systems/pf2e/icons/default-icons/feats.webp",
    "name": "Visual Fidelity",
    "type": "feat"
}
