{
    "_id": "PpkOZVoHkBZUmddx",
    "data": {
        "description": {
            "value": "<p>You invoke all things that seep and ooze, your body dissolving into a thick slurry and then reconstituting itself into a Medium ooze battle form. When you first cast this spell, choose black pudding, gelatinous cube, gray ooze, or ochre jelly. While in this form, you gain the ooze trait. You can Dismiss the spell. You gain the following statistics and abilities regardless of which battle form you choose:</p>\n<ul>\n<li>AC = 7 + your level. Ignore your armor's check penalty and Speed reduction.</li>\n<li>20 temporary Hit Points.</li>\n<li>You are immune to critical hits, precision damage, and visual effects.</li>\n<li>Resistance 5 to acid, piercing, and slashing damage.</li>\n<li>No vision and motion sense 30 feet. You can sense nearby motion through vibration and air movement as a precise sense.</li>\n<li>One or more unarmed melee attacks specific to the battle form you choose, which are the only attacks you can use. You're trained with them. Your attack modifier is +14, and you use the listed damage. These attacks are Strength based (for the purpose of the enfeebled condition, for example). If your unarmed attack modifier is higher, you can use it instead.</li>\n<li>Athletics modifier of +14, unless your own is higher.</li>\n</ul>\n<p>You also gain specific abilities based on the ooze:</p>\n<ul>\n<li><strong>Ochre Jelly</strong> Speed 15 feet, climb 10 feet; resistance 5 to electricity;\n<ul>\n<li><strong>Melee</strong> <span class=\"pf2-icon\">1</span> pseudopod, <strong>Damage</strong> [[/r {1d8+5}[bludgeoning]]]{1d8+5 bludgeoning} and [[/r {1d8}[acid]]]{1d8 acid}, and you can spend an action after a hit to Grab the target.</li>\n</ul>\n</li>\n</ul>\n<hr />\n<p><strong>Heightened (4th)</strong> Your battle form is Large, and your attacks have 10-foot reach. You must have enough space to expand into or the spell is lost. You instead gain 30 temporary HP; resistance 7 to acid, piercing, and slashing; attack modifier +16; damage bonus +9; and Athletics +16. Your motion sense has a range of 40 feet.</p>\n<p><strong>Heightened (5th)</strong> Your battle form is Huge, and your attacks have 15-foot reach. You must have enough space to expand into or the spell is lost. You instead gain 40 temporary HP; resistance 10 to acid, piercing, and slashing; attack modifier +18; damage bonus +6 and double damage dice; and Athletics +20. Your motion sense has a range of 60 feet.</p>\n<p><strong>Heightened (8th)</strong> Your battle form is Gargantuan (20-foot- by-20-foot space), and your attacks have 20-foot reach. You must have enough space to expand into or the spell is lost. You instead gain 60 temporary HP; resistance 12 to acid, piercing, and slashing; attack modifier +28; damage bonus +13 and double damage dice; and Athletics +29. Your motion sense has a range of 60 feet.</p>"
        },
        "duration": {
            "expiry": "turn-start",
            "sustained": false,
            "unit": "minutes",
            "value": 1
        },
        "level": {
            "value": 3
        },
        "rules": [
            {
                "key": "BattleForm",
                "overrides": {
                    "armorClass": {
                        "modifier": "7 + @actor.level"
                    },
                    "senses": {
                        "motionsense": {
                            "acuity": "precise",
                            "range": 30
                        }
                    },
                    "speeds": {
                        "climb": 10,
                        "land": 15
                    },
                    "strikes": {
                        "pseudopod": {
                            "category": "unarmed",
                            "damage": {
                                "damageType": "bludgeoning",
                                "dice": 1,
                                "die": "d8"
                            },
                            "group": "brawling",
                            "traits": [
                                "unarmed"
                            ]
                        }
                    },
                    "traits": [
                        "ooze"
                    ]
                },
                "value": {
                    "brackets": [
                        {
                            "end": 3,
                            "start": 3,
                            "value": {
                                "size": "med",
                                "skills": {
                                    "ath": {
                                        "modifier": 14
                                    }
                                },
                                "strikes": {
                                    "pseudopod": {
                                        "damage": {
                                            "modifier": 5
                                        },
                                        "modifier": 14
                                    }
                                },
                                "tempHP": 20
                            }
                        },
                        {
                            "end": 4,
                            "start": 4,
                            "value": {
                                "senses": {
                                    "motionsense": {
                                        "range": 40
                                    }
                                },
                                "size": "lg",
                                "skills": {
                                    "ath": {
                                        "modifier": 16
                                    }
                                },
                                "strikes": {
                                    "pseudopod": {
                                        "damage": {
                                            "modifier": 9,
                                            "traits": [
                                                "unarmed",
                                                "reach-10"
                                            ]
                                        },
                                        "modifier": 16
                                    }
                                },
                                "tempHP": 30
                            }
                        },
                        {
                            "end": 7,
                            "start": 5,
                            "value": {
                                "senses": {
                                    "motionsense": {
                                        "range": 60
                                    }
                                },
                                "size": "huge",
                                "skills": {
                                    "ath": {
                                        "modifier": 20
                                    }
                                },
                                "strikes": {
                                    "pseudopod": {
                                        "damage": {
                                            "dice": 2,
                                            "modifier": 6,
                                            "traits": [
                                                "unarmed",
                                                "reach-15"
                                            ]
                                        },
                                        "modifier": 18
                                    }
                                },
                                "tempHP": 40
                            }
                        },
                        {
                            "start": 8,
                            "value": {
                                "senses": {
                                    "motionsense": {
                                        "range": 60
                                    }
                                },
                                "size": "grg",
                                "skills": {
                                    "ath": {
                                        "modifier": 29
                                    }
                                },
                                "strikes": {
                                    "pseudopod": {
                                        "damage": {
                                            "dice": 2,
                                            "modifier": 13,
                                            "traits": [
                                                "unarmed",
                                                "reach-20"
                                            ]
                                        },
                                        "modifier": 28
                                    }
                                },
                                "tempHP": 60
                            }
                        }
                    ],
                    "field": "item|data.level.value"
                }
            },
            {
                "damageType": "acid",
                "dieSize": "d8",
                "key": "DamageDice",
                "predicate": {
                    "all": [
                        "battle-form"
                    ]
                },
                "selector": "strike-damage",
                "value": {
                    "brackets": [
                        {
                            "end": 4,
                            "start": 3,
                            "value": {
                                "diceNumber": 1
                            }
                        },
                        {
                            "start": 5,
                            "value": {
                                "diceNumber": 2
                            }
                        }
                    ],
                    "field": "item|data.level.value"
                }
            },
            {
                "key": "Note",
                "predicate": {
                    "all": [
                        "battle-form"
                    ]
                },
                "selector": "strike-damage",
                "text": "<p class='compact-text'><strong>Ooze Form (Ochre Jelly)</strong> You can spend an action after a hit to @Compendium[pf2e.bestiary-ability-glossary-srd.Grab]{Grab} the target</p>"
            },
            {
                "key": "ActiveEffectLike",
                "mode": "override",
                "path": "flags.pf2e.disableABP",
                "priority": 10,
                "value": true
            }
        ],
        "source": {
            "value": ""
        },
        "start": {
            "initiative": null,
            "value": 0
        },
        "target": null,
        "tokenIcon": {
            "show": true
        },
        "traits": {
            "custom": "",
            "rarity": "common",
            "value": []
        }
    },
    "effects": [],
    "flags": {},
    "img": "systems/pf2e/icons/spells/ooze-form.webp",
    "name": "Spell Effect: Ooze Form (Ochre Jelly)",
    "type": "effect"
}
