{
    "_id": "FmiOJ9HEdCBDB89z",
    "data": {
        "attributes": {
            "ac": {
                "value": 36
            },
            "hardness": 30,
            "hasHealth": true,
            "hp": {
                "details": "<strong>Panel Hardness</strong> 18; <strong>Panel HP</strong> 88 (BT 44); <strong>Resistances</strong> cold 15",
                "max": 120,
                "temp": 0,
                "tempmax": 0,
                "value": 120
            },
            "stealth": {
                "details": "<p>(master) or DC 38 (master) to spot the trap's control panel</p>",
                "value": 26
            }
        },
        "creatureType": "",
        "details": {
            "description": "<p>Four large flaming chandeliers swing wildly around the room.</p>",
            "disable": "<p>DC 36 Thievery (master) to disable a chandelier or <i>dispel magic</i> (8th level; counteract DC 33) to permanently drain the magic from a chandelier. Any amount of cold damage that overcomes a chandelier's cold resistance extinguishes its flames and removes its persistent fire damage and flame dart attack. DC 41 Thievery (legendary) to disable the entire trap from the hidden control panel in the southeast corner of the room.</p>",
            "isComplex": true,
            "level": {
                "value": 15
            },
            "reset": "<p>The trap deactivates and resets 1 minute after there are no living creatures remaining in the room.</p>",
            "routine": "<p>(4 actions) For every chandelier disabled, the trap's actions are reduced by 1. For each of the trap's actions, a different chandelier attacks a random creature in the room. A chandelier uses its swinging chandelier attack if it can, but it can't make melee attacks against creatures in the cage, the closet, or the gap between the two double doors leading into the vault. Against a creature it can't reach with a melee attack, it uses a flame dart attack instead. The trap doesn't take multiple attack penalties.</p>"
        },
        "saves": {
            "fortitude": {
                "saveDetail": "",
                "value": 27
            },
            "reflex": {
                "saveDetail": "",
                "value": 22
            },
            "will": {
                "saveDetail": "",
                "value": 0
            }
        },
        "source": {
            "value": "Pathfinder #160: Assault on Hunting Lodge Seven"
        },
        "statusEffects": [],
        "traits": {
            "ci": [],
            "di": {
                "custom": "",
                "selected": {},
                "value": [
                    "critical-hits",
                    "object-immunities",
                    "precision"
                ]
            },
            "dr": [],
            "dv": [],
            "rarity": "common",
            "size": {
                "value": "med"
            },
            "traits": {
                "custom": "",
                "value": [
                    "magical",
                    "mechanical"
                ]
            }
        }
    },
    "effects": [],
    "flags": {},
    "img": "systems/pf2e/icons/default-icons/hazard.svg",
    "items": [
        {
            "_id": "wGuVhWBsG7ERdKlr",
            "data": {
                "actionCategory": {
                    "value": "offensive"
                },
                "actionType": {
                    "value": "reaction"
                },
                "actions": {
                    "value": null
                },
                "description": {
                    "value": "<p data-visibility=\"gm\"><strong>Trigger</strong> A creature touches the cage door, the closet door, or any wooden stand</p>\n<p><strong>Effect</strong> Both double doors leading out of the room shut and lock; while the trap is active, the key doesn't work to open these doors (although their locks can be picked normally). The chandeliers drop several feet on elongated chains, allowing them to swing around the room. The closest chandelier to the triggering creature makes a swinging chandelier Strike against it. The trap then rolls initiative.</p>"
                },
                "requirements": {
                    "value": ""
                },
                "rules": [],
                "slug": null,
                "source": {
                    "value": ""
                },
                "traits": {
                    "custom": "",
                    "rarity": "common",
                    "value": [
                        "occult",
                        "transmutation"
                    ]
                },
                "trigger": {
                    "value": ""
                },
                "weapon": {
                    "value": ""
                }
            },
            "effects": [],
            "flags": {},
            "img": "systems/pf2e/icons/actions/Reaction.webp",
            "name": "Extending Chandeliers",
            "sort": 100000,
            "type": "action"
        },
        {
            "_id": "5aBlY3dBYmIMAZwP",
            "data": {
                "attack": {
                    "value": ""
                },
                "attackEffects": {
                    "custom": "",
                    "value": []
                },
                "bonus": {
                    "value": 35
                },
                "damageRolls": {
                    "0": {
                        "damage": "3d12+25",
                        "damageType": "bludgeoning"
                    }
                },
                "description": {
                    "value": "<p>Plus [[/r {4d6}[persistent,bleed]]] @Compendium[pf2e.conditionitems.Persistent Damage]{Persistent Bleed Damage}</p>"
                },
                "rules": [],
                "slug": null,
                "source": {
                    "value": ""
                },
                "traits": {
                    "custom": "",
                    "rarity": "common",
                    "value": []
                },
                "weaponType": {
                    "value": "melee"
                }
            },
            "effects": [],
            "flags": {},
            "img": "systems/pf2e/icons/default-icons/melee.svg",
            "name": "swinging chandelier",
            "sort": 200000,
            "type": "melee"
        },
        {
            "_id": "BrOfryWmR4ITLzIV",
            "data": {
                "attack": {
                    "value": ""
                },
                "attackEffects": {
                    "custom": "",
                    "value": []
                },
                "bonus": {
                    "value": 32
                },
                "damageRolls": {
                    "eg95m1xhqhdx40oeknagx9": {
                        "damage": "4d6 persistent",
                        "damageType": "fire"
                    },
                    "mv4bx5ap3xafys0c84hj2": {
                        "damage": "4d8+20",
                        "damageType": "fire"
                    }
                },
                "description": {
                    "value": ""
                },
                "rules": [],
                "slug": null,
                "source": {
                    "value": ""
                },
                "traits": {
                    "custom": "",
                    "rarity": "common",
                    "value": [
                        "range-increment-40"
                    ]
                },
                "weaponType": {
                    "value": "ranged"
                }
            },
            "effects": [],
            "flags": {},
            "img": "systems/pf2e/icons/default-icons/melee.svg",
            "name": "flame dart",
            "sort": 300000,
            "type": "melee"
        }
    ],
    "name": "Burning Chandelier Trap",
    "token": {
        "disposition": 0,
        "height": 1,
        "img": "systems/pf2e/icons/default-icons/hazard.svg",
        "name": "Burning Chandelier Trap",
        "width": 1
    },
    "type": "hazard"
}
