{
    "_id": "xxkszluN9icAiTO4",
    "data": {
        "actionCategory": {
            "value": ""
        },
        "actionType": {
            "value": "passive"
        },
        "actions": {
            "value": null
        },
        "description": {
            "value": "<p>You're trained in light and medium armor, and you have expert proficiency in Fortitude saves.</p>\n<p>You gain the @Compendium[pf2e.feats-srd.Shield Block]{Shield Block} general feat, a reaction to reduce damage with a shield.</p>\n<p>If your deity's weapon is simple, you gain the @Compendium[pf2e.feats-srd.Deadly Simplicity]{Deadly Simplicity} cleric feat.</p>\n<p>At 13th level, if you gain the divine defense class feature, you also gain expert proficiency in light and medium armor.</p>"
        },
        "featType": {
            "value": "classfeature"
        },
        "level": {
            "value": 1
        },
        "location": "",
        "prerequisites": {
            "value": []
        },
        "rules": [
            {
                "key": "ActiveEffectLike",
                "mode": "upgrade",
                "path": "data.martial.medium.rank",
                "value": 1
            },
            {
                "key": "ActiveEffectLike",
                "mode": "upgrade",
                "path": "data.martial.light.rank",
                "value": 1
            },
            {
                "key": "ActiveEffectLike",
                "mode": "upgrade",
                "path": "data.saves.fortitude.rank",
                "value": 2
            },
            {
                "key": "GrantItem",
                "uuid": "Compendium.pf2e.feats-srd.Shield Block"
            }
        ],
        "source": {
            "value": ""
        },
        "traits": {
            "custom": "",
            "rarity": "common",
            "value": [
                "cleric"
            ]
        }
    },
    "effects": [],
    "flags": {},
    "img": "systems/pf2e/icons/features/classes/warpriest.webp",
    "name": "First Doctrine (Warpriest)",
    "type": "feat"
}
