{
    "_id": "MEwvBnT2VsO5lQ6I",
    "data": {
        "actionCategory": {
            "value": ""
        },
        "actionType": {
            "value": "passive"
        },
        "actions": {
            "value": null
        },
        "description": {
            "value": "<p>You learn an incredible discovery that advances your understanding of your field.</p>"
        },
        "featType": {
            "value": "classfeature"
        },
        "level": {
            "value": 13
        },
        "location": "",
        "prerequisites": {
            "value": []
        },
        "rules": [
            {
                "key": "GrantItem",
                "predicate": {
                    "all": [
                        "feature:bomber"
                    ]
                },
                "uuid": "Compendium.pf2e.classfeatures.Greater Field Discovery (Bomber)"
            },
            {
                "key": "GrantItem",
                "predicate": {
                    "all": [
                        "feature:chirurgeon"
                    ]
                },
                "uuid": "Compendium.pf2e.classfeatures.Greater Field Discovery (Chirurgeon)"
            },
            {
                "key": "GrantItem",
                "predicate": {
                    "all": [
                        "feature:mutagenist"
                    ]
                },
                "uuid": "Compendium.pf2e.classfeatures.Greater Field Discovery (Mutagenist)"
            },
            {
                "key": "GrantItem",
                "predicate": {
                    "all": [
                        "feature:toxicologist"
                    ]
                },
                "uuid": "Compendium.pf2e.classfeatures.Greater Field Discovery (Toxicologist)"
            }
        ],
        "source": {
            "value": "Pathfinder Core Rulebook"
        },
        "traits": {
            "custom": "",
            "rarity": "common",
            "value": [
                "alchemist"
            ]
        }
    },
    "effects": [],
    "flags": {},
    "img": "systems/pf2e/icons/features/classes/choice-feature.webp",
    "name": "Greater Field Discovery",
    "type": "feat"
}
