{
    "_id": "FTeIs1Z1Qeli4BIF",
    "data": {
        "actionCategory": {
            "value": ""
        },
        "actionType": {
            "value": "passive"
        },
        "actions": {
            "value": null
        },
        "description": {
            "value": "<p>Your extensive physical training and carefully chosen magic combine to form a unique and dangerous fighting style that's more than the sum of its parts. You choose one field of hybrid study to represent your particular combination of skills. Your hybrid study gives you a special ability, usually tied to @Compendium[pf2e.classfeatures.Spellstrike]{Spellstrike} or @Compendium[pf2e.classfeatures.Arcane Cascade]{Arcane Cascade}, and it determines your initial conflux spell. The hybrid studies presented in this book are as follows.</p>\n<ul>\n<li>@Compendium[pf2e.classfeatures.Inexorable Iron]{Inexorable Iron}</li>\n<li>@Compendium[pf2e.classfeatures.Laughing Shadow]{Laughing Shadow}</li>\n<li>@Compendium[pf2e.classfeatures.Sparkling Targe]{Sparkling Targe}</li>\n<li>@Compendium[pf2e.classfeatures.Starlit Span]{Starlit Span}</li>\n<li>@Compendium[pf2e.classfeatures.Twisting Tree]{Twisting Tree}</li>\n</ul>"
        },
        "featType": {
            "value": "classfeature"
        },
        "level": {
            "value": 1
        },
        "location": "",
        "prerequisites": {
            "value": []
        },
        "rules": [
            {
                "adjustName": false,
                "allowedDrops": {
                    "all": [
                        "item:level:1",
                        "item:trait:magus",
                        "item:type:feature"
                    ],
                    "label": "level 1 magus class feature"
                },
                "choices": [
                    {
                        "value": "Compendium.pf2e.classfeatures.Inexorable Iron"
                    },
                    {
                        "value": "Compendium.pf2e.classfeatures.Laughing Shadow"
                    },
                    {
                        "value": "Compendium.pf2e.classfeatures.Sparkling Targe"
                    },
                    {
                        "value": "Compendium.pf2e.classfeatures.Starlit Span"
                    },
                    {
                        "value": "Compendium.pf2e.classfeatures.Twisting Tree"
                    }
                ],
                "flag": "hybridStudyChoice",
                "key": "ChoiceSet",
                "prompt": "Select a hybrid study."
            },
            {
                "key": "GrantItem",
                "uuid": "{item|flags.pf2e.rulesSelections.hybridStudyChoice}"
            }
        ],
        "source": {
            "value": ""
        },
        "traits": {
            "custom": "",
            "rarity": "common",
            "value": [
                "magus"
            ]
        }
    },
    "effects": [],
    "flags": {},
    "img": "systems/pf2e/icons/features/classes/choice-feature.webp",
    "name": "Hybrid Study",
    "type": "feat"
}
