{
    "_id": "u4nlOzPj2WHkIj9l",
    "data": {
        "actionCategory": {
            "value": ""
        },
        "actionType": {
            "value": "passive"
        },
        "actions": {
            "value": null
        },
        "description": {
            "value": "<p>You revere plants and the bounty of nature, acting as both a gardener and warden for the wilderness, teaching sustainable techniques to communities, and helping areas regrow after disasters or negligent humanoid expansion. You are trained in Diplomacy.</p>\n<p>You also gain the @Compendium[pf2e.feats-srd.Leshy Familiar]{Leshy Familiar} druid feat. You gain the <em>@Compendium[pf2e.spells-srd.Goodberry]{Goodberry}</em> order spell, and you increase the number of Focus Points in your focus pool by 1. Committing wanton cruelty to plants or killing plants unnecessarily is anathema to your order.</p>\n<p>(This doesn't prevent you from defending yourself against plants or harvesting them when necessary for survival.)</p>"
        },
        "featType": {
            "value": "classfeature"
        },
        "level": {
            "value": 1
        },
        "location": "",
        "prerequisites": {
            "value": []
        },
        "rules": [
            {
                "key": "ActiveEffectLike",
                "mode": "upgrade",
                "path": "data.skills.dip.rank",
                "value": 1
            },
            {
                "key": "ActiveEffectLike",
                "mode": "add",
                "path": "data.resources.focus.max",
                "predicate": {
                    "all": [
                        "class:druid"
                    ]
                },
                "value": 1
            },
            {
                "key": "GrantItem",
                "predicate": {
                    "all": [
                        "class:druid"
                    ]
                },
                "uuid": "Compendium.pf2e.feats-srd.Leshy Familiar"
            }
        ],
        "source": {
            "value": "Pathfinder Core Rulebook"
        },
        "traits": {
            "custom": "",
            "rarity": "common",
            "value": [
                "druid"
            ]
        }
    },
    "effects": [],
    "flags": {},
    "img": "systems/pf2e/icons/features/classes/leaf.webp",
    "name": "Leaf Order",
    "type": "feat"
}
