{
    "_id": "FuOHRoEU8nHOXZnk",
    "data": {
        "actionCategory": {
            "value": ""
        },
        "actionType": {
            "value": "passive"
        },
        "actions": {
            "value": null
        },
        "description": {
            "value": "<p>You gain the <em>@Compendium[pf2e.spells-srd.Elemental Betrayal]{Elemental Betrayal}</em> hex. Your familiar learns your choice of <em>@Compendium[pf2e.spells-srd.Burning Hands]{Burning Hands}</em>, <em>@Compendium[pf2e.spells-srd.Air Bubble]{Air Bubble}</em>, <em>@Compendium[pf2e.spells-srd.Hydraulic Push]{Hydraulic Push}</em>, or <em>@Compendium[pf2e.spells-srd.Pummeling Rubble]{Pummeling Rubble}</em>.</p>"
        },
        "featType": {
            "value": "classfeature"
        },
        "level": {
            "value": 2
        },
        "location": "",
        "prerequisites": {
            "value": []
        },
        "rules": [],
        "source": {
            "value": "Pathfinder Advanced Player's Guide"
        },
        "traits": {
            "custom": "",
            "rarity": "common",
            "value": [
                "witch"
            ]
        }
    },
    "effects": [],
    "flags": {},
    "img": "systems/pf2e/icons/spells/elemental-betrayal.webp",
    "name": "Lesson of Elements",
    "type": "feat"
}
