{
    "_id": "HYTaibaCGE85rhbZ",
    "data": {
        "actionCategory": {
            "value": ""
        },
        "actionType": {
            "value": "passive"
        },
        "actions": {
            "value": null
        },
        "description": {
            "value": "<p>You draw untold power from runes, sometimes called sin magic. You associate with one of the seven vices, also known as the seven rewards of rule: envy (abjuration), gluttony (necromancy), greed (transmutation), lust (enchantment), pride (illusion), sloth (conjuration), and wrath (evocation). Studying these techniques often tempts you with the associated sin. While leaning into it could corrupt you, it might make you more powerful. If you choose this class archetype, you must select @Compendium[pf2e.feats-srd.Runelord Dedication]{Runelord Dedication} as your 2nd-level class feat.</p>\n<p><strong>Prerequisites</strong> You must be a wizard specializing in one of the seven schools other than divination.</p>\n<p><strong>Runelord Adjustments</strong> In addition to the normal school spell for your chosen school of magic, you learn the initial rune spell associated with your school, with its school adjusted to your chosen school of magic if it wasn't from that school already. Your pool of Focus Points increases to 2 Focus Points. At 8th level, you also learn the advanced rune spell associated with your school, also adjusting its school to match your chosen school of magic if it wasn't already, and your pool of Focus Points increases to 3 Focus Points.</p>\n<p>You can Refocus by indulging in your school's sin in lieu of studying your spellbook. As you become more powerful, your indulgence grows. At 12th level, if you indulge in your sin to @Compendium[pf2e.actionspf2e.Refocus]{Refocus}, if you have spent at least 2 Focus Points since the last time you Refocused, you recover 2 Focus Points when you Refocus instead of 1. At 18th level, if you indulge in your sin to Refocus, if you have spent at least 3 Focus Points since the last time you Refocused, you recover 3 Focus Points when you Refocus instead of 1.</p>\n<p>You are trained in martial polearms. At 11th level, if you gain @Compendium[pf2e.classfeatures.Weapon Expertise]{Weapon Expertise}, you become an expert in martial polearms.</p>\n<p>Finally, you lose the ability to prepare or cast any spell from your school's prohibited schools. You remove all spells of those schools from your spell list, meaning you can't even activate scrolls or wands of such spells.</p>\n<p><strong>Additional Feats</strong> 2nd @Compendium[pf2e.feats-srd.Tattoo Artist]{Tattoo Artist}</p>"
        },
        "featType": {
            "value": "classfeature"
        },
        "level": {
            "value": 1
        },
        "location": "",
        "prerequisites": {
            "value": [
                {
                    "value": "You must be a wizard specializing in one of the seven schools other than divination"
                }
            ]
        },
        "rules": [
            {
                "key": "ActiveEffectLike",
                "mode": "upgrade",
                "path": "data.resources.focus.max",
                "priority": 10,
                "value": {
                    "brackets": [
                        {
                            "end": 7,
                            "start": 1,
                            "value": 2
                        },
                        {
                            "end": 20,
                            "start": 7,
                            "value": 3
                        }
                    ]
                }
            },
            {
                "key": "ActiveEffectLike",
                "mode": "upgrade",
                "path": "data.martial.weapon-group-polearm.rank",
                "value": {
                    "brackets": [
                        {
                            "end": 10,
                            "start": 1,
                            "value": 1
                        },
                        {
                            "end": 20,
                            "start": 11,
                            "value": 2
                        }
                    ]
                }
            }
        ],
        "source": {
            "value": ""
        },
        "traits": {
            "custom": "",
            "rarity": "common",
            "value": []
        }
    },
    "effects": [],
    "flags": {},
    "img": "systems/pf2e/icons/default-icons/feat.svg",
    "name": "Runelord Specialization",
    "type": "feat"
}
