{
    "_id": "QiMlJ33kNEoyh1M0",
    "data": {
        "actionCategory": {
            "value": ""
        },
        "actionType": {
            "value": "passive"
        },
        "actions": {
            "value": null
        },
        "description": {
            "value": "<p>You and your eidolon work together to remain alert to threats around you, allowing you to perceive far more together than you could individually. Your proficiency rank in Perception and your eidolon's proficiency rank in Perception increase to expert.</p>"
        },
        "featType": {
            "value": "classfeature"
        },
        "level": {
            "value": 3
        },
        "location": "",
        "prerequisites": {
            "value": []
        },
        "rules": [
            {
                "key": "ActiveEffectLike",
                "mode": "upgrade",
                "path": "data.attributes.perception.rank",
                "value": 2
            }
        ],
        "source": {
            "value": ""
        },
        "traits": {
            "custom": "",
            "rarity": "common",
            "value": [
                "summoner"
            ]
        }
    },
    "effects": [],
    "flags": {},
    "img": "systems/pf2e/icons/features/classes/shared-vigilance.webp",
    "name": "Shared Vigilance",
    "type": "feat"
}
