{
    "_id": "uQBfbNaIHdt0l2QB",
    "data": {
        "abilities": {
            "cha": {
                "mod": 3
            },
            "con": {
                "mod": 1
            },
            "dex": {
                "mod": 4
            },
            "int": {
                "mod": 3
            },
            "str": {
                "mod": 0
            },
            "wis": {
                "mod": 1
            }
        },
        "attributes": {
            "ac": {
                "details": "",
                "value": 22
            },
            "allSaves": {
                "value": ""
            },
            "hp": {
                "details": "",
                "max": 25,
                "temp": 0,
                "value": 25
            },
            "initiative": {
                "ability": "perception"
            },
            "perception": {
                "value": 9
            },
            "speed": {
                "otherSpeeds": [],
                "value": "100"
            }
        },
        "details": {
            "alignment": {
                "value": "CE"
            },
            "blurb": "",
            "creatureType": "Fey",
            "level": {
                "value": 3
            },
            "privateNotes": "",
            "publicNotes": "<p>Few creatures can match a quickling's speed. These malicious fey creatures delight in striking with blinding speed and accuracy, racing in to stab and slash at foes before scampering away for cover with maddening- even frightening-swiftness. Stories of people simply doubling over, bleeding from what appear to be spontaneously opening wounds, are often eyewitness accounts of quickling attacks.</p>\n<p>Quicklings actively hate the \"slow-paced dullards\" they encounter every day, delighting in inflicting suffering and pain on creatures they deem too sluggish to matter. While they are related to kinder fey such as brownies and pixies, quicklings care only for their own merriment. They see their own cruel pranks as the height of humor and have full confidence that their speed and invisibility will keep them safe from harm. They occasionally form gangs of up to a dozen individuals, although the group usually devolves very quickly into mayhem, as they inevitably perform increasingly deadly pranks against each other.</p>",
            "source": {
                "value": "Pathfinder Bestiary 2"
            }
        },
        "resources": {
            "focus": {
                "max": 1,
                "value": 1
            }
        },
        "saves": {
            "fortitude": {
                "saveDetail": "",
                "value": 6
            },
            "reflex": {
                "saveDetail": "",
                "value": 13
            },
            "will": {
                "saveDetail": "",
                "value": 8
            }
        },
        "traits": {
            "attitude": {
                "value": "hostile"
            },
            "ci": [],
            "di": {
                "custom": "",
                "value": []
            },
            "dr": [],
            "dv": [
                {
                    "label": "Cold Iron",
                    "type": "coldiron",
                    "value": "5"
                }
            ],
            "languages": {
                "custom": "",
                "selected": [],
                "value": [
                    "aklo",
                    "common",
                    "sylvan"
                ]
            },
            "rarity": "uncommon",
            "senses": {
                "value": "low-light vision"
            },
            "size": {
                "value": "sm"
            },
            "traits": {
                "custom": "",
                "value": [
                    "fey"
                ]
            }
        }
    },
    "effects": [],
    "flags": {},
    "img": "systems/pf2e/icons/default-icons/npc.svg",
    "items": [
        {
            "_id": "QNLWcv6w045fE1oE",
            "data": {
                "autoHeightenLevel": {
                    "value": null
                },
                "description": {
                    "value": ""
                },
                "displayLevels": {},
                "prepared": {
                    "flexible": false,
                    "value": "innate"
                },
                "proficiency": {
                    "value": 0
                },
                "rules": [],
                "showSlotlessLevels": {
                    "value": true
                },
                "showUnpreparedSpells": {
                    "value": false
                },
                "signatureSpells": {
                    "value": []
                },
                "slots": {
                    "slot0": {
                        "max": 0,
                        "prepared": [],
                        "value": 0
                    },
                    "slot1": {
                        "max": 0,
                        "prepared": [],
                        "value": 0
                    },
                    "slot10": {
                        "max": 0,
                        "prepared": [],
                        "value": 0
                    },
                    "slot11": {
                        "max": 0,
                        "prepared": [],
                        "value": 0
                    },
                    "slot2": {
                        "max": 0,
                        "prepared": [],
                        "value": 0
                    },
                    "slot3": {
                        "max": 0,
                        "prepared": [],
                        "value": 0
                    },
                    "slot4": {
                        "max": 0,
                        "prepared": [],
                        "value": 0
                    },
                    "slot5": {
                        "max": 0,
                        "prepared": [],
                        "value": 0
                    },
                    "slot6": {
                        "max": 0,
                        "prepared": [],
                        "value": 0
                    },
                    "slot7": {
                        "max": 0,
                        "prepared": [],
                        "value": 0
                    },
                    "slot8": {
                        "max": 0,
                        "prepared": [],
                        "value": 0
                    },
                    "slot9": {
                        "max": 0,
                        "prepared": [],
                        "value": 0
                    }
                },
                "slug": null,
                "source": {
                    "value": ""
                },
                "spelldc": {
                    "dc": 20,
                    "mod": 0,
                    "value": 10
                },
                "tradition": {
                    "value": "primal"
                },
                "traits": {
                    "custom": "",
                    "rarity": "common",
                    "value": []
                }
            },
            "effects": [],
            "flags": {},
            "img": "systems/pf2e/icons/default-icons/spellcastingEntry.svg",
            "name": "Primal Innate Spells",
            "sort": 100000,
            "type": "spellcastingEntry"
        },
        {
            "_id": "cVfHRPZi7XcYG3gk",
            "data": {
                "ability": {
                    "value": ""
                },
                "area": {
                    "areaType": "",
                    "value": null
                },
                "areasize": {
                    "value": ""
                },
                "autoHeightenLevel": {
                    "value": null
                },
                "category": {
                    "value": "spell"
                },
                "components": {
                    "focus": false,
                    "material": false,
                    "somatic": true,
                    "verbal": true
                },
                "cost": {
                    "value": ""
                },
                "damage": {
                    "value": {
                        "0": {
                            "type": {
                                "categories": [],
                                "value": "sonic"
                            },
                            "value": "2d10"
                        }
                    }
                },
                "description": {
                    "value": "<p>A high-frequency sonic attack shatters a nearby object. You deal 2d10 sonic damage to the object, ignoring the object's Hardness if it is 4 or lower.</p>\n<hr />\n<p><strong>Heightened (+1)</strong> The damage increases by 1d10, and the Hardness the spell ignores increases by 2.</p>"
                },
                "duration": {
                    "value": ""
                },
                "hasCounteractCheck": {
                    "value": false
                },
                "level": {
                    "value": 2
                },
                "location": {
                    "value": "QNLWcv6w045fE1oE"
                },
                "materials": {
                    "value": ""
                },
                "prepared": {
                    "value": ""
                },
                "primarycheck": {
                    "value": ""
                },
                "range": {
                    "value": "30 feet"
                },
                "rules": [],
                "save": {
                    "basic": "",
                    "value": ""
                },
                "scaling": {
                    "damage": {
                        "0": "1d10"
                    },
                    "interval": 1
                },
                "school": {
                    "value": "evocation"
                },
                "secondarycasters": {
                    "value": ""
                },
                "secondarycheck": {
                    "value": ""
                },
                "slug": "shatter",
                "source": {
                    "value": ""
                },
                "spellType": {
                    "value": "utility"
                },
                "sustained": {
                    "value": false
                },
                "target": {
                    "value": "1 unattended object"
                },
                "time": {
                    "value": "2"
                },
                "traditions": {
                    "value": [
                        "occult",
                        "primal"
                    ]
                },
                "traits": {
                    "custom": "",
                    "rarity": "common",
                    "value": [
                        "sonic"
                    ]
                }
            },
            "effects": [],
            "flags": {
                "core": {
                    "sourceId": "Compendium.pf2e.spells-srd.1xbFBQDRs0hT5xZ9"
                }
            },
            "img": "systems/pf2e/icons/spells/shatter.webp",
            "name": "Shatter",
            "sort": 200000,
            "type": "spell"
        },
        {
            "_id": "laeRdkgYSi3ibISG",
            "data": {
                "ability": {
                    "value": ""
                },
                "area": {
                    "areaType": "",
                    "value": null
                },
                "areasize": {
                    "value": ""
                },
                "autoHeightenLevel": {
                    "value": null
                },
                "category": {
                    "value": "spell"
                },
                "components": {
                    "focus": false,
                    "material": false,
                    "somatic": true,
                    "verbal": true
                },
                "cost": {
                    "value": ""
                },
                "damage": {
                    "value": {}
                },
                "description": {
                    "value": "<p>You create up to four floating lights, no two of which are more than 10 feet apart. Each sheds light like a torch. When you Sustain the Spell, you can move any number of lights up to 60 feet. Each light must remain within 120 feet of you and within 10 feet of all others, or it winks out.</p>"
                },
                "duration": {
                    "value": "sustained"
                },
                "hasCounteractCheck": {
                    "value": false
                },
                "level": {
                    "value": 1
                },
                "location": {
                    "value": "QNLWcv6w045fE1oE"
                },
                "materials": {
                    "value": ""
                },
                "prepared": {
                    "value": ""
                },
                "primarycheck": {
                    "value": ""
                },
                "range": {
                    "value": "120 feet"
                },
                "rules": [],
                "save": {
                    "basic": "",
                    "value": ""
                },
                "school": {
                    "value": "evocation"
                },
                "secondarycasters": {
                    "value": ""
                },
                "secondarycheck": {
                    "value": ""
                },
                "slug": "dancing-lights",
                "source": {
                    "value": ""
                },
                "spellType": {
                    "value": "utility"
                },
                "sustained": {
                    "value": true
                },
                "target": {
                    "value": ""
                },
                "time": {
                    "value": "2"
                },
                "traditions": {
                    "custom": "",
                    "value": [
                        "arcane",
                        "occult",
                        "primal"
                    ]
                },
                "traits": {
                    "custom": "",
                    "rarity": "common",
                    "value": [
                        "light",
                        "cantrip"
                    ]
                }
            },
            "effects": [],
            "flags": {
                "core": {
                    "sourceId": "Compendium.pf2e.spells-srd.kl2q6JvBZwed4B6v"
                }
            },
            "img": "systems/pf2e/icons/spells/dancing-lights.webp",
            "name": "Dancing Lights",
            "sort": 300000,
            "type": "spell"
        },
        {
            "_id": "aquTXQg9m3BdTV3Y",
            "data": {
                "ability": {
                    "value": ""
                },
                "area": {
                    "areaType": "",
                    "value": null
                },
                "areasize": {
                    "value": ""
                },
                "autoHeightenLevel": {
                    "value": null
                },
                "category": {
                    "value": "spell"
                },
                "components": {
                    "focus": false,
                    "material": false,
                    "somatic": true,
                    "verbal": true
                },
                "cost": {
                    "value": ""
                },
                "damage": {
                    "value": {}
                },
                "description": {
                    "value": "<p>The simplest magic does your bidding. You can perform simple magical effects for as long as you Sustain the Spell. Each time you Sustain the Spell, you can choose one of four options.</p>\n<ul>\n<li><strong>Cook</strong> Cool, warm, or flavor 1 pound of nonliving material.</li>\n<li><strong>Lift</strong> <strong>Slowly</strong> lift an unattended object of light Bulk or less 1 foot off the ground.</li>\n<li><strong>Make</strong> Create a temporary object of negligible Bulk, made of congealed magical substance. The object looks crude and artificial and is extremely fragile-it can't be used as a tool, weapon, or spell component.</li>\n<li><strong>Tidy</strong> Color, clean, or soil an object of light Bulk or less. You can affect an object of 1 Bulk with 10 rounds of concentration, and a larger object a 1 minute per Bulk.</li>\n</ul>\n<p>Prestidigitation can't deal damage or cause adverse conditions. Any actual change to an object (beyond what is noted above) persists only as long as you Sustain the Spell.</p>"
                },
                "duration": {
                    "value": "sustained"
                },
                "hasCounteractCheck": {
                    "value": false
                },
                "level": {
                    "value": 1
                },
                "location": {
                    "value": "QNLWcv6w045fE1oE"
                },
                "materials": {
                    "value": ""
                },
                "prepared": {
                    "value": ""
                },
                "primarycheck": {
                    "value": ""
                },
                "range": {
                    "value": "10 feet"
                },
                "rules": [],
                "save": {
                    "basic": "",
                    "value": ""
                },
                "school": {
                    "value": "evocation"
                },
                "secondarycasters": {
                    "value": ""
                },
                "secondarycheck": {
                    "value": ""
                },
                "slug": "prestidigitation",
                "source": {
                    "value": ""
                },
                "spellType": {
                    "value": "utility"
                },
                "sustained": {
                    "value": true
                },
                "target": {
                    "value": "1 object (cook, lift, or tidy only)"
                },
                "time": {
                    "value": "2"
                },
                "traditions": {
                    "custom": "",
                    "value": [
                        "arcane",
                        "divine",
                        "occult",
                        "primal"
                    ]
                },
                "traits": {
                    "custom": "",
                    "rarity": "common",
                    "value": [
                        "cantrip"
                    ]
                }
            },
            "effects": [],
            "flags": {
                "core": {
                    "sourceId": "Compendium.pf2e.spells-srd.Qw3fnUlaUbnn7ipC"
                }
            },
            "img": "systems/pf2e/icons/spells/prestidigitation.webp",
            "name": "Prestidigitation",
            "sort": 400000,
            "type": "spell"
        },
        {
            "_id": "bssstGAMN5DZN8Zz",
            "data": {
                "ability": {
                    "value": ""
                },
                "area": {
                    "areaType": "",
                    "value": null
                },
                "areasize": {
                    "value": ""
                },
                "autoHeightenLevel": {
                    "value": null
                },
                "category": {
                    "value": "spell"
                },
                "components": {
                    "focus": false,
                    "material": false,
                    "somatic": true,
                    "verbal": true
                },
                "cost": {
                    "value": ""
                },
                "damage": {
                    "value": {}
                },
                "description": {
                    "value": "<p>Whenever you speak or make any other sound vocally, you can make your vocalization seem to originate from somewhere else within 60 feet, and you can change that apparent location freely as you vocalize. Any creature that hears the sound can attempt to disbelieve your illusion.</p>\n<hr />\n<p><strong>Heightened (+2)</strong> The spell's duration increases to 1 hour, and you can also change the tone, quality, and other aspects of your voice. Before a creature can attempt to disbelieve your illusion, it must actively attempt a Perception check or otherwise use actions to interact with the sound.</p>"
                },
                "duration": {
                    "value": "10 minutes"
                },
                "hasCounteractCheck": {
                    "value": false
                },
                "level": {
                    "value": 1
                },
                "location": {
                    "value": "QNLWcv6w045fE1oE"
                },
                "materials": {
                    "value": ""
                },
                "prepared": {
                    "value": ""
                },
                "primarycheck": {
                    "value": ""
                },
                "range": {
                    "value": ""
                },
                "rules": [],
                "save": {
                    "basic": "",
                    "value": ""
                },
                "school": {
                    "value": "illusion"
                },
                "secondarycasters": {
                    "value": ""
                },
                "secondarycheck": {
                    "value": ""
                },
                "slug": "ventriloquism",
                "source": {
                    "value": ""
                },
                "spellType": {
                    "value": "utility"
                },
                "sustained": {
                    "value": false
                },
                "target": {
                    "value": ""
                },
                "time": {
                    "value": "2"
                },
                "traditions": {
                    "value": [
                        "arcane",
                        "divine",
                        "occult",
                        "primal"
                    ]
                },
                "traits": {
                    "custom": "",
                    "rarity": "common",
                    "value": [
                        "auditory"
                    ]
                }
            },
            "effects": [],
            "flags": {
                "core": {
                    "sourceId": "Compendium.pf2e.spells-srd.yV7Ouzaoe7DHLESI"
                }
            },
            "img": "systems/pf2e/icons/spells/ventriloquism.webp",
            "name": "Ventriloquism",
            "sort": 500000,
            "type": "spell"
        },
        {
            "_id": "FS1iX2ShhtCPk1Wr",
            "data": {
                "MAP": {
                    "value": ""
                },
                "baseItem": "shortsword",
                "bonus": {
                    "value": 0
                },
                "bonusDamage": {
                    "value": 0
                },
                "brokenThreshold": {
                    "value": 0
                },
                "category": "martial",
                "containerId": null,
                "damage": {
                    "damageType": "piercing",
                    "dice": 1,
                    "die": "d6",
                    "value": ""
                },
                "description": {
                    "value": "<p>These blades come in a variety of shapes and styles, but they are typically 2 feet long.</p>"
                },
                "equipped": {
                    "carryType": "worn",
                    "handsHeld": 0,
                    "invested": null
                },
                "equippedBulk": {
                    "value": ""
                },
                "group": "sword",
                "hardness": 0,
                "hp": {
                    "brokenThreshold": 0,
                    "max": 0,
                    "value": 0
                },
                "identification": {
                    "misidentified": {},
                    "status": "identified",
                    "unidentified": {
                        "data": {
                            "description": {
                                "value": ""
                            }
                        },
                        "img": "",
                        "name": ""
                    }
                },
                "level": {
                    "value": 0
                },
                "negateBulk": {
                    "value": "0"
                },
                "potencyRune": {
                    "value": null
                },
                "preciousMaterial": {
                    "value": ""
                },
                "preciousMaterialGrade": {
                    "value": ""
                },
                "price": {
                    "value": "9 sp"
                },
                "property1": {
                    "critDamage": "",
                    "critDamageType": "",
                    "critDice": null,
                    "critDie": "",
                    "criticalConditionType": "",
                    "criticalConditionValue": null,
                    "damageType": "",
                    "dice": null,
                    "die": "",
                    "strikeConditionType": "",
                    "strikeConditionValue": null,
                    "value": ""
                },
                "propertyRune1": {
                    "value": ""
                },
                "propertyRune2": {
                    "value": ""
                },
                "propertyRune3": {
                    "value": ""
                },
                "propertyRune4": {
                    "value": ""
                },
                "quantity": 1,
                "range": null,
                "reload": {
                    "value": ""
                },
                "rules": [],
                "size": "med",
                "slug": "shortsword",
                "source": {
                    "value": ""
                },
                "specific": {
                    "value": false
                },
                "splashDamage": {
                    "value": 0
                },
                "stackGroup": null,
                "strikingRune": {
                    "value": ""
                },
                "traits": {
                    "custom": "",
                    "rarity": "common",
                    "value": [
                        "agile",
                        "finesse",
                        "versatile-s"
                    ]
                },
                "usage": {
                    "value": "held-in-one-hand"
                },
                "weight": {
                    "value": "L"
                }
            },
            "effects": [],
            "flags": {
                "core": {
                    "sourceId": "Compendium.pf2e.equipment-srd.7tKkkF8eZ4iCLJtp"
                }
            },
            "img": "systems/pf2e/icons/equipment/weapons/shortsword.webp",
            "name": "Shortsword",
            "sort": 600000,
            "type": "weapon"
        },
        {
            "_id": "TDLmq0dVU6v9wYfK",
            "data": {
                "activation": {
                    "condition": "",
                    "cost": 0,
                    "type": ""
                },
                "autoDestroy": {
                    "_deprecated": true,
                    "value": true
                },
                "autoUse": {
                    "_deprecated": true,
                    "value": true
                },
                "baseItem": null,
                "brokenThreshold": {
                    "value": 0
                },
                "charges": {
                    "_deprecated": true,
                    "max": 1,
                    "value": 1
                },
                "consumableType": {
                    "value": "potion"
                },
                "consume": {
                    "_deprecated": true,
                    "value": ""
                },
                "containerId": null,
                "description": {
                    "value": "<p>Lethargy poison is commonly used in hit-and-run tactics by drow and others who want their victims alive; the ambusher retreats until the poison sets in and the victim falls unconscious. Further exposure to lethargy poison does not require the target to attempt additional saving throws; only failing an saving throw against an ongoing exposure can progress its stage.</p>\n<hr />\n<p><strong>Activate</strong> <span class=\"pf2-icon\">D</span> Interact (Injury)</p>\n<p><strong>Saving Throw</strong> DC 18 Fortitude</p>\n<p><strong>Maximum Duration</strong> 4 hours</p>\n<p><strong>Stage 1</strong> @Compendium[pf2e.conditionitems.Slowed]{Slowed 1} (1 round)</p>\n<p><strong>Stage 2</strong> slowed 1 (1 minute)</p>\n<p><strong>Stage 3</strong> @Compendium[pf2e.conditionitems.Unconscious]{Unconscious} with no Perception check to wake up (1 round)</p>\n<p><strong>Stage 4</strong> unconscious with no Perception check to wake up ([[/br 1d4 #hours]]{1d4 hours}).</p>"
                },
                "duration": {
                    "units": "",
                    "value": null
                },
                "equipped": {
                    "carryType": "worn",
                    "handsHeld": 0
                },
                "equippedBulk": {
                    "value": ""
                },
                "hardness": 0,
                "hp": {
                    "brokenThreshold": 0,
                    "max": 0,
                    "value": 0
                },
                "identification": {
                    "misidentified": {},
                    "status": "identified",
                    "unidentified": {
                        "data": {
                            "description": {
                                "value": ""
                            }
                        },
                        "img": "",
                        "name": ""
                    }
                },
                "level": {
                    "value": 2
                },
                "negateBulk": {
                    "value": "0"
                },
                "preciousMaterial": {
                    "value": ""
                },
                "preciousMaterialGrade": {
                    "value": ""
                },
                "price": {
                    "value": "7 gp"
                },
                "quantity": 3,
                "range": {
                    "long": null,
                    "units": "",
                    "value": null
                },
                "rules": [],
                "size": "med",
                "slug": "lethargy-poison",
                "source": {
                    "value": ""
                },
                "spell": {
                    "data": null,
                    "heightenedLevel": null
                },
                "stackGroup": null,
                "target": {
                    "type": "",
                    "units": "",
                    "value": null
                },
                "traits": {
                    "custom": "",
                    "rarity": "uncommon",
                    "value": [
                        "alchemical",
                        "conjuration",
                        "incapacitation",
                        "injury",
                        "poison",
                        "sleep"
                    ]
                },
                "usage": {
                    "value": "held-in-one-hand"
                },
                "uses": {
                    "autoDestroy": true,
                    "autoUse": true,
                    "max": 0,
                    "per": null,
                    "value": 0
                },
                "weight": {
                    "value": "L"
                }
            },
            "effects": [],
            "flags": {
                "core": {
                    "sourceId": "Compendium.pf2e.equipment-srd.zo0ophqfKunJFxZN"
                }
            },
            "img": "systems/pf2e/icons/equipment/alchemical-items/alchemical-poisons/lethargy-poison.webp",
            "name": "Lethargy Poison",
            "sort": 700000,
            "type": "consumable"
        },
        {
            "_id": "QIzXNCE3GPZBj5sy",
            "data": {
                "attack": {
                    "value": ""
                },
                "attackEffects": {
                    "value": [
                        "lethargy-poison"
                    ]
                },
                "bonus": {
                    "value": 11
                },
                "damageRolls": {
                    "dvihderv7skrqm5qfdub": {
                        "damage": "1d6+2",
                        "damageType": "piercing"
                    }
                },
                "description": {
                    "value": ""
                },
                "rules": [],
                "slug": null,
                "source": {
                    "value": ""
                },
                "traits": {
                    "custom": "",
                    "rarity": "common",
                    "value": [
                        "agile",
                        "finesse",
                        "versatile-s"
                    ]
                },
                "weaponType": {
                    "value": "melee"
                }
            },
            "effects": [],
            "flags": {},
            "img": "systems/pf2e/icons/default-icons/melee.svg",
            "name": "Shortsword",
            "sort": 800000,
            "type": "melee"
        },
        {
            "_id": "JzdZZiLkLG0WmOid",
            "data": {
                "actionCategory": {
                    "value": "interaction"
                },
                "actionType": {
                    "value": "passive"
                },
                "actions": {
                    "value": null
                },
                "description": {
                    "value": "<p>@Localize[PF2E.NPC.Abilities.Glossary.LowLightVision]</p>"
                },
                "requirements": {
                    "value": ""
                },
                "rules": [],
                "slug": "low-light-vision",
                "source": {
                    "value": ""
                },
                "traits": {
                    "custom": "",
                    "rarity": "common",
                    "value": []
                },
                "trigger": {
                    "value": ""
                },
                "weapon": {
                    "value": ""
                }
            },
            "effects": [],
            "flags": {
                "core": {
                    "sourceId": "Compendium.pf2e.bestiary-ability-glossary-srd.fFu2sZz4KB01fVRc"
                }
            },
            "img": "systems/pf2e/icons/actions/Passive.webp",
            "name": "Low-Light Vision",
            "sort": 900000,
            "type": "action"
        },
        {
            "_id": "dynvtBdr79KGnqBo",
            "data": {
                "actionCategory": {
                    "value": "defensive"
                },
                "actionType": {
                    "value": "reaction"
                },
                "actions": {
                    "value": null
                },
                "description": {
                    "value": "<p data-visibility=\"gm\"><strong>Trigger</strong> The quickling is targeted by a Strike</p>\n<p><strong>Effect</strong> The quickling darts aside, gaining a +2 circumstance bonus to AC, then Strides up to half their Speed after the Strike resolves.</p>"
                },
                "requirements": {
                    "value": ""
                },
                "rules": [],
                "slug": null,
                "source": {
                    "value": ""
                },
                "traits": {
                    "custom": "",
                    "rarity": "common",
                    "value": []
                },
                "trigger": {
                    "value": ""
                },
                "weapon": {
                    "value": ""
                }
            },
            "effects": [],
            "flags": {},
            "img": "systems/pf2e/icons/actions/Reaction.webp",
            "name": "Can't Catch Me",
            "sort": 1000000,
            "type": "action"
        },
        {
            "_id": "jCQO2RfqPLKqDeuF",
            "data": {
                "actionCategory": {
                    "value": "defensive"
                },
                "actionType": {
                    "value": "passive"
                },
                "actions": {
                    "value": null
                },
                "description": {
                    "value": "<p>The quickling takes a -2 status penalty to saving throws against effects that cause the @Compendium[pf2e.conditionitems.Slowed]{Slowed} condition. If the quickling ever becomes slowed, they lose their supernatural speed, can't Fade from View, and become @Compendium[pf2e.conditionitems.Sickened]{Sickened 1} for the duration of the slow. They also can't reduce this sickened condition for the duration of the slowed effect.</p>"
                },
                "requirements": {
                    "value": ""
                },
                "rules": [],
                "slug": null,
                "source": {
                    "value": ""
                },
                "traits": {
                    "custom": "",
                    "rarity": "common",
                    "value": []
                },
                "trigger": {
                    "value": ""
                },
                "weapon": {
                    "value": ""
                }
            },
            "effects": [],
            "flags": {},
            "img": "systems/pf2e/icons/actions/Passive.webp",
            "name": "Slow Susceptibility",
            "sort": 1100000,
            "type": "action"
        },
        {
            "_id": "sNUoqbThXZbfj5S7",
            "data": {
                "actionCategory": {
                    "value": "offensive"
                },
                "actionType": {
                    "value": "free"
                },
                "actions": {
                    "value": null
                },
                "description": {
                    "value": "<p><strong>Requirements</strong> The quickling used no attack, manipulate, or move actions in the previous round</p>\n<p><strong>Effect</strong> The quickling becomes @Compendium[pf2e.conditionitems.Invisible]{Invisible} until it uses an attack, manipulate, or move action.</p>\n<p>The quickling can't use Fade from View again for [[/br 1d4 #rounds]]{1d4 rounds}.</p>"
                },
                "requirements": {
                    "value": ""
                },
                "rules": [],
                "slug": null,
                "source": {
                    "value": ""
                },
                "traits": {
                    "custom": "",
                    "rarity": "common",
                    "value": [
                        "attack",
                        "manipulate",
                        "move"
                    ]
                },
                "trigger": {
                    "value": ""
                },
                "weapon": {
                    "value": ""
                }
            },
            "effects": [],
            "flags": {},
            "img": "systems/pf2e/icons/actions/FreeAction.webp",
            "name": "Fade from View",
            "sort": 1200000,
            "type": "action"
        },
        {
            "_id": "3BSxL95mz6QjoWi1",
            "data": {
                "actionCategory": {
                    "value": "offensive"
                },
                "actionType": {
                    "value": "passive"
                },
                "actions": {
                    "value": null
                },
                "description": {
                    "value": "<p>The quickling's Strikes deal an extra [[/r {1d6}[precision]]]{1d6 precision damage} to @Compendium[pf2e.conditionitems.Flat-Footed]{Flat-Footed} creatures.</p>\n<p>When the monster Strikes a creature that has the flat-footed condition with an agile or finesse melee weapon, an agile or finesse unarmed attack, or a ranged weapon attack, it also deals the listed precision damage. For a ranged attack with a thrown weapon, that weapon must also be an agile or finesse weapon.</p>"
                },
                "requirements": {
                    "value": ""
                },
                "rules": [
                    {
                        "category": "precision",
                        "diceNumber": 1,
                        "dieSize": "d6",
                        "key": "DamageDice",
                        "predicate": {
                            "all": [
                                "target:condition:flat-footed"
                            ],
                            "any": [
                                "finesse",
                                "agile",
                                "ranged"
                            ]
                        },
                        "selector": "strike-damage"
                    }
                ],
                "slug": "sneak-attack",
                "source": {
                    "value": ""
                },
                "traits": {
                    "custom": "",
                    "rarity": "common",
                    "value": []
                },
                "trigger": {
                    "value": ""
                },
                "weapon": {
                    "value": ""
                }
            },
            "effects": [],
            "flags": {
                "core": {
                    "sourceId": "Compendium.pf2e.bestiary-ability-glossary-srd.AWvNPE4U0kEJSL1T"
                }
            },
            "img": "systems/pf2e/icons/actions/Passive.webp",
            "name": "Sneak Attack",
            "sort": 1300000,
            "type": "action"
        },
        {
            "_id": "WIPFxMzyJ87R3t7k",
            "data": {
                "actionCategory": {
                    "value": "offensive"
                },
                "actionType": {
                    "value": "passive"
                },
                "actions": {
                    "value": null
                },
                "description": {
                    "value": "<p>The quickling's speed, combined with nearly instantaneous acceleration and deceleration, enables them to move in astonishing ways. As long as they have a firm surface to travel across, they can Stride their full movement vertically or horizontally. They can even run across unstable surfaces, such as water, in the same way, although dangerous surfaces (acid, lava, etc.) harm them as normal. They must end their movement on a horizontal surface capable of bearing their weight or else they fall.</p>"
                },
                "requirements": {
                    "value": ""
                },
                "rules": [],
                "slug": null,
                "source": {
                    "value": ""
                },
                "traits": {
                    "custom": "",
                    "rarity": "common",
                    "value": []
                },
                "trigger": {
                    "value": ""
                },
                "weapon": {
                    "value": ""
                }
            },
            "effects": [],
            "flags": {},
            "img": "systems/pf2e/icons/actions/Passive.webp",
            "name": "Supernatural Speed",
            "sort": 1400000,
            "type": "action"
        },
        {
            "_id": "ENHdoCU7UnOYRPap",
            "data": {
                "description": {
                    "value": ""
                },
                "mod": {
                    "value": 13
                },
                "proficient": {
                    "value": 0
                },
                "rules": [],
                "slug": null,
                "source": {
                    "value": ""
                },
                "traits": {
                    "custom": "",
                    "rarity": "common",
                    "value": []
                }
            },
            "effects": [],
            "flags": {},
            "img": "systems/pf2e/icons/default-icons/lore.svg",
            "name": "Acrobatics",
            "sort": 1500000,
            "type": "lore"
        },
        {
            "_id": "dQdaPpfQIBG7HgIU",
            "data": {
                "description": {
                    "value": ""
                },
                "mod": {
                    "value": 8
                },
                "proficient": {
                    "value": 0
                },
                "rules": [],
                "slug": null,
                "source": {
                    "value": ""
                },
                "traits": {
                    "custom": "",
                    "rarity": "common",
                    "value": []
                }
            },
            "effects": [],
            "flags": {},
            "img": "systems/pf2e/icons/default-icons/lore.svg",
            "name": "Crafting",
            "sort": 1600000,
            "type": "lore"
        },
        {
            "_id": "X2fjzvkjViN6iKlJ",
            "data": {
                "description": {
                    "value": ""
                },
                "mod": {
                    "value": 8
                },
                "proficient": {
                    "value": 0
                },
                "rules": [],
                "slug": null,
                "source": {
                    "value": ""
                },
                "traits": {
                    "custom": "",
                    "rarity": "common",
                    "value": []
                }
            },
            "effects": [],
            "flags": {},
            "img": "systems/pf2e/icons/default-icons/lore.svg",
            "name": "Deception",
            "sort": 1700000,
            "type": "lore"
        },
        {
            "_id": "7F8pY20r7KmRaA7K",
            "data": {
                "description": {
                    "value": ""
                },
                "mod": {
                    "value": 8
                },
                "proficient": {
                    "value": 0
                },
                "rules": [],
                "slug": null,
                "source": {
                    "value": ""
                },
                "traits": {
                    "custom": "",
                    "rarity": "common",
                    "value": []
                }
            },
            "effects": [],
            "flags": {},
            "img": "systems/pf2e/icons/default-icons/lore.svg",
            "name": "Nature",
            "sort": 1800000,
            "type": "lore"
        },
        {
            "_id": "J9tLQ3xVexNc2dQb",
            "data": {
                "description": {
                    "value": ""
                },
                "mod": {
                    "value": 11
                },
                "proficient": {
                    "value": 0
                },
                "rules": [],
                "slug": null,
                "source": {
                    "value": ""
                },
                "traits": {
                    "custom": "",
                    "rarity": "common",
                    "value": []
                }
            },
            "effects": [],
            "flags": {},
            "img": "systems/pf2e/icons/default-icons/lore.svg",
            "name": "Stealth",
            "sort": 1900000,
            "type": "lore"
        },
        {
            "_id": "mxlvG7dihFDWfddS",
            "data": {
                "description": {
                    "value": ""
                },
                "mod": {
                    "value": 6
                },
                "proficient": {
                    "value": 0
                },
                "rules": [],
                "slug": null,
                "source": {
                    "value": ""
                },
                "traits": {
                    "custom": "",
                    "rarity": "common",
                    "value": []
                }
            },
            "effects": [],
            "flags": {},
            "img": "systems/pf2e/icons/default-icons/lore.svg",
            "name": "Survival",
            "sort": 2000000,
            "type": "lore"
        },
        {
            "_id": "3jCVaJa9SSrhNKeb",
            "data": {
                "description": {
                    "value": ""
                },
                "mod": {
                    "value": 11
                },
                "proficient": {
                    "value": 0
                },
                "rules": [],
                "slug": null,
                "source": {
                    "value": ""
                },
                "traits": {
                    "custom": "",
                    "rarity": "common",
                    "value": []
                }
            },
            "effects": [],
            "flags": {},
            "img": "systems/pf2e/icons/default-icons/lore.svg",
            "name": "Thievery",
            "sort": 2100000,
            "type": "lore"
        }
    ],
    "name": "Quickling",
    "token": {
        "disposition": -1,
        "height": 1,
        "img": "systems/pf2e/icons/default-icons/npc.svg",
        "name": "Quickling",
        "width": 1
    },
    "type": "npc"
}
