{
    "_id": "EOiOqs1vHCxZAj3T",
    "data": {
        "abilities": {
            "cha": {
                "mod": -2
            },
            "con": {
                "mod": 3
            },
            "dex": {
                "mod": 2
            },
            "int": {
                "mod": -4
            },
            "str": {
                "mod": 5
            },
            "wis": {
                "mod": 3
            }
        },
        "attributes": {
            "ac": {
                "details": "",
                "value": 19
            },
            "allSaves": {
                "value": ""
            },
            "hp": {
                "details": "",
                "max": 60,
                "temp": 0,
                "value": 60
            },
            "initiative": {
                "ability": "perception"
            },
            "perception": {
                "value": 11
            },
            "speed": {
                "otherSpeeds": [],
                "value": "20"
            }
        },
        "details": {
            "alignment": {
                "value": "N"
            },
            "blurb": "",
            "creatureType": "Construct",
            "level": {
                "value": 4
            },
            "privateNotes": "",
            "publicNotes": "<p>A ramshackle collection of materials in a human shape, the scarecrow construct is indistinguishable from a normal scarecrow until it slowly creaks to life. As it animates, its carved pumpkin or sackcloth face bursts into eldritch flame, sending fear creeping into the air around it. Each scarecrow is handcrafted and unique in its appearance, though most are 5 to 6 feet tall and constructed of a combination of wood, cloth, rope, straw, sawdust, discarded husks and cobs, and similar materials, all dressed in ragged pastoral garments. This rudimentary construction makes a scarecrow somewhat fragile, prone to snapping limbs in the crush of battle. Yet its structure is adaptable, allowing it to reshape another piece of itself into a clawed limb or grip a severed portion of itself to swat at its foes.</p>\n<p>When a scarecrow is created, it must be anointed with a drop of its creator's blood into each of its eyes. This blood soaks into the material and siphons a tiny sliver of the creator's soul away-not enough to harm the creator, but more than enough to imbue the scarecrow with an instinctive intellect that allows it to follow commands as eagerly as a well-trained guard dog. When a scarecrow is destroyed, the blood leaks back out from its eyes, but the portion of the creator's soul never returns.</p>",
            "source": {
                "value": "Pathfinder Bestiary 2"
            }
        },
        "resources": {},
        "saves": {
            "fortitude": {
                "saveDetail": "",
                "value": 13
            },
            "reflex": {
                "saveDetail": "",
                "value": 8
            },
            "will": {
                "saveDetail": "",
                "value": 11
            }
        },
        "traits": {
            "attitude": {
                "value": "hostile"
            },
            "ci": [],
            "di": {
                "custom": "",
                "value": [
                    "bleed",
                    "death-effects",
                    "disease",
                    "doomed",
                    "drained",
                    "fatigued",
                    "healing",
                    "mental",
                    "necromancy",
                    "nonlethal-attacks",
                    "paralyzed",
                    "poison",
                    "sickened",
                    "unconscious"
                ]
            },
            "dr": [
                {
                    "exceptions": "slashing",
                    "label": "Physical",
                    "type": "physical",
                    "value": "5"
                }
            ],
            "dv": [
                {
                    "label": "Fire",
                    "type": "fire",
                    "value": "5"
                }
            ],
            "languages": {
                "custom": "",
                "selected": [],
                "value": []
            },
            "rarity": "common",
            "senses": {
                "value": "darkvision"
            },
            "size": {
                "value": "med"
            },
            "traits": {
                "custom": "",
                "value": [
                    "construct"
                ]
            }
        }
    },
    "effects": [],
    "flags": {},
    "img": "systems/pf2e/icons/default-icons/npc.svg",
    "items": [
        {
            "_id": "cS4RQnXm1y1xugCt",
            "data": {
                "attack": {
                    "value": ""
                },
                "attackEffects": {
                    "custom": "",
                    "value": [
                        "clawing-fear"
                    ]
                },
                "bonus": {
                    "value": 13
                },
                "damageRolls": {
                    "8aeqhx0p2nux3ynautq4": {
                        "damage": "2d6+7",
                        "damageType": "bludgeoning"
                    }
                },
                "description": {
                    "value": ""
                },
                "rules": [],
                "slug": null,
                "source": {
                    "value": ""
                },
                "traits": {
                    "custom": "",
                    "rarity": "common",
                    "value": [
                        "versatile-s"
                    ]
                },
                "weaponType": {
                    "value": "melee"
                }
            },
            "effects": [],
            "flags": {},
            "img": "systems/pf2e/icons/default-icons/melee.svg",
            "name": "Claw",
            "sort": 100000,
            "type": "melee"
        },
        {
            "_id": "j45FbeObppNsRIhN",
            "data": {
                "actionCategory": {
                    "value": "interaction"
                },
                "actionType": {
                    "value": "passive"
                },
                "actions": {
                    "value": null
                },
                "description": {
                    "value": "<p>@Localize[PF2E.NPC.Abilities.Glossary.Darkvision]</p>"
                },
                "requirements": {
                    "value": ""
                },
                "rules": [],
                "slug": "darkvision",
                "source": {
                    "value": ""
                },
                "traits": {
                    "custom": "",
                    "rarity": "common",
                    "value": []
                },
                "trigger": {
                    "value": ""
                },
                "weapon": {
                    "value": ""
                }
            },
            "effects": [],
            "flags": {
                "core": {
                    "sourceId": "Compendium.pf2e.bestiary-ability-glossary-srd.qCCLZhnp2HhP3Ex6"
                }
            },
            "img": "systems/pf2e/icons/actions/Passive.webp",
            "name": "Darkvision",
            "sort": 200000,
            "type": "action"
        },
        {
            "_id": "TAIcUgt3JKg5c7fV",
            "data": {
                "actionCategory": {
                    "value": "defensive"
                },
                "actionType": {
                    "value": "passive"
                },
                "actions": {
                    "value": null
                },
                "description": {
                    "value": "<p>40 feet.</p>\n<p>The scarecrow's eyes flicker with an unnerving glow. A creature can't reduce its @Compendium[pf2e.conditionitems.Frightened]{Frightened} condition below 1 as long as it is in the aura's emanation. When a creature enters or starts its turn in the aura, it must attempt a @Check[type:will|dc:18] save. Birds and other avian creatures take a -2 circumstance penalty to this save.</p>\n<hr />\n<p><strong>Critical Success</strong> The creature is unaffected and is then temporarily immune for 24 hours.</p>\n<p><strong>Success</strong> The creature is @Compendium[pf2e.conditionitems.Frightened]{Frightened 1}.</p>\n<p><strong>Failure</strong> The creature is @Compendium[pf2e.conditionitems.Frightened]{Frightened 2} and is @Compendium[pf2e.conditionitems.Fascinated]{Fascinated} by the scarecrow until the end of its next turn.</p>\n<p><strong>Critical Failure</strong> As failure, but @Compendium[pf2e.conditionitems.Frightened]{Frightened 3}.</p>"
                },
                "requirements": {
                    "value": ""
                },
                "rules": [],
                "slug": null,
                "source": {
                    "value": ""
                },
                "traits": {
                    "custom": "",
                    "rarity": "common",
                    "value": [
                        "aura",
                        "emotion",
                        "fear",
                        "mental",
                        "occult",
                        "visual"
                    ]
                },
                "trigger": {
                    "value": ""
                },
                "weapon": {
                    "value": ""
                }
            },
            "effects": [],
            "flags": {},
            "img": "systems/pf2e/icons/actions/Passive.webp",
            "name": "Scarecrow's Leer",
            "sort": 300000,
            "type": "action"
        },
        {
            "_id": "1V1IFVEwiJA8p72B",
            "data": {
                "actionCategory": {
                    "value": "offensive"
                },
                "actionType": {
                    "value": "free"
                },
                "actions": {
                    "value": null
                },
                "description": {
                    "value": "<p>The scarecrow's head bursts into ghostly, heatless flame that sheds bright light in a @Template[type:emanation|distance:20] and dim light to the next 20 feet). If the scarecrow uses this ability on the first round of combat, any creature that has not acted yet is startled and becomes @Compendium[pf2e.conditionitems.Flat-Footed]{Flat-Footed} against the scarecrow for 1 round. It can suppress the light by using this action again.</p>"
                },
                "requirements": {
                    "value": ""
                },
                "rules": [],
                "slug": null,
                "source": {
                    "value": ""
                },
                "traits": {
                    "custom": "",
                    "rarity": "common",
                    "value": [
                        "concentrate",
                        "mental",
                        "occult"
                    ]
                },
                "trigger": {
                    "value": ""
                },
                "weapon": {
                    "value": ""
                }
            },
            "effects": [],
            "flags": {},
            "img": "systems/pf2e/icons/actions/FreeAction.webp",
            "name": "Baleful Glow",
            "sort": 400000,
            "type": "action"
        },
        {
            "_id": "oYtncLyCKuBAQThk",
            "data": {
                "actionCategory": {
                    "value": "offensive"
                },
                "actionType": {
                    "value": "passive"
                },
                "actions": {
                    "value": null
                },
                "description": {
                    "value": "<p>The scarecrow's strikes deal an additional [[/r {1d6}[mental]]]{1d6 mental damage} to @Compendium[pf2e.conditionitems.Frightened]{Frightened} creatures.</p>"
                },
                "requirements": {
                    "value": ""
                },
                "rules": [
                    {
                        "domain": "all",
                        "key": "RollOption",
                        "label": "Target is Frightened",
                        "option": "clawing-fear",
                        "toggleable": true
                    },
                    {
                        "damageType": "mental",
                        "diceNumber": 1,
                        "dieSize": "d6",
                        "key": "DamageDice",
                        "predicate": {
                            "any": [
                                "target:frightened",
                                "clawing-fear"
                            ]
                        },
                        "selector": "strike-damage"
                    }
                ],
                "slug": null,
                "source": {
                    "value": ""
                },
                "traits": {
                    "custom": "",
                    "rarity": "common",
                    "value": []
                },
                "trigger": {
                    "value": ""
                },
                "weapon": {
                    "value": ""
                }
            },
            "effects": [],
            "flags": {},
            "img": "systems/pf2e/icons/actions/Passive.webp",
            "name": "Clawing Fear",
            "sort": 500000,
            "type": "action"
        },
        {
            "_id": "NTWIBx9lvUwV7F1W",
            "data": {
                "actionCategory": {
                    "value": "offensive"
                },
                "actionType": {
                    "value": "action"
                },
                "actions": {
                    "value": 1
                },
                "description": {
                    "value": "<p>Until it acts, the scarecrow resembles an ordinary scarecrow. It has an automatic result of 32 on Deception checks and DCs to pass as an ordinary scarecrow.</p>"
                },
                "requirements": {
                    "value": ""
                },
                "rules": [],
                "slug": null,
                "source": {
                    "value": ""
                },
                "traits": {
                    "custom": "",
                    "rarity": "common",
                    "value": [
                        "concentrate"
                    ]
                },
                "trigger": {
                    "value": ""
                },
                "weapon": {
                    "value": ""
                }
            },
            "effects": [],
            "flags": {},
            "img": "systems/pf2e/icons/actions/OneAction.webp",
            "name": "Mundane Appearance",
            "sort": 600000,
            "type": "action"
        },
        {
            "_id": "gHW1gSiQAd3XJNUH",
            "data": {
                "description": {
                    "value": ""
                },
                "mod": {
                    "value": 12
                },
                "proficient": {
                    "value": 0
                },
                "rules": [],
                "slug": null,
                "source": {
                    "value": ""
                },
                "traits": {
                    "custom": "",
                    "rarity": "common",
                    "value": []
                }
            },
            "effects": [],
            "flags": {},
            "img": "systems/pf2e/icons/default-icons/lore.svg",
            "name": "Athletics",
            "sort": 700000,
            "type": "lore"
        }
    ],
    "name": "Scarecrow",
    "token": {
        "disposition": -1,
        "height": 1,
        "img": "systems/pf2e/icons/default-icons/npc.svg",
        "name": "Scarecrow",
        "width": 1
    },
    "type": "npc"
}
