{
    "_id": "JGNnron2gnYI1P78",
    "data": {
        "description": {
            "value": "<p>Your body proves capable of truly heroic feats, but doing so interferes with your mental focus.</p>\n<p>You take a -2 status penalty to AC and saving throws, and are @Compendium[pf2e.conditionitems.Stupefied]{Stupefied 2}.</p>\n<p>You gain a +6 status bonus to weapon and unarmed damage rolls, and a +1 status bonus to weapon and unarmed attack rolls.</p>\n<p>You also gain fast healing equal to your level while in a non-trivial combat encounter.</p>\n<hr />\n<p><em>Note: You need to apply the stupefied condition and fast healing manually. The remaining effects are applied automatically.</em></p>"
        },
        "duration": {
            "expiry": "turn-start",
            "sustained": false,
            "unit": "unlimited",
            "value": -1
        },
        "level": {
            "value": 1
        },
        "rules": [
            {
                "key": "FlatModifier",
                "label": "Major Battle Curse",
                "selector": "ac",
                "type": "status",
                "value": -2
            },
            {
                "key": "FlatModifier",
                "label": "Major Battle Curse",
                "selector": "saving-throw",
                "type": "status",
                "value": -2
            },
            {
                "key": "FlatModifier",
                "label": "Major Battle Curse",
                "selector": "strike-damage",
                "type": "status",
                "value": 6
            },
            {
                "key": "FlatModifier",
                "label": "Major Battle Curse",
                "selector": "mundane-attack",
                "type": "status",
                "value": 1
            }
        ],
        "source": {
            "value": ""
        },
        "start": {
            "initiative": null,
            "value": 0
        },
        "target": null,
        "tokenIcon": {
            "show": true
        },
        "traits": {
            "custom": "",
            "rarity": "common",
            "value": []
        }
    },
    "effects": [],
    "flags": {},
    "img": "systems/pf2e/icons/features/classes/battle-mystery.webp",
    "name": "Effect: Major Battle Curse",
    "type": "effect"
}
