{
    "_id": "3GXU3ugrwLv0P7AH",
    "data": {
        "ability": {
            "value": ""
        },
        "area": {
            "areaType": "burst",
            "value": "10"
        },
        "autoHeightenLevel": {
            "value": null
        },
        "category": {
            "value": "spell"
        },
        "components": {
            "focus": false,
            "material": false,
            "somatic": true,
            "verbal": true
        },
        "cost": {
            "value": ""
        },
        "damage": {
            "applyMod": false,
            "value": {
                "0": {
                    "applyMod": false,
                    "type": {
                        "subtype": "",
                        "value": "fire"
                    },
                    "value": "1d8"
                },
                "1": {
                    "applyMod": false,
                    "type": {
                        "subtype": "",
                        "value": "sonic"
                    },
                    "value": "1d8"
                }
            }
        },
        "description": {
            "value": "<p>A brilliant and clamorous display of sparks and colorful fireworks explode around your enemies, dealing 1d8 fire damage and 1d8 sonic damage to creatures within a 10-foot burst. All creatures in the area must attempt a Reflex save.</p>\n<hr />\n<p><strong>Critical Success</strong> The creature is unaffected.</p>\n<p><strong>Success</strong> The creature takes half damage and is @Compendium[pf2e.conditionitems.Dazzled]{Dazzled} for 1 round.</p>\n<p><strong>Failure</strong> The creature takes full damage and is dazzled for 3 rounds.</p>\n<p><strong>Critical Failure</strong> The creature takes double damage, takes [[/r {1d4}[persistent,fire]]] @Compendium[pf2e.conditionitems.Persistent Damage]{Persistent Fire Damage}, and is dazzled for 1 minute.</p>\n<hr />\n<p><strong>Heightened (+2)</strong> The initial fire damage increases by 1d8,</p>\n<p>the sonic damage increases by 1d8, and the persistent</p>\n<p>fire damage a creature takes on a critical failure</p>\n<p>increases by 1d4.</p>"
        },
        "duration": {
            "value": ""
        },
        "hasCounteractCheck": {
            "value": false
        },
        "level": {
            "value": 2
        },
        "location": {
            "value": ""
        },
        "materials": {
            "value": ""
        },
        "range": {
            "value": "60 feet"
        },
        "rules": [],
        "save": {
            "basic": "",
            "value": "reflex"
        },
        "scaling": {
            "damage": {
                "0": "1d8",
                "1": "1d8",
                "2": "",
                "3": ""
            },
            "interval": 2
        },
        "school": {
            "value": "evocation"
        },
        "source": {
            "value": "Pathfinder Secrets of Magic"
        },
        "spellType": {
            "value": "save"
        },
        "sustained": {
            "value": false
        },
        "target": {
            "value": ""
        },
        "time": {
            "value": "2"
        },
        "traditions": {
            "custom": "",
            "value": [
                "arcane",
                "primal"
            ]
        },
        "traits": {
            "custom": "",
            "rarity": "common",
            "value": [
                "fire",
                "sonic"
            ]
        }
    },
    "effects": [],
    "flags": {},
    "img": "systems/pf2e/icons/spells/ignite-fireworks.webp",
    "name": "Ignite Fireworks",
    "type": "spell"
}
