{
    "_id": "6GjJtLJnwC18Y0aZ",
    "data": {
        "ability": {
            "value": ""
        },
        "area": {
            "value": ""
        },
        "areasize": {
            "value": ""
        },
        "category": {
            "value": "focus"
        },
        "components": {
            "material": false,
            "somatic": true,
            "verbal": true
        },
        "cost": {
            "value": ""
        },
        "damage": {
            "value": {}
        },
        "description": {
            "value": "<p>With a wave of the hand, you cause the targets to see the world around them as if a gauzy film had been lifted away to expose the truth that lies below their perceived reality. Natural features they can see grow twisted and horrendous, structures appear distorted and ruined, and objects seem warped and alien. This alternate vision fades quickly, but the glimpse beyond the natural world lingers for the spell's duration.</p>\n<p>Aberrations or worshippers of Outer Gods or Great Old Ones are bolstered by this vision of warped reality and gain a +1 status bonus to Will saving throws and attack rolls for 1 minute, while all other creatures must attempt a Will saving throw.</p>\n<hr />\n<p><strong>Critical Success</strong> The creature is unaffected and temporarily immune for 1 hour.</p>\n<p><strong>Success</strong> The creature is @Compendium[pf2e.conditionitems.Sickened]{Sickened 1}.</p>\n<p><strong>Failure</strong> The creature is @Compendium[pf2e.conditionitems.Stupefied]{Stupefied 1} for 1 minute and @Compendium[pf2e.conditionitems.Frightened]{Frightened 1}.</p>\n<p><strong>Critical Failure</strong> The creature is stupefied 1 for 1 minute and @Compendium[pf2e.conditionitems.Frightened]{Frightened 2}. It can't reduce the value of its frightened condition below 1 as long as it remains stupefied by this spell.</p>\n<hr />\n<p><strong>Heightened (+2)</strong> You increase the area by 5 feet and the duration of the stupefied condition by 1 minute.</p>"
        },
        "duration": {
            "value": "varies"
        },
        "hasCounteractCheck": {
            "value": false
        },
        "level": {
            "value": 1
        },
        "location": {
            "value": ""
        },
        "materials": {
            "value": ""
        },
        "prepared": {
            "value": ""
        },
        "range": {
            "value": "5-foot emanation"
        },
        "rules": [],
        "save": {
            "basic": "",
            "value": "will"
        },
        "school": {
            "value": "illusion"
        },
        "source": {
            "value": "Pathfinder #165: Eyes of Empty Death"
        },
        "spellType": {
            "value": "utility"
        },
        "sustained": {
            "value": false
        },
        "target": {
            "value": "creatures in the area"
        },
        "time": {
            "value": "2"
        },
        "traditions": {
            "custom": "",
            "value": []
        },
        "traits": {
            "custom": "",
            "rarity": "uncommon",
            "value": [
                "fear",
                "visual"
            ]
        }
    },
    "effects": [],
    "flags": {},
    "img": "systems/pf2e/icons/spells/lift-natures-caul.webp",
    "name": "Lift Nature's Caul",
    "type": "spell"
}
