{
    "_id": "D7ZEhTNIDWDLC2J4",
    "data": {
        "ability": {
            "value": ""
        },
        "area": {
            "areaType": "",
            "value": ""
        },
        "autoHeightenLevel": {
            "value": null
        },
        "category": {
            "value": "spell"
        },
        "components": {
            "focus": false,
            "material": false,
            "somatic": true,
            "verbal": true
        },
        "cost": {
            "value": ""
        },
        "damage": {
            "applyMod": true,
            "value": {
                "0": {
                    "applyMod": true,
                    "type": {
                        "categories": [],
                        "subtype": "",
                        "value": "poison"
                    },
                    "value": ""
                }
            }
        },
        "description": {
            "value": "<p>You exhale a shimmering cloud of toxic breath at an enemy's face. The target takes poison damage equal to your spellcasting modifier and [[/r {2}[persistent,poison]]] @Compendium[pf2e.conditionitems.Persistent Damage]{Persistent Poison Damage}, depending on its Fortitude save.</p>\n<hr />\n<p><strong>Critical Success</strong> The creature is unaffected.</p>\n<p><strong>Success</strong> The target takes half initial and persistent damage.</p>\n<p><strong>Failure</strong> The target takes full initial and persistent damage.</p>\n<p><strong>Critical Failure</strong> The target takes double initial and persistent damage.</p>\n<hr />\n<p><strong>Heightened (+2)</strong> The initial poison damage increases by 1d8 and the persistent poison damage increases by 1.</p>"
        },
        "duration": {
            "value": ""
        },
        "hasCounteractCheck": {
            "value": false
        },
        "level": {
            "value": 1
        },
        "location": {
            "value": ""
        },
        "materials": {
            "value": ""
        },
        "range": {
            "value": "5 feet"
        },
        "rules": [],
        "save": {
            "basic": "",
            "value": "fortitude"
        },
        "scaling": {
            "damage": {
                "0": "1d8"
            },
            "interval": 2
        },
        "school": {
            "value": "evocation"
        },
        "source": {
            "value": "Pathfinder Secrets of Magic"
        },
        "spellType": {
            "value": "save"
        },
        "sustained": {
            "value": false
        },
        "target": {
            "value": "1 creature"
        },
        "time": {
            "value": "2"
        },
        "traditions": {
            "custom": "",
            "value": [
                "arcane",
                "primal"
            ]
        },
        "traits": {
            "custom": "",
            "rarity": "common",
            "value": [
                "cantrip",
                "inhaled",
                "poison"
            ]
        }
    },
    "effects": [],
    "flags": {},
    "img": "systems/pf2e/icons/spells/puff-of-poison.webp",
    "name": "Puff of Poison",
    "type": "spell"
}
