{
    "_id": "VDWIZuLOJqwBthHc",
    "data": {
        "ability": {
            "value": ""
        },
        "area": {
            "areaType": "",
            "value": null
        },
        "areasize": {
            "value": ""
        },
        "category": {
            "value": "spell"
        },
        "components": {
            "material": false,
            "somatic": true,
            "verbal": true
        },
        "cost": {
            "value": ""
        },
        "damage": {
            "value": {}
        },
        "description": {
            "value": "<p>You evoke Zevgavizeb's unceasing hunger and inflict it upon your target. The target becomes overwhelmed with cannibalistic hunger and can restore its vitality by feasting on the flesh of the fallen. On its turn, the target can use 2 actions (these actions have the manipulate trait) to cannibalize an adjacent @Compendium[pf2e.conditionitems.Dying]{Dying} or dead creature. If the cannibalized creature is Dying, it dies. If the cannibalized creature is an ally of the target, the target regains 5d8 HP; otherwise, the target regains 5d4 HP. Certain monsters (such as those whose blood is acidic or magical) might inflict additional effects on those who cannibalize them at the GM's discretion. Once cannibalized, a particular creature's body doesn't have enough meat to cannibalize again. During any round that there's a Dying or dead creature within 30 feet of the target, if the target can't or doesn't cannibalize a creature, the target takes 5d4 mental damage.</p>\n<hr />\n<p><strong>Heightened (+1)</strong> The amount of HP restored by cannibalizing a creature increases by 1d8 for eating an ally and 1d4 otherwise, and the mental damage increases by 1d4.</p>"
        },
        "duration": {
            "value": "3 rounds"
        },
        "hasCounteractCheck": {
            "value": false
        },
        "level": {
            "value": 5
        },
        "location": {
            "value": ""
        },
        "materials": {
            "value": ""
        },
        "prepared": {
            "value": ""
        },
        "primarycheck": {
            "value": ""
        },
        "range": {
            "value": "60 feet"
        },
        "rules": [],
        "save": {
            "basic": "",
            "value": "will"
        },
        "school": {
            "value": "necromancy"
        },
        "secondarycasters": {
            "value": ""
        },
        "secondarycheck": {
            "value": ""
        },
        "source": {
            "value": "Pathfinder #153: Life's Long Shadow"
        },
        "spellType": {
            "value": "save"
        },
        "sustained": {
            "value": false
        },
        "target": {
            "value": "one living creature"
        },
        "time": {
            "value": "2"
        },
        "traditions": {
            "custom": "",
            "value": [
                "divine",
                "occult",
                "primal"
            ]
        },
        "traits": {
            "custom": "",
            "rarity": "uncommon",
            "value": [
                "evil",
                "healing"
            ]
        }
    },
    "effects": [],
    "flags": {},
    "img": "systems/pf2e/icons/spells/ravening-maw.webp",
    "name": "Ravening Maw",
    "type": "spell"
}
