{
    "_id": "q5vbYgLztQ04FQZg",
    "data": {
        "ability": {
            "value": ""
        },
        "area": {
            "areaType": "",
            "value": ""
        },
        "autoHeightenLevel": {
            "value": null
        },
        "category": {
            "value": "spell"
        },
        "components": {
            "focus": true,
            "material": false,
            "somatic": false,
            "verbal": true
        },
        "cost": {
            "value": "An unbroken seashell (not consumed)"
        },
        "damage": {
            "value": {}
        },
        "description": {
            "value": "<p><strong>Trigger</strong> A creature within range begins to make a sound.</p>\n<p>You store a sound in a seashell to use as you will: the last words of a loved one, a dragon's mighty roar, the compromising conversation between two powerful diplomats, or even more strange and secret. As part of Casting this Spell, you must present an unbroken seashell. When you Cast the Spell, magic swirls around the triggering creature, copying the sounds they make, as well as any background noise, for the next minute and storing them in the seashell.</p>\n<p>You or another creature can then play the sound back from the seashell during the spell's duration by Interacting with the seashell, but once the sounds have been played back, the seashell shatters and the spell ends.</p>\n<p>As normal for spells with a duration until your next daily preparations, you can choose to continue expending the spell slot to prolong the duration of an existing seashell of stolen sound for another day. While the spell faithfully copies the sounds around the target, it doesn't reproduce any special auditory or sonic effects of the sound.</p>"
        },
        "duration": {
            "value": "until your next daily preparations"
        },
        "hasCounteractCheck": {
            "value": false
        },
        "level": {
            "value": 1
        },
        "location": {
            "value": ""
        },
        "materials": {
            "value": ""
        },
        "range": {
            "value": "30 feet"
        },
        "rules": [],
        "save": {
            "basic": "",
            "value": ""
        },
        "school": {
            "value": "divination"
        },
        "source": {
            "value": "Pathfinder Secrets of Magic"
        },
        "spellType": {
            "value": "utility"
        },
        "sustained": {
            "value": false
        },
        "target": {
            "value": ""
        },
        "time": {
            "value": "reaction"
        },
        "traditions": {
            "custom": "",
            "value": [
                "arcane",
                "occult",
                "primal"
            ]
        },
        "traits": {
            "custom": "",
            "rarity": "common",
            "value": [
                "sonic"
            ]
        }
    },
    "effects": [],
    "flags": {},
    "img": "systems/pf2e/icons/spells/seashell-of-stolen-sound.webp",
    "name": "Seashell of Stolen Sound",
    "type": "spell"
}
