{
    "_id": "GjmMFEJcDd6MDG2P",
    "data": {
        "ability": {
            "value": ""
        },
        "area": {
            "areaType": "",
            "value": ""
        },
        "autoHeightenLevel": {
            "value": null
        },
        "category": {
            "value": "spell"
        },
        "components": {
            "focus": false,
            "material": true,
            "somatic": true,
            "verbal": false
        },
        "cost": {
            "value": ""
        },
        "damage": {
            "value": {}
        },
        "description": {
            "value": "<p>You attune yourself to a spiritual plane of the Outer Sphere, connecting your spirit without fully transporting to it. Your Strikes and spells gain the alignment traits of the plane you chose, which deals additional damage to creatures with a weakness to either of those alignment traits. Furthermore, the plane protects you from energy of the alignments that oppose the plane. You gain resistance 5 to damage of the alignments that oppose those of your chosen plane. For example, if you chose Heaven, your Strikes would gain the good and lawful traits, and you would gain resistance to chaotic and evil. If you choose the Boneyard, the resistance is to negative and positive damage instead.</p>\n<hr />\n<p><strong>Heightened (+2)</strong> The resistance increases by 5.</p>\n<hr />\n<p>The nine main planes of the Outer Sphere are the homes of many deities, celestials, monitors, and fiends. Their names, along with their alignments, are: Heaven (LG), Nirvana (NG), Elysium (CG), Axis (LN), the Boneyard (N), the Maelstrom (CN), Hell (LE), Abaddon (NE), and the Abyss (CE).</p>"
        },
        "duration": {
            "value": "1 minute"
        },
        "hasCounteractCheck": {
            "value": false
        },
        "level": {
            "value": 4
        },
        "location": {
            "value": ""
        },
        "materials": {
            "value": ""
        },
        "range": {
            "value": ""
        },
        "rules": [],
        "save": {
            "basic": "",
            "value": ""
        },
        "school": {
            "value": "abjuration"
        },
        "source": {
            "value": "Pathfinder Secrets of Magic"
        },
        "spellType": {
            "value": "utility"
        },
        "sustained": {
            "value": false
        },
        "target": {
            "value": ""
        },
        "time": {
            "value": "2"
        },
        "traditions": {
            "custom": "",
            "value": [
                "divine",
                "occult"
            ]
        },
        "traits": {
            "custom": "",
            "rarity": "uncommon",
            "value": []
        }
    },
    "effects": [],
    "flags": {},
    "img": "systems/pf2e/icons/spells/spiritual-attunement.webp",
    "name": "Spiritual Attunement",
    "type": "spell"
}
