{
    "_id": "h5cMTygLpjY3IEF0",
    "data": {
        "ability": {
            "value": ""
        },
        "area": {
            "areaType": "",
            "value": ""
        },
        "autoHeightenLevel": {
            "value": null
        },
        "category": {
            "value": "spell"
        },
        "components": {
            "focus": false,
            "material": false,
            "somatic": true,
            "verbal": true
        },
        "cost": {
            "value": ""
        },
        "damage": {
            "value": {}
        },
        "description": {
            "value": "<p>You place a bit of knowledge deep in a creature's subconscious or make a willing creature forget some information until a specific trigger occurs. The target gets a Will saving throw to resist the effect. A willing creature can choose to fail its save.</p>\n<hr />\n<p><strong>Critical Success</strong> The target is unaffected and realizes you tried to alter its memory.</p>\n<p><strong>Success</strong> The target is unaffected but thinks your spell was something harmless instead of sudden recollection, unless it identifies the spell.</p>\n<p><strong>Failure</strong> You choose a piece of information the target didn't already know and create a trigger, such as seeing an object, hearing a key phrase, or witnessing an event. As soon as the target experiences the trigger, it receives the information and the spell ends. If the target was willing, you can instead choose a piece of information the target already knew and suppress its memory of that information until it experiences the trigger, after which it recovers the information and the spell ends.</p>"
        },
        "duration": {
            "value": "unlimited"
        },
        "hasCounteractCheck": {
            "value": false
        },
        "level": {
            "value": 3
        },
        "location": {
            "value": ""
        },
        "materials": {
            "value": ""
        },
        "range": {
            "value": "30 feet"
        },
        "rules": [],
        "save": {
            "basic": "",
            "value": "will"
        },
        "school": {
            "value": "enchantment"
        },
        "source": {
            "value": "Pathfinder Secrets of Magic"
        },
        "spellType": {
            "value": "save"
        },
        "sustained": {
            "value": false
        },
        "target": {
            "value": "1 creature"
        },
        "time": {
            "value": "2"
        },
        "traditions": {
            "custom": "",
            "value": [
                "occult"
            ]
        },
        "traits": {
            "custom": "",
            "rarity": "uncommon",
            "value": [
                "mental"
            ]
        }
    },
    "effects": [],
    "flags": {},
    "img": "systems/pf2e/icons/spells/sudden-recollection.webp",
    "name": "Sudden Recollection",
    "type": "spell"
}
