{
    "_id": "drmvQJETA3WZzXyw",
    "data": {
        "ability": {
            "value": ""
        },
        "area": {
            "areaType": "emanation",
            "value": "30"
        },
        "autoHeightenLevel": {
            "value": null
        },
        "category": {
            "value": "spell"
        },
        "components": {
            "focus": false,
            "material": false,
            "somatic": true,
            "verbal": true
        },
        "cost": {
            "value": ""
        },
        "damage": {
            "applyMod": false,
            "value": {
                "0": {
                    "applyMod": false,
                    "type": {
                        "subtype": "",
                        "value": "negative"
                    },
                    "value": "14d6"
                }
            }
        },
        "description": {
            "value": "<p>You create a powerful spirit entity that grows and builds strength by consuming the spirits of foes you both slay. When you Cast the Spell, the gestalt deals 14d6 negative damage to all living creatures of your choice in the area, with a basic Fortitude save. Creatures you choose that end their turns in the area take [[/r {6d6}[negative]]]{6d6 negative damage} damage, with a basic Fortitude save.</p>\n<p>At the end of each of your turns, if you killed a living creature during that turn or if the gestalt's damage killed a creature since the end of your prior turn, you add the slain creature's soul to the gestalt. The emanation's radius increases by 20 feet and the damage dealt by the aura increases by [[/r 1d6#negative]]. (Note that this increase only happens once, even if you killed multiple living creatures that turn.) As normal for determining threat level, the GM determines if a creature is of significant enough threat to empower the gestalt; in general, a creature several levels below you rarely poses a significant threat.</p>\n<hr />\n<p><strong>Heightened (10th)</strong> The initial damage increases to 16d6 and the aura's damage starts at [[/r {6d6}[negative]]].</p>"
        },
        "duration": {
            "value": "sustained up to 1 minute"
        },
        "hasCounteractCheck": {
            "value": false
        },
        "level": {
            "value": 9
        },
        "location": {
            "value": ""
        },
        "materials": {
            "value": ""
        },
        "range": {
            "value": ""
        },
        "rules": [],
        "save": {
            "basic": "basic",
            "value": "fortitude"
        },
        "scaling": {
            "damage": {
                "0": "2d6"
            },
            "interval": 1
        },
        "school": {
            "value": "necromancy"
        },
        "source": {
            "value": "Pathfinder Secrets of Magic"
        },
        "spellType": {
            "value": "save"
        },
        "sustained": {
            "value": false
        },
        "target": {
            "value": ""
        },
        "time": {
            "value": "2"
        },
        "traditions": {
            "custom": "",
            "value": [
                "divine",
                "occult"
            ]
        },
        "traits": {
            "custom": "",
            "rarity": "common",
            "value": [
                "aura",
                "death",
                "evil"
            ]
        }
    },
    "effects": [],
    "flags": {},
    "img": "systems/pf2e/icons/spells/voracious-gestalt.webp",
    "name": "Voracious Gestalt",
    "type": "spell"
}
