{
    "_id": "hghR0f5IetZBvyDR",
    "data": {
        "actionCategory": {
            "value": ""
        },
        "actionType": {
            "value": "passive"
        },
        "actions": {
            "value": null
        },
        "description": {
            "value": "<p><strong>[Heroic]</strong></p>\n<p><strong>Prerequisites</strong> Tier 3 with the Vigilant Seal</p>\n<p><strong>Cost</strong> 4 Fame</p>\n<p><strong>Effect</strong> When you spend your Hero Points to avoid death, you can choose to immediately wake up with 1 Hit Point.</p>\n<p><strong>Normal</strong> When you spend your Hero Points to avoid death, you stabilize with 0 Hit Points, but you do not wake up until your Hit Points rise above 0.</p>"
        },
        "featType": {
            "value": "pfsboon"
        },
        "level": {
            "value": 0
        },
        "prerequisites": {
            "value": []
        },
        "rules": [],
        "source": {
            "value": ""
        },
        "traits": {
            "custom": "",
            "rarity": "common",
            "value": []
        }
    },
    "effects": [],
    "flags": {},
    "img": "systems/pf2e/icons/default-icons/mystery-man.webp",
    "name": "Heroic Defiance",
    "type": "feat"
}
