{
    "_id": "RJYIefY9Skx8CAgw",
    "data": {
        "actionCategory": {
            "value": ""
        },
        "actionType": {
            "value": "passive"
        },
        "actions": {
            "value": null
        },
        "description": {
            "value": "<p><strong>[Slotless][Generic]</strong></p>\n<p><strong>Effect</strong> Thanks to your connection with Venture-Captain Muesello, you have an easier time securing @Compendium[pf2e.equipment-srd.Wayfinder]{Wayfinders}. You can purchase wayfinders of up to your character level + 2 as long as you have access to them. If you own a @Compendium[pf2e.equipment-srd.Wayfinder]{Standard Wayfinder}, Muesello offers to upgrade it to a @Compendium[pf2e.equipment-srd.Wayfinder]{Wayfinder} with additional features for the difference in cost between the items.</p>"
        },
        "featType": {
            "value": "pfsboon"
        },
        "level": {
            "value": 0
        },
        "prerequisites": {
            "value": []
        },
        "rules": [],
        "source": {
            "value": ""
        },
        "traits": {
            "custom": "",
            "rarity": "common",
            "value": []
        }
    },
    "effects": [],
    "flags": {},
    "img": "systems/pf2e/icons/default-icons/mystery-man.webp",
    "name": "S1-Q09 - Wayfinder Connections",
    "type": "feat"
}
