{
    "_id": "vhSYlQiAQMLuXqoc",
    "data": {
        "description": {
            "value": "<p>Granted by @Compendium[pf2e.actionspf2e.Clue In]{Clue In}.</p>\n<p>Whenever you attempt a Perception or skill check to investigate a designated subject, you gain a +1 circumstance bonus to the check.</p>"
        },
        "duration": {
            "expiry": "turn-start",
            "sustained": false,
            "unit": "unlimited",
            "value": -1
        },
        "level": {
            "value": 1
        },
        "rules": [
            {
                "key": "FlatModifier",
                "label": "Clue In",
                "selector": "skill-check",
                "type": "circumstance",
                "value": 1
            },
            {
                "key": "FlatModifier",
                "label": "Clue In",
                "selector": "perception",
                "type": "circumstance",
                "value": 1
            }
        ],
        "source": {
            "value": ""
        },
        "start": {
            "initiative": null,
            "value": 0
        },
        "target": null,
        "tokenIcon": {
            "show": true
        },
        "traits": {
            "custom": "",
            "rarity": "common",
            "value": []
        }
    },
    "effects": [],
    "flags": {},
    "img": "systems/pf2e/icons/equipment/adventuring-gear/magnifying-glass.webp",
    "name": "Effect: Clue In",
    "type": "effect"
}
