{
    "_id": "v2HDcrxQF2Dncjbs",
    "data": {
        "description": {
            "value": "<p>Granted when you use @Compendium[pf2e.feats-srd.Flamboyant Cruelty]{Flamboyant Cruelty}</p>"
        },
        "duration": {
            "expiry": "turn-start",
            "sustained": false,
            "unit": "rounds",
            "value": 1
        },
        "level": {
            "value": 8
        },
        "rules": [
            {
                "key": "FlatModifier",
                "label": "Tumble Through (Flamboyant Cruelty)",
                "predicate": {
                    "all": [
                        "action:tumble-through",
                        "flamboyant-cruelty"
                    ]
                },
                "selector": "acrobatics",
                "type": "circumstance",
                "value": 1
            },
            {
                "key": "FlatModifier",
                "label": "Panache-granting action (Flamboyant Cruelty)",
                "predicate": {
                    "all": [
                        "panache-granting",
                        "flamboyant-cruelty"
                    ]
                },
                "selector": "skill-check",
                "type": "circumstance",
                "value": 1
            }
        ],
        "source": {
            "value": ""
        },
        "start": {
            "initiative": null,
            "value": 0
        },
        "target": null,
        "tokenIcon": {
            "show": true
        },
        "traits": {
            "custom": "",
            "rarity": "common",
            "value": []
        }
    },
    "effects": [],
    "flags": {},
    "img": "systems/pf2e/icons/spells/suns-fury.webp",
    "name": "Effect: Flamboyant Cruelty",
    "type": "effect"
}
