{
    "_id": "6LgJB4ypaSTWSJLu",
    "data": {
        "description": {
            "value": "<p>When you critically hit with this weapon, the target becomes @Compendium[pf2e.conditionitems.Frightened]{Frightened 1}</p>"
        },
        "duration": {
            "expiry": "turn-start",
            "sustained": false,
            "unit": "unlimited",
            "value": -1
        },
        "level": {
            "value": 1
        },
        "rules": [
            {
                "key": "Note",
                "selector": "{item|data.target}-damage",
                "text": "<strong>Fearsome</strong> When you critically hit with this weapon, the target becomes @Compendium[pf2e.conditionitems.Frightened]{Frightened 1}"
            },
            {
                "key": "EffectTarget",
                "scope": "weapon"
            }
        ],
        "source": {
            "value": ""
        },
        "start": {
            "initiative": null,
            "value": 0
        },
        "target": null,
        "tokenIcon": {
            "show": true
        },
        "traits": {
            "custom": "",
            "rarity": "common",
            "value": []
        }
    },
    "effects": [],
    "flags": {},
    "img": "systems/pf2e/icons/equipment/runes/weapon-property-runes/weapon-property-runes.webp",
    "name": "Effect: Blade Ally Fearsome Rune",
    "type": "effect"
}
