{
    "_id": "OkcblqWj4aHVAkrp",
    "data": {
        "description": {
            "value": "<p>Granted by @Compendium[pf2e.feats-srd.Divine Weapon]{Divine Weapon}.</p>\n<p>Until the end of your turn, the weapon deals an additional 1d6 chaotic damage.</p>"
        },
        "duration": {
            "expiry": "turn-end",
            "sustained": false,
            "unit": "rounds",
            "value": 0
        },
        "level": {
            "value": 6
        },
        "rules": [
            {
                "key": "EffectTarget",
                "scope": "weapon"
            },
            {
                "damageType": "chaotic",
                "diceNumber": 1,
                "dieSize": "d6",
                "key": "DamageDice",
                "selector": "{item|data.target}-damage"
            }
        ],
        "source": {
            "value": ""
        },
        "start": {
            "initiative": null,
            "value": 0
        },
        "target": null,
        "tokenIcon": {
            "show": true
        },
        "traits": {
            "custom": "",
            "rarity": "common",
            "value": []
        }
    },
    "effects": [],
    "flags": {},
    "img": "systems/pf2e/icons/spells/divine-lance.webp",
    "name": "Effect: Divine Weapon (Chaotic)",
    "type": "effect"
}
