{
    "_id": "RiKjpztTt7tZbOeo",
    "data": {
        "abilities": {
            "cha": {
                "mod": -1
            },
            "con": {
                "mod": 5
            },
            "dex": {
                "mod": 4
            },
            "int": {
                "mod": -3
            },
            "str": {
                "mod": 7
            },
            "wis": {
                "mod": 2
            }
        },
        "attributes": {
            "ac": {
                "details": "all-around vision",
                "value": 23
            },
            "allSaves": {
                "value": ""
            },
            "hp": {
                "details": "hydra regeneration",
                "max": 90,
                "temp": 0,
                "value": 90
            },
            "initiative": {
                "ability": "perception"
            },
            "perception": {
                "value": 17
            },
            "speed": {
                "otherSpeeds": [
                    {
                        "type": "swim",
                        "value": "25"
                    }
                ],
                "value": "25"
            }
        },
        "details": {
            "alignment": {
                "value": "N"
            },
            "blurb": "",
            "creatureType": "Beast",
            "level": {
                "value": 6
            },
            "privateNotes": "",
            "publicNotes": "<p>Hydras are multiheaded, foul-tempered serpentine beasts with voracious appetites, widely feared for their regeneration abilities.</p>",
            "source": {
                "value": "Pathfinder Bestiary"
            }
        },
        "resources": {},
        "saves": {
            "fortitude": {
                "saveDetail": "",
                "value": 15
            },
            "reflex": {
                "saveDetail": "",
                "value": 12
            },
            "will": {
                "saveDetail": "",
                "value": 10
            }
        },
        "traits": {
            "ci": [],
            "di": {
                "custom": "",
                "value": []
            },
            "dr": [],
            "dv": [],
            "languages": {
                "custom": "",
                "selected": [],
                "value": []
            },
            "rarity": "common",
            "senses": {
                "value": "low-light vision, scent (imprecise) 30 feet"
            },
            "size": {
                "value": "huge"
            },
            "traits": {
                "custom": "",
                "value": [
                    "beast"
                ]
            }
        }
    },
    "effects": [],
    "flags": {},
    "img": "systems/pf2e/icons/default-icons/npc.svg",
    "items": [
        {
            "_id": "UNKL6y0xQcbsDrvG",
            "data": {
                "badge": null,
                "description": {
                    "value": "<p>The number of heads the hydra currently has.</p>"
                },
                "duration": {
                    "expiry": "turn-start",
                    "sustained": false,
                    "unit": "unlimited",
                    "value": -1
                },
                "level": {
                    "value": 6
                },
                "rules": [
                    {
                        "choices": [
                            {
                                "label": "01",
                                "value": 0
                            },
                            {
                                "label": "02",
                                "value": 1
                            },
                            {
                                "label": "03",
                                "value": 2
                            },
                            {
                                "label": "04",
                                "value": 3
                            },
                            {
                                "label": "05",
                                "value": 4
                            },
                            {
                                "label": "06",
                                "value": 5
                            },
                            {
                                "label": "07",
                                "value": 6
                            },
                            {
                                "label": "08",
                                "value": 7
                            },
                            {
                                "label": "09",
                                "value": 8
                            },
                            {
                                "label": "10",
                                "value": 9
                            }
                        ],
                        "flag": "headCount",
                        "key": "ChoiceSet",
                        "selection": 4
                    },
                    {
                        "diceNumber": "{item|flags.pf2e.rulesSelections.headCount}",
                        "dieSize": "d6",
                        "key": "DamageDice",
                        "predicate": {
                            "all": [
                                "focusedAssault"
                            ]
                        },
                        "selector": "strike-damage"
                    }
                ],
                "slug": "effect-hydra-heads",
                "source": {
                    "value": "Pathfinder Bestiary"
                },
                "start": {
                    "initiative": null,
                    "value": 102
                },
                "target": null,
                "tokenIcon": {
                    "show": true
                },
                "traits": {
                    "custom": "",
                    "rarity": "common",
                    "value": []
                }
            },
            "effects": [],
            "flags": {
                "core": {
                    "sourceId": "Compendium.pf2e.bestiary-effects.uZJOdounIHaFDC1t"
                }
            },
            "img": "systems/pf2e/icons/spells/summon-animal.webp",
            "name": "Effect: Hydra Heads (05)",
            "sort": 100000,
            "type": "effect"
        },
        {
            "_id": "hJ1mAKCkNvCy1GY0",
            "data": {
                "attack": {
                    "value": ""
                },
                "attackEffects": {
                    "custom": "",
                    "value": []
                },
                "bonus": {
                    "value": 16
                },
                "damageRolls": {
                    "xgwtqgd2lcnacur94ru5": {
                        "damage": "2d6+7",
                        "damageType": "piercing"
                    }
                },
                "description": {
                    "value": ""
                },
                "rules": [],
                "slug": null,
                "source": {
                    "value": ""
                },
                "traits": {
                    "custom": "",
                    "rarity": "common",
                    "value": [
                        "reach-10"
                    ]
                },
                "weaponType": {
                    "value": "melee"
                }
            },
            "effects": [],
            "flags": {},
            "img": "systems/pf2e/icons/default-icons/melee.svg",
            "name": "Fangs",
            "sort": 200000,
            "type": "melee"
        },
        {
            "_id": "UVFdUW8UmQmQjvIs",
            "data": {
                "actionCategory": {
                    "value": "interaction"
                },
                "actionType": {
                    "value": "passive"
                },
                "actions": {
                    "value": null
                },
                "description": {
                    "value": "<p>@Localize[PF2E.NPC.Abilities.Glossary.LowLightVision]</p>"
                },
                "requirements": {
                    "value": ""
                },
                "rules": [],
                "slug": "low-light-vision",
                "source": {
                    "value": ""
                },
                "traits": {
                    "custom": "",
                    "rarity": "common",
                    "value": []
                },
                "trigger": {
                    "value": ""
                },
                "weapon": {
                    "value": ""
                }
            },
            "effects": [],
            "flags": {
                "core": {
                    "sourceId": "Compendium.pf2e.bestiary-ability-glossary-srd.fFu2sZz4KB01fVRc"
                }
            },
            "img": "systems/pf2e/icons/actions/Passive.webp",
            "name": "Low-Light Vision",
            "sort": 300000,
            "type": "action"
        },
        {
            "_id": "9yPuatISy0aUTsVE",
            "data": {
                "actionCategory": {
                    "value": "interaction"
                },
                "actionType": {
                    "value": "passive"
                },
                "actions": {
                    "value": null
                },
                "description": {
                    "value": "<p>@Localize[PF2E.NPC.Abilities.Glossary.Scent]</p>"
                },
                "requirements": {
                    "value": ""
                },
                "rules": [],
                "slug": "scent",
                "source": {
                    "value": ""
                },
                "traits": {
                    "custom": "",
                    "rarity": "common",
                    "value": []
                },
                "trigger": {
                    "value": ""
                },
                "weapon": {
                    "value": ""
                }
            },
            "effects": [],
            "flags": {
                "core": {
                    "sourceId": "Compendium.pf2e.bestiary-ability-glossary-srd.rqfnQ5VHT5hxm25r"
                }
            },
            "img": "systems/pf2e/icons/actions/Passive.webp",
            "name": "Scent (Imprecise) 30 feet",
            "sort": 400000,
            "type": "action"
        },
        {
            "_id": "qOhxTyF0N56kRCTR",
            "data": {
                "actionCategory": {
                    "value": "defensive"
                },
                "actionType": {
                    "value": "passive"
                },
                "actions": {
                    "value": null
                },
                "description": {
                    "value": "<p>@Localize[PF2E.NPC.Abilities.Glossary.AllAroundVision]</p>"
                },
                "requirements": {
                    "value": ""
                },
                "rules": [
                    {
                        "key": "ActiveEffectLike",
                        "mode": "override",
                        "path": "data.attributes.flanking.flankable",
                        "value": false
                    }
                ],
                "slug": "all-around-vision",
                "source": {
                    "value": ""
                },
                "traits": {
                    "custom": "",
                    "rarity": "common",
                    "value": []
                },
                "trigger": {
                    "value": ""
                },
                "weapon": {
                    "value": ""
                }
            },
            "effects": [],
            "flags": {
                "core": {
                    "sourceId": "Compendium.pf2e.bestiary-ability-glossary-srd.9qV49KjZujZnSp6w"
                }
            },
            "img": "systems/pf2e/icons/actions/Passive.webp",
            "name": "All-Around Vision",
            "sort": 500000,
            "type": "action"
        },
        {
            "_id": "0KLll6op6LwSp19s",
            "data": {
                "actionCategory": {
                    "value": "defensive"
                },
                "actionType": {
                    "value": "passive"
                },
                "actions": {
                    "value": null
                },
                "description": {
                    "value": "<p>The hydra has @Compendium[pf2e.bestiary-ability-glossary-srd.Regeneration]{Regeneration} equal to 3 x the number of heads it has. If a hydra's body is missing any heads and the remaining stumps have not been cauterized, the hydra attempts a @Check[type:fortitude|dc:25] save after it regains Hit Points from regeneration. On a success, one uncauterized stump regrows two heads; on a critical success, two uncauterized stumps regrow into two heads each. The hydra can never grow more than double the number of heads it ordinarily has. The hydra's regeneration only fully deactivates if all its heads are severed and all stumps are cauterized, at which point it dies.</p>"
                },
                "requirements": {
                    "value": ""
                },
                "rules": [],
                "slug": null,
                "source": {
                    "value": ""
                },
                "traits": {
                    "custom": "",
                    "rarity": "common",
                    "value": []
                },
                "trigger": {
                    "value": ""
                },
                "weapon": {
                    "value": ""
                }
            },
            "effects": [],
            "flags": {},
            "img": "systems/pf2e/icons/actions/Passive.webp",
            "name": "Hydra Regeneration",
            "sort": 600000,
            "type": "action"
        },
        {
            "_id": "1VqUGL35cW3NbTOz",
            "data": {
                "actionCategory": {
                    "value": "defensive"
                },
                "actionType": {
                    "value": "reaction"
                },
                "actions": {
                    "value": null
                },
                "description": {
                    "value": "<p>@Localize[PF2E.NPC.Abilities.Glossary.AttackOfOpportunity]</p>"
                },
                "requirements": {
                    "value": ""
                },
                "rules": [],
                "slug": "attack-of-opportunity",
                "source": {
                    "value": ""
                },
                "traits": {
                    "custom": "",
                    "rarity": "common",
                    "value": []
                },
                "trigger": {
                    "value": ""
                },
                "weapon": {
                    "value": ""
                }
            },
            "effects": [],
            "flags": {
                "core": {
                    "sourceId": "Compendium.pf2e.bestiary-ability-glossary-srd.hFtNbo1LKYCoDy2O"
                }
            },
            "img": "systems/pf2e/icons/actions/Reaction.webp",
            "name": "Attack of Opportunity",
            "sort": 700000,
            "type": "action"
        },
        {
            "_id": "m2aEAnMnepSKN57G",
            "data": {
                "actionCategory": {
                    "value": "defensive"
                },
                "actionType": {
                    "value": "passive"
                },
                "actions": {
                    "value": null
                },
                "description": {
                    "value": "<p>A hydra ordinarily has five heads. A creature can attempt to sever one of the hydra's heads by specifically targeting it and dealing damage equal to the head's Hit Points. A head that is not completely severed returns to full Hit Points at the end of any creature's turn.</p>\n<p>A hydra can regrow a severed head using Hydra Regeneration. A creature can prevent this regrowth by dealing acid or fire damage to the stump, cauterizing it. Single-target acid or fire effects need to be targeted at a specific stump, but effects that deal splash damage or affect areas covering the hydra's whole space cauterize all stumps if they deal acid or fire damage. If the attack that severs a head deals any acid or fire damage, the stump is cauterized instantly. If all five heads are cauterized, the hydra dies.</p>\n<hr />\n<div data-visibility=\"gm\">\n<p><strong>Hydra Head</strong></p>\n<ul>\n<li><strong>Hit Points</strong> 15</li>\n<li><strong>Immunities</strong> Area Damage</li>\n<li><strong>Weaknesses</strong> Slashing 5</li>\n</ul>\n</div>\n<hr />\n<p>@Compendium[pf2e.bestiary-effects.Effect: Hydra Heads]{Effect: Hydra Heads}</p>"
                },
                "requirements": {
                    "value": ""
                },
                "rules": [],
                "slug": null,
                "source": {
                    "value": ""
                },
                "traits": {
                    "custom": "",
                    "rarity": "common",
                    "value": []
                },
                "trigger": {
                    "value": ""
                },
                "weapon": {
                    "value": ""
                }
            },
            "effects": [],
            "flags": {},
            "img": "systems/pf2e/icons/actions/Passive.webp",
            "name": "Head Regrowth",
            "sort": 800000,
            "type": "action"
        },
        {
            "_id": "pSKjTPdO8e9KO9LI",
            "data": {
                "actionCategory": {
                    "value": "defensive"
                },
                "actionType": {
                    "value": "passive"
                },
                "actions": {
                    "value": null
                },
                "description": {
                    "value": "<p>A hydra gains an extra reaction per round for each of its heads beyond the first, which it can use only to make Attacks of Opportunity. It can't use more than 1 reaction on the same triggering action, even if a creature leaves several squares within its reach, and the hydra must use a different head for each Attack of Opportunity it makes. Whenever one of the hydra's heads is severed, the hydra loses 1 of its extra reactions per round.</p>"
                },
                "requirements": {
                    "value": ""
                },
                "rules": [],
                "slug": null,
                "source": {
                    "value": ""
                },
                "traits": {
                    "custom": "",
                    "rarity": "common",
                    "value": []
                },
                "trigger": {
                    "value": ""
                },
                "weapon": {
                    "value": ""
                }
            },
            "effects": [],
            "flags": {},
            "img": "systems/pf2e/icons/actions/Passive.webp",
            "name": "Multiple Opportunities",
            "sort": 900000,
            "type": "action"
        },
        {
            "_id": "FGm1xbUPgE0BRiSf",
            "data": {
                "actionCategory": {
                    "value": "offensive"
                },
                "actionType": {
                    "value": "action"
                },
                "actions": {
                    "value": 2
                },
                "description": {
                    "value": "<p>The hydra attacks a single target with its heads, overwhelming its foe with multiple attacks and leaving almost nowhere to dodge. The hydra Strikes with its fangs. On a successful attack, the hydra deals damage from its fangs Strike to the target, plus an additional [[/r {1d6}]]{1d6 damage} for every head it has beyond the first. Even on a failed attack, the hydra deals the damage from one fangs Strike to the target creature, though it still misses completely on a critical failure. This counts toward the hydra's multiple attack penalty as a number of attacks equal to the number of heads the hydra has.</p>"
                },
                "requirements": {
                    "value": ""
                },
                "rules": [
                    {
                        "domain": "damage-roll",
                        "key": "RollOption",
                        "option": "focusedAssault",
                        "toggleable": true
                    }
                ],
                "slug": null,
                "source": {
                    "value": ""
                },
                "traits": {
                    "custom": "",
                    "rarity": "common",
                    "value": []
                },
                "trigger": {
                    "value": ""
                },
                "weapon": {
                    "value": ""
                }
            },
            "effects": [],
            "flags": {},
            "img": "systems/pf2e/icons/actions/TwoActions.webp",
            "name": "Focused Assault",
            "sort": 1000000,
            "type": "action"
        },
        {
            "_id": "0L6qwj5JpEiwbnph",
            "data": {
                "actionCategory": {
                    "value": "offensive"
                },
                "actionType": {
                    "value": "action"
                },
                "actions": {
                    "value": 2
                },
                "description": {
                    "value": "<p>The hydra makes a number of Strikes up to its number of heads, each against a different target. These attacks count toward the hydra's multiple attack penalty, but the multiple attack penalty doesn't increase until after the hydra makes all its attacks.</p>"
                },
                "requirements": {
                    "value": ""
                },
                "rules": [],
                "slug": null,
                "source": {
                    "value": ""
                },
                "traits": {
                    "custom": "",
                    "rarity": "common",
                    "value": []
                },
                "trigger": {
                    "value": ""
                },
                "weapon": {
                    "value": ""
                }
            },
            "effects": [],
            "flags": {},
            "img": "systems/pf2e/icons/actions/TwoActions.webp",
            "name": "Storm of Jaws",
            "sort": 1100000,
            "type": "action"
        },
        {
            "_id": "33Y77ow1L9XFERU5",
            "data": {
                "description": {
                    "value": ""
                },
                "mod": {
                    "value": 17
                },
                "proficient": {
                    "value": 0
                },
                "rules": [],
                "slug": null,
                "source": {
                    "value": ""
                },
                "traits": {
                    "custom": "",
                    "rarity": "common",
                    "value": []
                }
            },
            "effects": [],
            "flags": {},
            "img": "systems/pf2e/icons/default-icons/lore.svg",
            "name": "Athletics",
            "sort": 1200000,
            "type": "lore"
        },
        {
            "_id": "HZjTjHMm6PiqprBW",
            "data": {
                "description": {
                    "value": ""
                },
                "mod": {
                    "value": 12
                },
                "proficient": {
                    "value": 0
                },
                "rules": [
                    {
                        "key": "FlatModifier",
                        "label": "PF2E.SkillVariant.Water",
                        "predicate": {
                            "all": [
                                "terrain:water"
                            ]
                        },
                        "selector": "stealth",
                        "value": 3
                    }
                ],
                "slug": null,
                "source": {
                    "value": ""
                },
                "traits": {
                    "custom": "",
                    "rarity": "common",
                    "value": []
                },
                "variants": {
                    "0": {
                        "label": "+15 in water",
                        "options": "terrain:water"
                    }
                }
            },
            "effects": [],
            "flags": {},
            "img": "systems/pf2e/icons/default-icons/lore.svg",
            "name": "Stealth",
            "sort": 1300000,
            "type": "lore"
        }
    ],
    "name": "Hydra",
    "token": {
        "disposition": -1,
        "height": 3,
        "img": "systems/pf2e/icons/default-icons/npc.svg",
        "name": "Hydra",
        "width": 3
    },
    "type": "npc"
}
