{
    "_id": "NpcS7iocNNsno6lE",
    "data": {
        "abilities": {
            "cha": {
                "mod": 5
            },
            "con": {
                "mod": 7
            },
            "dex": {
                "mod": 5
            },
            "int": {
                "mod": -1
            },
            "str": {
                "mod": 9
            },
            "wis": {
                "mod": 5
            }
        },
        "attributes": {
            "ac": {
                "details": "",
                "value": 37
            },
            "allSaves": {
                "value": "+1 status to all saves vs. positive"
            },
            "hp": {
                "details": "negative healing",
                "max": 350,
                "temp": 0,
                "value": 350
            },
            "initiative": {
                "ability": "perception"
            },
            "perception": {
                "value": 27
            },
            "speed": {
                "otherSpeeds": [],
                "value": "30"
            }
        },
        "details": {
            "alignment": {
                "value": "NE"
            },
            "blurb": "",
            "creatureType": "Undead",
            "level": {
                "value": 16
            },
            "privateNotes": "",
            "publicNotes": "<p>A warsworn is an animate mass of corpses composed of dozens, sometimes even hundreds, of victims of battle. They are formed by deities of undeath or war or, rarely, spontaneously manifest from the devastation of an especially horrendous battle.</p>",
            "source": {
                "value": "Pathfinder Bestiary"
            }
        },
        "resources": {},
        "saves": {
            "fortitude": {
                "saveDetail": "",
                "value": 29
            },
            "reflex": {
                "saveDetail": "",
                "value": 25
            },
            "will": {
                "saveDetail": "",
                "value": 27
            }
        },
        "traits": {
            "ci": [],
            "di": {
                "custom": "",
                "value": [
                    "death-effects",
                    "disease",
                    "paralyzed",
                    "poison",
                    "unconscious"
                ]
            },
            "dr": [],
            "dv": [],
            "languages": {
                "custom": "(Can't Speak Any Language)",
                "selected": [],
                "value": [
                    "common"
                ]
            },
            "rarity": "uncommon",
            "senses": {
                "value": "darkvision"
            },
            "size": {
                "value": "grg"
            },
            "traits": {
                "custom": "",
                "value": [
                    "undead"
                ]
            }
        }
    },
    "effects": [],
    "flags": {},
    "img": "systems/pf2e/icons/default-icons/npc.svg",
    "items": [
        {
            "_id": "vZOKYoSD979v70vq",
            "data": {
                "attack": {
                    "value": ""
                },
                "attackEffects": {
                    "custom": "",
                    "value": [
                        "energy-drain"
                    ]
                },
                "bonus": {
                    "value": 32
                },
                "damageRolls": {
                    "ol6tix6csupnw2z9ffoq": {
                        "damage": "4d12+9",
                        "damageType": "bludgeoning"
                    }
                },
                "description": {
                    "value": ""
                },
                "rules": [],
                "slug": null,
                "source": {
                    "value": ""
                },
                "traits": {
                    "custom": "",
                    "rarity": "common",
                    "value": [
                        "magical"
                    ]
                },
                "weaponType": {
                    "value": "melee"
                }
            },
            "effects": [],
            "flags": {},
            "img": "systems/pf2e/icons/default-icons/melee.svg",
            "name": "Corpse Wave",
            "sort": 100000,
            "type": "melee"
        },
        {
            "_id": "QKtfubIn7OYITmUL",
            "data": {
                "attack": {
                    "value": ""
                },
                "attackEffects": {
                    "custom": "",
                    "value": []
                },
                "bonus": {
                    "value": 30
                },
                "damageRolls": {
                    "f4qpy7b7las0v6vqvc2c": {
                        "damage": "",
                        "damageType": "chaotic"
                    }
                },
                "description": {
                    "value": "<p>Four of the weapon's damage dice +9 of the weapon's damage type.</p>"
                },
                "rules": [],
                "slug": null,
                "source": {
                    "value": ""
                },
                "traits": {
                    "custom": "",
                    "rarity": "common",
                    "value": [
                        "agile",
                        "magical",
                        "reach-100",
                        "versatile-b",
                        "versatile-p"
                    ]
                },
                "weaponType": {
                    "value": "melee"
                }
            },
            "effects": [],
            "flags": {},
            "img": "systems/pf2e/icons/default-icons/melee.svg",
            "name": "Animated Weapon",
            "sort": 200000,
            "type": "melee"
        },
        {
            "_id": "Xd6tMydNtV3GyWPm",
            "data": {
                "attack": {
                    "value": ""
                },
                "attackEffects": {
                    "custom": "",
                    "value": [
                        "plummet"
                    ]
                },
                "bonus": {
                    "value": 28
                },
                "damageRolls": {
                    "cg7x0mifehpirudqf3ho": {
                        "damage": "4d12+9",
                        "damageType": "bludgeoning"
                    }
                },
                "description": {
                    "value": ""
                },
                "rules": [],
                "slug": null,
                "source": {
                    "value": ""
                },
                "traits": {
                    "custom": "",
                    "rarity": "common",
                    "value": [
                        "magical",
                        "range-increment-100"
                    ]
                },
                "weaponType": {
                    "value": "ranged"
                }
            },
            "effects": [],
            "flags": {},
            "img": "systems/pf2e/icons/default-icons/melee.svg",
            "name": "Scrap Ball",
            "sort": 300000,
            "type": "melee"
        },
        {
            "_id": "6pFoOIHjIKB8RSDO",
            "data": {
                "actionCategory": {
                    "value": "interaction"
                },
                "actionType": {
                    "value": "passive"
                },
                "actions": {
                    "value": null
                },
                "description": {
                    "value": "<p>@Localize[PF2E.NPC.Abilities.Glossary.Darkvision]</p>"
                },
                "requirements": {
                    "value": ""
                },
                "rules": [],
                "slug": "darkvision",
                "source": {
                    "value": ""
                },
                "traits": {
                    "custom": "",
                    "rarity": "common",
                    "value": []
                },
                "trigger": {
                    "value": ""
                },
                "weapon": {
                    "value": ""
                }
            },
            "effects": [],
            "flags": {
                "core": {
                    "sourceId": "Compendium.pf2e.bestiary-ability-glossary-srd.qCCLZhnp2HhP3Ex6"
                }
            },
            "img": "systems/pf2e/icons/actions/Passive.webp",
            "name": "Darkvision",
            "sort": 400000,
            "type": "action"
        },
        {
            "_id": "vhMuwHfxhvT3a6e2",
            "data": {
                "actionCategory": {
                    "value": "defensive"
                },
                "actionType": {
                    "value": "passive"
                },
                "actions": {
                    "value": null
                },
                "description": {
                    "value": ""
                },
                "requirements": {
                    "value": ""
                },
                "rules": [
                    {
                        "key": "FlatModifier",
                        "predicate": {
                            "all": [
                                "positive"
                            ]
                        },
                        "selector": "saving-throw",
                        "type": "status",
                        "value": 1
                    }
                ],
                "slug": "1-status-to-all-saves-vs-magic",
                "source": {
                    "value": ""
                },
                "traits": {
                    "custom": "",
                    "rarity": "common",
                    "value": []
                },
                "trigger": {
                    "value": ""
                },
                "weapon": {
                    "value": ""
                }
            },
            "effects": [],
            "flags": {
                "core": {
                    "sourceId": "Compendium.pf2e.bestiary-ability-glossary-srd.kquBnQ0kObZztnBc"
                }
            },
            "img": "systems/pf2e/icons/actions/Passive.webp",
            "name": "+1 Status to All Saves vs Positive",
            "sort": 500000,
            "type": "action"
        },
        {
            "_id": "TKC7njhX3a3mq4eY",
            "data": {
                "actionCategory": {
                    "value": "defensive"
                },
                "actionType": {
                    "value": "passive"
                },
                "actions": {
                    "value": null
                },
                "description": {
                    "value": "<p>@Localize[PF2E.NPC.Abilities.Glossary.NegativeHealing]</p>"
                },
                "requirements": {
                    "value": ""
                },
                "rules": [
                    {
                        "key": "ActiveEffectLike",
                        "mode": "override",
                        "path": "data.attributes.hp.negativeHealing",
                        "value": true
                    }
                ],
                "slug": "negative-healing",
                "source": {
                    "value": ""
                },
                "traits": {
                    "custom": "",
                    "rarity": "common",
                    "value": []
                },
                "trigger": {
                    "value": ""
                },
                "weapon": {
                    "value": ""
                }
            },
            "effects": [],
            "flags": {
                "core": {
                    "sourceId": "Compendium.pf2e.bestiary-ability-glossary-srd.TTCw5NusiSSkJU1x"
                }
            },
            "img": "systems/pf2e/icons/actions/Passive.webp",
            "name": "Negative Healing",
            "sort": 600000,
            "type": "action"
        },
        {
            "_id": "vcD6GpR7alODPFzn",
            "data": {
                "actionCategory": {
                    "value": "defensive"
                },
                "actionType": {
                    "value": "reaction"
                },
                "actions": {
                    "value": null
                },
                "description": {
                    "value": "<p>@Localize[PF2E.NPC.Abilities.Glossary.AttackOfOpportunity]</p>"
                },
                "requirements": {
                    "value": ""
                },
                "rules": [],
                "slug": "attack-of-opportunity",
                "source": {
                    "value": ""
                },
                "traits": {
                    "custom": "",
                    "rarity": "common",
                    "value": []
                },
                "trigger": {
                    "value": ""
                },
                "weapon": {
                    "value": ""
                }
            },
            "effects": [],
            "flags": {
                "core": {
                    "sourceId": "Compendium.pf2e.bestiary-ability-glossary-srd.hFtNbo1LKYCoDy2O"
                }
            },
            "img": "systems/pf2e/icons/actions/Reaction.webp",
            "name": "Attack of Opportunity",
            "sort": 700000,
            "type": "action"
        },
        {
            "_id": "I98w77MsvsKISF0z",
            "data": {
                "actionCategory": {
                    "value": "defensive"
                },
                "actionType": {
                    "value": "passive"
                },
                "actions": {
                    "value": null
                },
                "description": {
                    "value": "<p>@Template[type:emanation|distance:100]{100 feet} @Compendium[pf2e.bestiary-ability-glossary-srd.Aura]{Aura} @Check[type:will|dc:35]</p>\n<hr />\n<p>@Localize[PF2E.NPC.Abilities.Glossary.FrightfulPresence]</p>"
                },
                "requirements": {
                    "value": ""
                },
                "rules": [],
                "slug": "frightful-presence",
                "source": {
                    "value": ""
                },
                "traits": {
                    "custom": "",
                    "rarity": "common",
                    "value": [
                        "aura",
                        "emotion",
                        "fear",
                        "mental"
                    ]
                },
                "trigger": {
                    "value": ""
                },
                "weapon": {
                    "value": ""
                }
            },
            "effects": [],
            "flags": {
                "core": {
                    "sourceId": "Compendium.pf2e.bestiary-ability-glossary-srd.etMnv73EIdEZrYYu"
                }
            },
            "img": "systems/pf2e/icons/actions/Passive.webp",
            "name": "Frightful Presence",
            "sort": 800000,
            "type": "action"
        },
        {
            "_id": "83qHKEXcHOEaa6iS",
            "data": {
                "actionCategory": {
                    "value": "offensive"
                },
                "actionType": {
                    "value": "free"
                },
                "actions": {
                    "value": null
                },
                "description": {
                    "value": "<p data-visibility=\"gm\"><strong>Trigger</strong> The warsworn moves into a @Compendium[pf2e.conditionitems.Dying]{Dying} creature's space.</p>\n<p><strong>Effect</strong> The warsworn absorbs the dying creature into itself, instantly killing the creature and healing the warsworn for a number of Hit Points equal to the creature's level. As long as the warsworn still exists, absorbed creatures can't be resurrected except by <em>@Compendium[pf2e.spells-srd.Wish]{Wish}</em> or a similarly powerful effect.</p>"
                },
                "requirements": {
                    "value": ""
                },
                "rules": [],
                "slug": null,
                "source": {
                    "value": ""
                },
                "traits": {
                    "custom": "",
                    "rarity": "common",
                    "value": [
                        "death",
                        "divine",
                        "necromancy"
                    ]
                },
                "trigger": {
                    "value": ""
                },
                "weapon": {
                    "value": ""
                }
            },
            "effects": [],
            "flags": {},
            "img": "systems/pf2e/icons/actions/FreeAction.webp",
            "name": "Absorb",
            "sort": 900000,
            "type": "action"
        },
        {
            "_id": "qaGJzO6SddpAXZKg",
            "data": {
                "actionCategory": {
                    "value": "offensive"
                },
                "actionType": {
                    "value": "passive"
                },
                "actions": {
                    "value": null
                },
                "description": {
                    "value": "<p>The warsworn assumes control of unattended weapons within 100 feet, forcing them to levitate around it. The warsworn can telekinetically wield these weapons to make melee Strikes with a reach of 100 feet.</p>"
                },
                "requirements": {
                    "value": ""
                },
                "rules": [],
                "slug": null,
                "source": {
                    "value": ""
                },
                "traits": {
                    "custom": "",
                    "rarity": "common",
                    "value": [
                        "divine",
                        "evocation"
                    ]
                },
                "trigger": {
                    "value": ""
                },
                "weapon": {
                    "value": ""
                }
            },
            "effects": [],
            "flags": {},
            "img": "systems/pf2e/icons/actions/Passive.webp",
            "name": "Animated Weapons",
            "sort": 1000000,
            "type": "action"
        },
        {
            "_id": "yLFnxHxGno0eHAjr",
            "data": {
                "actionCategory": {
                    "value": "offensive"
                },
                "actionType": {
                    "value": "passive"
                },
                "actions": {
                    "value": null
                },
                "description": {
                    "value": "<p>When a warsworn hits with a corpse wave Strike or damages a creature with Trample, the target must succeed at a @Check[type:fortitude|dc:35] save or become @Compendium[pf2e.conditionitems.Drained]{Drained 2} and @Compendium[pf2e.conditionitems.Doomed]{Doomed 1}. On a critical success, the target becomes temporarily immune to the warsworn's energy drain for 24 hours.</p>"
                },
                "requirements": {
                    "value": ""
                },
                "rules": [],
                "slug": null,
                "source": {
                    "value": ""
                },
                "traits": {
                    "custom": "",
                    "rarity": "common",
                    "value": [
                        "divine",
                        "necromancy"
                    ]
                },
                "trigger": {
                    "value": ""
                },
                "weapon": {
                    "value": ""
                }
            },
            "effects": [],
            "flags": {},
            "img": "systems/pf2e/icons/actions/Passive.webp",
            "name": "Energy Drain",
            "sort": 1100000,
            "type": "action"
        },
        {
            "_id": "Dzxj1t6HVexa7Wyz",
            "data": {
                "actionCategory": {
                    "value": "offensive"
                },
                "actionType": {
                    "value": "passive"
                },
                "actions": {
                    "value": null
                },
                "description": {
                    "value": "<p>A creature hit by a warsworn's scrap ball Strike must attempt a @Check[type:reflex|dc:37] save. On a failure, the target falls @Compendium[pf2e.conditionitems.Prone]{Prone}; if the target was airborne, it falls up to 120 feet, taking damage from the fall and landing prone if the descent brings it to the ground. On a critical failure, the target is also held under a pile of scrap (DC 37 to @Compendium[pf2e.actionspf2e.Escape]{Escape}).</p>"
                },
                "requirements": {
                    "value": ""
                },
                "rules": [],
                "slug": null,
                "source": {
                    "value": ""
                },
                "traits": {
                    "custom": "",
                    "rarity": "common",
                    "value": []
                },
                "trigger": {
                    "value": ""
                },
                "weapon": {
                    "value": ""
                }
            },
            "effects": [],
            "flags": {},
            "img": "systems/pf2e/icons/actions/Passive.webp",
            "name": "Plummet",
            "sort": 1200000,
            "type": "action"
        },
        {
            "_id": "S2UbYSN0YRKJbMS0",
            "data": {
                "actionCategory": {
                    "value": "offensive"
                },
                "actionType": {
                    "value": "action"
                },
                "actions": {
                    "value": 3
                },
                "description": {
                    "value": "<p>Huge or smaller, corpse wave, @Check[type:reflex|dc:37|basic:true] save</p>\n<hr />\n<p>@Localize[PF2E.NPC.Abilities.Glossary.Trample]</p>"
                },
                "requirements": {
                    "value": ""
                },
                "rules": [],
                "slug": "trample",
                "source": {
                    "value": ""
                },
                "traits": {
                    "custom": "",
                    "rarity": "common",
                    "value": []
                },
                "trigger": {
                    "value": ""
                },
                "weapon": {
                    "value": ""
                }
            },
            "effects": [],
            "flags": {
                "core": {
                    "sourceId": "Compendium.pf2e.bestiary-ability-glossary-srd.UNah0bxXxkcZjxO3"
                }
            },
            "img": "systems/pf2e/icons/actions/ThreeActions.webp",
            "name": "Trample",
            "sort": 1300000,
            "type": "action"
        },
        {
            "_id": "bdS2bv0TVcfi2WcL",
            "data": {
                "description": {
                    "value": ""
                },
                "mod": {
                    "value": 33
                },
                "proficient": {
                    "value": 0
                },
                "rules": [],
                "slug": null,
                "source": {
                    "value": ""
                },
                "traits": {
                    "custom": "",
                    "rarity": "common",
                    "value": []
                }
            },
            "effects": [],
            "flags": {},
            "img": "systems/pf2e/icons/default-icons/lore.svg",
            "name": "Athletics",
            "sort": 1400000,
            "type": "lore"
        }
    ],
    "name": "Warsworn",
    "token": {
        "disposition": -1,
        "height": 4,
        "img": "systems/pf2e/icons/default-icons/npc.svg",
        "name": "Warsworn",
        "width": 4
    },
    "type": "npc"
}
