{
    "_id": "R8clbf7gtIlU3fIj",
    "data": {
        "badge": null,
        "description": {
            "value": "<p>The creature takes a -10-foot penalty to all Speeds.</p>"
        },
        "duration": {
            "expiry": "turn-start",
            "sustained": false,
            "unit": "unlimited",
            "value": -1
        },
        "level": {
            "value": 15
        },
        "rules": [
            {
                "key": "FlatModifier",
                "selector": "speed",
                "value": -10
            }
        ],
        "source": {
            "value": "Pathfinder #162: Ruins of the Radiant Siege"
        },
        "start": {
            "initiative": null,
            "value": 0
        },
        "target": null,
        "tokenIcon": {
            "show": true
        },
        "traits": {
            "custom": "",
            "rarity": "common",
            "value": []
        }
    },
    "effects": [],
    "flags": {},
    "img": "systems/pf2e/icons/spells/face-in-the-crowd.webp",
    "name": "Effect: Crush of Hundreds",
    "type": "effect"
}
