{
    "_id": "VFIVdYmS3XTdd3hj",
    "data": {
        "badge": null,
        "description": {
            "value": "<p>The creature gains weakness to fire 15.</p>"
        },
        "duration": {
            "expiry": "turn-start",
            "sustained": false,
            "unit": "unlimited",
            "value": -1
        },
        "level": {
            "value": 14
        },
        "rules": [
            {
                "key": "Weakness",
                "type": "fire",
                "value": 15
            }
        ],
        "source": {
            "value": "Pathfinder Bestiary"
        },
        "start": {
            "initiative": null,
            "value": 0
        },
        "target": null,
        "tokenIcon": {
            "show": true
        },
        "traits": {
            "custom": "",
            "rarity": "common",
            "value": []
        }
    },
    "effects": [],
    "flags": {},
    "img": "systems/pf2e/icons/spells/fire-ray.webp",
    "name": "Effect: Curse of Fire",
    "type": "effect"
}
