{
    "_id": "mq8bsMnrY81gUEYb",
    "data": {
        "attributes": {
            "ac": {
                "check": 0,
                "details": "",
                "value": 10
            },
            "collisionDC": {
                "value": 14
            },
            "collisionDamage": {
                "value": "1d10"
            },
            "hardness": 4,
            "hp": {
                "brokenThreshold": 5,
                "details": "",
                "max": 14,
                "temp": 0,
                "value": 14
            }
        },
        "details": {
            "AC": 0,
            "crew": "1 pilot",
            "description": "",
            "level": {
                "value": 0
            },
            "passengers": "1",
            "pilotingCheck": "Driving Lore (DC 14) or Nature (DC 16 to DC 24, depending on pulling creature)",
            "price": "3",
            "space": {
                "high": 4,
                "long": 10,
                "wide": 5
            },
            "speed": "the Speed of the slowest pulling creature (pulled by 1 Large creature)"
        },
        "saves": {
            "fortitude": {
                "item": 0,
                "rank": 0,
                "saveDetail": "",
                "value": 6
            }
        },
        "source": {
            "value": "Pathfinder Gamemastery Guide"
        },
        "traits": {
            "ci": [],
            "di": {
                "custom": "",
                "value": [
                    "critical-hits",
                    "object-immunities",
                    "precision"
                ]
            },
            "dr": [],
            "dv": [],
            "rarity": "common",
            "size": {
                "value": "lg"
            },
            "traits": {
                "custom": "",
                "value": []
            }
        }
    },
    "effects": [],
    "flags": {},
    "img": "systems/pf2e/icons/default-icons/vehicle.svg",
    "items": [],
    "name": "Cart",
    "token": {
        "disposition": 0,
        "height": 2,
        "img": "systems/pf2e/icons/default-icons/vehicle.svg",
        "name": "Cart",
        "width": 1
    },
    "type": "vehicle"
}
