{
    "_id": "ttGtrGAOC2QRBWjn",
    "data": {
        "attributes": {
            "ac": {
                "value": 16
            },
            "hardness": 5,
            "hasHealth": true,
            "hp": {
                "details": "",
                "max": 10,
                "temp": 0,
                "value": 10
            },
            "stealth": {
                "details": "<p>(trained)</p>",
                "value": 7
            }
        },
        "creatureType": "",
        "details": {
            "description": "<p>Pressure sensitive panels in the floor connect to a barrel of debris hidden in the hallway's ceiling</p>",
            "disable": "<p>@Check[type:skill|dc:20|name:Disable Floor Panels|traits:mechanical,trap]{Thievery} (trained) on the floor panels before the barrel falls</p>",
            "isComplex": false,
            "level": {
                "value": 1
            },
            "reset": "",
            "routine": ""
        },
        "saves": {
            "fortitude": {
                "saveDetail": "",
                "value": 10
            },
            "reflex": {
                "saveDetail": "",
                "value": 2
            },
            "will": {
                "saveDetail": "",
                "value": 0
            }
        },
        "source": {
            "value": "Pathfinder Society Quest #10: The Broken Scales"
        },
        "statusEffects": [],
        "traits": {
            "ci": [],
            "di": {
                "custom": "",
                "selected": {},
                "value": [
                    "critical-hits",
                    "object-immunities",
                    "precision"
                ]
            },
            "dr": [],
            "dv": [],
            "rarity": "common",
            "size": {
                "value": "med"
            },
            "traits": {
                "custom": "",
                "value": []
            }
        }
    },
    "effects": [],
    "flags": {},
    "img": "systems/pf2e/icons/default-icons/hazard.svg",
    "items": [
        {
            "_id": "gUO04W6BePc1HrZr",
            "data": {
                "actionCategory": {
                    "value": "offensive"
                },
                "actionType": {
                    "value": "reaction"
                },
                "actions": {
                    "value": null
                },
                "description": {
                    "value": "<p data-visibility=\"gm\"><strong>Trigger</strong> Pressure is placed on any floor tile</p>\n<p><strong>Effect</strong> The barrel of debris tips over and showers broken glass down. The glass deals [[/r {2d8}[slashing]]]{2d8 slashing damage} and [[/r {1}[persistent,bleed]]] @Compendium[pf2e.conditionitems.Persistent Damage]{Persistent Bleed Damage}(@Check[type:reflex|dc:20|basic:true|name:Dodge Falling Debris|traits:mechanical,trap] save) to all creatures within 10 feet.</p>"
                },
                "requirements": {
                    "value": ""
                },
                "rules": [],
                "slug": null,
                "source": {
                    "value": ""
                },
                "traits": {
                    "custom": "",
                    "rarity": "common",
                    "value": []
                },
                "trigger": {
                    "value": ""
                },
                "weapon": {
                    "value": ""
                }
            },
            "effects": [],
            "flags": {},
            "img": "systems/pf2e/icons/actions/Reaction.webp",
            "name": "Falling Debris",
            "sort": 0,
            "type": "action"
        }
    ],
    "name": "Trapmaster Tok's Surprise (1-2)",
    "token": {
        "disposition": 0,
        "height": 1,
        "img": "systems/pf2e/icons/default-icons/hazard.svg",
        "name": "Trapmaster Tok's Surprise",
        "width": 1
    },
    "type": "hazard"
}
