{
    "_id": "vg6fEjWSj4jilXRn",
    "data": {
        "attributes": {
            "ac": {
                "value": 22
            },
            "hardness": 12,
            "hasHealth": true,
            "hp": {
                "details": "",
                "max": 14,
                "temp": 0,
                "tempmax": 0,
                "value": 14
            },
            "stealth": {
                "details": "DC 22 Perception check to spot the magical energies reverberating in the pillars",
                "value": 12
            }
        },
        "creatureType": "",
        "customModifiers": {},
        "details": {
            "description": "<p>Starknife symbols on the six pillars glow and shoot across the room.</p>",
            "disable": "<p>DC 21 Thievery (expert) or dispel magic on any four of the six pillars disables the entire trap (the trap is a 2nd-level spell and the DC to dispel it is 21). Destroying any four of the six pillars also disables the trap.</p>",
            "isComplex": true,
            "level": {
                "value": 5
            },
            "reset": "<p>The trap deactivates 1 round after it has no target creatures and resets each day at sundown.</p>",
            "routine": "<p>(3 actions) For each of its actions on its turn, a carving on a different pillar glows and makes a magical starknife Ranged Strike against a random creature within range. Creatures might have cover from this Strike, such as from one of the pillars in the room.</p>"
        },
        "saves": {
            "fortitude": {
                "saveDetail": "",
                "value": 15
            },
            "reflex": {
                "saveDetail": "",
                "value": 9
            },
            "will": {
                "saveDetail": "",
                "value": 0
            }
        },
        "source": {
            "value": "Pathfinder Adventure: Troubles in Otari"
        },
        "statusEffects": [],
        "traits": {
            "ci": [],
            "di": {
                "custom": "sneak attack",
                "selected": {},
                "value": [
                    "critical-hits"
                ]
            },
            "dr": [],
            "dv": [],
            "rarity": "common",
            "size": {
                "value": "med"
            },
            "traits": {
                "custom": "",
                "value": [
                    "magical"
                ]
            }
        }
    },
    "effects": [],
    "flags": {},
    "img": "systems/pf2e/icons/default-icons/hazard.svg",
    "items": [
        {
            "_id": "dwvQyKJ9gUWC4S3f",
            "data": {
                "actionCategory": {
                    "value": ""
                },
                "actionType": {
                    "value": "reaction"
                },
                "actions": {
                    "value": null
                },
                "description": {
                    "value": "<p>(arcane, evocation) If a creature passes the middle pair of pillars, both doors leading out of the room slam shut and lock; while the trap is active, the doors must be battered open with a successful @Check[type:athletics|dc:23|name:Batter Open Door] check or sufficient damage (Hardness 12; HP 48 [BT 24]). One of the starknife carvings glows with light, detaches from the pillar, and then flies outward, making a magical starknife Ranged Strike against a random creature within range. The trap then rolls initiative with its Stealth modifier of +12.</p>"
                },
                "requirements": {
                    "value": ""
                },
                "rules": [],
                "slug": null,
                "source": {
                    "value": ""
                },
                "traits": {
                    "custom": "",
                    "rarity": "common",
                    "value": []
                },
                "trigger": {
                    "value": ""
                },
                "weapon": {
                    "value": ""
                }
            },
            "effects": [],
            "flags": {},
            "img": "systems/pf2e/icons/actions/Reaction.webp",
            "name": "Starknife Attack",
            "sort": 100000,
            "type": "action"
        },
        {
            "_id": "O9himtaJvrfCALhE",
            "data": {
                "attack": {
                    "value": ""
                },
                "attackEffects": {
                    "value": []
                },
                "bonus": {
                    "value": 15
                },
                "damageRolls": {
                    "suquqxt663j73c6ijrk6t3": {
                        "damage": "1d4+3",
                        "damageType": "force"
                    }
                },
                "description": {
                    "value": ""
                },
                "rules": [],
                "slug": null,
                "source": {
                    "value": ""
                },
                "traits": {
                    "custom": "",
                    "rarity": "common",
                    "value": [
                        "agile",
                        "deadly-d6",
                        "magical",
                        "range-increment-40"
                    ]
                },
                "weaponType": {
                    "value": "ranged"
                }
            },
            "effects": [],
            "flags": {},
            "img": "systems/pf2e/icons/default-icons/melee.svg",
            "name": "Magical Starknife",
            "sort": 200000,
            "type": "melee"
        }
    ],
    "name": "Magic Starknives Trap",
    "token": {
        "disposition": 0,
        "height": 1,
        "img": "systems/pf2e/icons/default-icons/hazard.svg",
        "name": "Magic Starknives Trap",
        "width": 1
    },
    "type": "hazard"
}
